{"target": 0.8570366666666667, "params": {"eta": 0.1, "num_boost_round": 100.0, "subsample": 0.2}, "datetime": {"datetime": "2019-04-15 23:42:42", "elapsed": 0.0, "delta": 0.0}}
{"target": 0.8309043333333334, "params": {"eta": 0.3, "num_boost_round": 200.0, "subsample": 0.2}, "datetime": {"datetime": "2019-04-15 23:42:45", "elapsed": 2.807283, "delta": 2.807283}}
{"target": 0.7973586666666668, "params": {"eta": 0.5, "num_boost_round": 200.0, "subsample": 0.2}, "datetime": {"datetime": "2019-04-15 23:42:48", "elapsed": 5.437488, "delta": 2.630205}}
{"target": 0.8285743333333334, "params": {"eta": 0.45, "num_boost_round": 120.0, "subsample": 0.35}, "datetime": {"datetime": "2019-04-15 23:42:49", "elapsed": 6.88185, "delta": 1.444362}}
{"target": 0.8653583333333333, "params": {"eta": 0.4, "num_boost_round": 200.0, "subsample": 0.35}, "datetime": {"datetime": "2019-04-15 23:42:52", "elapsed": 9.683882, "delta": 2.802032}}
{"target": 0.8385653333333334, "params": {"eta": 0.035, "num_boost_round": 200.0, "subsample": 0.2}, "datetime": {"datetime": "2019-04-15 23:42:55", "elapsed": 12.327349, "delta": 2.643467}}
{"target": 0.8385653333333334, "params": {"eta": 0.035, "num_boost_round": 200.0, "subsample": 0.2}, "datetime": {"datetime": "2019-04-15 23:42:55", "elapsed": 12.327619, "delta": 0.00027}}
{"target": 0.8550300000000001, "params": {"eta": 0.33, "num_boost_round": 100.0, "subsample": 0.36}, "datetime": {"datetime": "2019-04-15 23:42:56", "elapsed": 13.482823, "delta": 1.155204}}
{"target": 0.9029646666666666, "params": {"eta": 0.19039735882944445, "num_boost_round": 192.60714596148742, "subsample": 0.39279757672456206}, "datetime": {"datetime": "2019-04-15 23:42:59", "elapsed": 16.153629, "delta": 2.670806}}
{"target": 0.8224290000000001, "params": {"eta": 0.30133594967753313, "num_boost_round": 73.40279606636548, "subsample": 0.16239780813448107}, "datetime": {"datetime": "2019-04-15 23:42:59", "elapsed": 16.939852, "delta": 0.786223}}
{"target": 0.7378653333333333, "params": {"eta": 0.005, "num_boost_round": 188.98002667848715, "subsample": 0.5}, "datetime": {"datetime": "2019-04-15 23:43:04", "elapsed": 21.155204, "delta": 4.215352}}
{"target": 0.698843, "params": {"eta": 0.005, "num_boost_round": 93.38803990760977, "subsample": 0.1}, "datetime": {"datetime": "2019-04-15 23:43:06", "elapsed": 23.721973, "delta": 2.566769}}
{"target": 0.7162716666666666, "params": {"eta": 0.005, "num_boost_round": 105.20156795821573, "subsample": 0.1}, "datetime": {"datetime": "2019-04-15 23:43:09", "elapsed": 26.265518, "delta": 2.543545}}
{"target": 0.9006383333333333, "params": {"eta": 0.4873225515812694, "num_boost_round": 127.77012767848444, "subsample": 0.48573513081468656}, "datetime": {"datetime": "2019-04-15 23:43:12", "elapsed": 29.288532, "delta": 3.023014}}
{"target": 0.7118013333333334, "params": {"eta": 0.005, "num_boost_round": 131.58241938916794, "subsample": 0.1}, "datetime": {"datetime": "2019-04-15 23:43:15", "elapsed": 32.491418, "delta": 3.202886}}
{"target": 0.8856906666666666, "params": {"eta": 0.5, "num_boost_round": 124.98950502092617, "subsample": 0.5}, "datetime": {"datetime": "2019-04-15 23:43:18", "elapsed": 35.772731, "delta": 3.281313}}
{"target": 0.8135826666666667, "params": {"eta": 0.3183980857400975, "num_boost_round": 62.92275487978209, "subsample": 0.2565306719413308}, "datetime": {"datetime": "2019-04-15 23:43:20", "elapsed": 37.960063, "delta": 2.187332}}
{"target": 0.8696556666666666, "params": {"eta": 0.49796353582902686, "num_boost_round": 160.40494264406976, "subsample": 0.48681730361967934}, "datetime": {"datetime": "2019-04-15 23:43:24", "elapsed": 41.912241, "delta": 3.952178}}
{"target": 0.7233476666666666, "params": {"eta": 0.005, "num_boost_round": 154.9772682914333, "subsample": 0.1}, "datetime": {"datetime": "2019-04-15 23:43:29", "elapsed": 46.092404, "delta": 4.180163}}
{"target": 0.884551, "params": {"eta": 0.5, "num_boost_round": 165.06441685124108, "subsample": 0.5}, "datetime": {"datetime": "2019-04-15 23:43:33", "elapsed": 50.446382, "delta": 4.353978}}
