|trustLevel|totalScanTimeInSeconds|grandTotal|lineItemVoids|scansWithoutRegistration|quantityModifications|scannedLineItemsPerSecond|valuePerSecond|lineItemVoidsPerPosition|fraud
59|1|107|39.55|1|6|4|0.25233644859813104|0.369626168224299|0.037037037037037|0
1364|2|786|30.36|10|3|3|0.0089058524173028|0.0386259541984733|1.42857142857143|0
62|5|508|57.9|2|7|0|0.0275590551181102|0.11397637795275599|0.14285714285714302|0
1472|2|179|6.49|11|5|4|0.0279329608938547|0.0362569832402235|2.2|0
1374|2|187|74.73|0|5|3|0.0160427807486631|0.399625668449198|0.0|0
987|6|683|35.22|11|5|5|0.0102489019033675|0.0515666178623719|1.57142857142857|0
902|5|709|47.16|7|9|2|0.0126939351198872|0.0665162200282088|0.7777777777777779|0
1055|5|710|52.73|1|10|0|0.0140845070422535|0.0742676056338028|0.1|0
1741|1|1772|39.42|3|9|3|0.00225733634311512|0.0222460496613996|0.75|0
1626|6|1339|61.49|7|6|1|0.0141896938013443|0.0459223300970874|0.368421052631579|0
1662|5|1014|50.31|7|6|0|0.0207100591715976|0.0496153846153846|0.33333333333333304|0
386|5|1230|41.21|2|8|2|0.00650406504065041|0.0335040650406504|0.25|0
118|5|356|68.03|5|3|5|0.0196629213483146|0.191095505617978|0.7142857142857142|0
822|4|1564|74.77|10|9|2|0.00895140664961637|0.047806905370844|0.7142857142857142|0
1272|5|1677|88.07|5|7|5|0.0172927847346452|0.0525163983303518|0.172413793103448|0
312|2|43|94.91|10|1|4|0.32558139534883695|2.166486046511629|0.7142857142857142|0
1157|3|1569|74.73|9|2|2|0.0140216698534098|0.0476290630975143|0.409090909090909|0
906|4|1350|50.16|5|7|1|0.00592592592592593|0.0371555555555556|0.625|0
1101|5|1408|66.63|4|0|1|0.0205965909090909|0.0473224431818182|0.137931034482759|0
682|2|1294|89.66|8|3|3|0.0170015455950541|0.0692890262751159|0.36363636363636404|0
448|5|336|72.56|2|5|2|0.056547619047619|0.215952380952381|0.10526315789473699|0
999|5|999|99.15880000000001|0|9|1|0.019019019019018996|0.0997797797797798|0.0|0
951|1|705|35.11|10|10|3|0.0014184397163120599|0.0498014184397163|8.0|0
759|2|73|74.37|4|7|3|0.31506849315068497|1.01876712328767|0.17391304347826098|0
247|4|467|94.13|3|9|4|0.0406852248394004|0.201563169164882|0.157894736842105|0
265|1|856|15.25|0|3|5|0.0011682242990654198|0.0178154205607477|0.0|0
310|1|1362|89.74|8|6|5|0.0022026431718061698|0.0658883994126285|2.6666666666666696|0
543|4|1302|54.48|7|2|3|0.00998463901689708|0.0418433179723502|0.538461538461538|0
912|1|1717|26.33|2|4|4|0.0046592894583576|0.0153348864298195|0.25|0
40|1|1520|41.88|6|8|2|0.00131578947368421|0.0275526315789474|3.0|0
1286|4|1161|58.48|4|0|1|0.0103359173126615|0.0503703703703704|0.33333333333333304|0
1427|2|1526|79.95|10|0|1|0.009829619921363041|0.052391874180865|0.666666666666667|0
1376|5|1716|94.48|4|5|2|0.00466200466200466|0.0550582750582751|0.5|0
1699|3|141|84.92|5|0|3|0.0780141843971631|0.602269503546099|0.45454545454545503|0
262|2|1355|81.16|7|5|0|0.00811808118081181|0.0598966789667897|0.6363636363636359|0
377|4|661|88.58|4|4|1|0.0302571860816944|0.134009077155824|0.2|0
1011|2|1389|61.28|2|6|2|0.0143988480921526|0.0441180705543557|0.1|0
1753|4|1738|70.03|10|9|2|0.00575373993095512|0.0402934407364787|1.0|0
1025|1|471|43.78|4|3|0|0.0488322717622081|0.0929511677282378|0.17391304347826098|0
1191|1|970|6.14|3|3|1|0.0103092783505155|0.0063298969072165|0.3|0
341|3|848|52.37|2|4|0|0.0224056603773585|0.0617570754716981|0.10526315789473699|0
187|6|1559|68.32|11|8|5|0.0153944836433611|0.0438229634381014|0.4583333333333329|0
238|4|123|6.72|4|9|4|0.235772357723577|0.0546341463414634|0.137931034482759|0
1404|2|1173|92.99|0|8|5|0.0196078431372549|0.0792753623188406|0.0|0
1740|2|1576|60.52|5|7|2|0.00697969543147208|0.0384010152284264|0.45454545454545503|0
398|2|163|3.81|5|0|3|0.10429447852760698|0.0233742331288344|0.294117647058824|0
914|2|945|74.81|0|10|3|0.00952380952380952|0.0791640211640212|0.0|0
558|1|19|63.22|0|2|4|0.631578947368421|2.166486046511629|0.0|0
939|5|1051|98.8|5|7|3|0.00951474785918173|0.0940057088487155|0.5|0
655|3|1203|31.51|9|1|4|0.0149625935162095|0.02619285120532|0.5|0
598|6|1164|89.32|11|4|1|0.006872852233676979|0.0767353951890034|1.375|0
1181|6|649|43.34|9|3|3|0.0138674884437596|0.0667796610169492|1.0|0
855|3|566|40.21|8|0|5|0.0265017667844523|0.0710424028268551|0.5333333333333329|0
662|6|1230|17.65|9|3|2|0.0048780487804878|0.014349593495934999|1.5|0
1418|4|149|94.28|1|4|2|0.10738255033557001|0.632751677852349|0.0625|0
1398|4|750|21.78|8|3|1|0.00133333333333333|0.029039999999999996|8.0|0
1484|5|142|53.7|4|1|4|0.028169014084507005|0.378169014084507|1.0|0
1152|6|1386|34.99|6|6|4|0.0115440115440115|0.0252453102453102|0.375|0
1870|2|195|2.1|1|3|1|0.112820512820513|0.0107692307692308|0.0454545454545455|0
399|4|676|61.02|6|2|2|0.0118343195266272|0.0902662721893491|0.75|0
706|4|517|39.77|7|5|1|0.0367504835589942|0.0769245647969052|0.368421052631579|0
792|5|563|21.35|10|10|5|0.00177619893428064|0.0379218472468917|8.0|0
840|5|1017|55.61|10|10|4|0.0245821042281219|0.0546804326450344|0.4|0
155|3|1741|11.94|7|3|5|0.0166570936243538|0.00685812751292361|0.24137931034482799|0
1309|3|1389|98.2|1|4|1|0.0151187904967603|0.0706983441324694|0.0476190476190476|0
477|1|1082|10.09|11|3|5|0.011090573012939|0.009325323475046209|0.916666666666667|0
46|6|1433|72.19|7|7|0|0.0174459176552687|0.0503768318213538|0.28|0
1207|5|1340|23.53|5|7|2|0.0156716417910448|0.0175597014925373|0.23809523809523803|0
1287|6|156|95.6|8|3|0|0.115384615384615|0.612820512820513|0.444444444444444|0
960|2|1014|24.1|8|10|0|0.00394477317554241|0.023767258382642997|2.0|0
984|2|131|33.74|11|5|4|0.09923664122137402|0.257557251908397|0.8461538461538459|0
979|1|256|61.87|4|3|1|0.07421875|0.2416796875|0.21052631578947398|0
978|1|1244|57.08|4|10|0|0.00241157556270096|0.0458842443729904|1.33333333333333|0
821|6|1555|92.3|4|8|0|0.0141479099678457|0.0593569131832797|0.18181818181818202|0
1415|6|1436|72.07|0|6|5|0.0104456824512535|0.0501880222841226|0.0|0
1214|1|1582|51.93|5|0|2|0.0176991150442478|0.0328255372945638|0.178571428571429|1
371|3|1690|3.59|3|9|3|0.0136094674556213|0.0021242603550295897|0.130434782608696|0
77|4|1411|49.25|2|8|4|0.00283486888731396|0.0349043231750532|0.5|0
1570|2|1425|72.87|4|2|1|0.0168421052631579|0.0511368421052632|0.166666666666667|0
1359|6|1756|3.69|7|9|0|0.010250569476082|0.0021013667425968103|0.38888888888888895|0
1451|3|1045|49.05|7|7|2|0.0220095693779904|0.0469377990430622|0.304347826086957|0
1431|5|1201|79.43|2|5|2|0.0116569525395504|0.0661365528726062|0.14285714285714302|0
578|2|861|74.41|2|0|4|0.004645760743321721|0.0864227642276423|0.5|0
585|1|631|94.61|6|5|3|0.0190174326465927|0.149936608557845|0.5|0
139|3|1152|91.91|10|8|5|0.00173611111111111|0.0797829861111111|5.0|0
1251|1|1246|62.61|1|9|4|0.014446227929373999|0.0502487961476726|0.0555555555555556|0
1054|6|355|1.22|0|6|2|0.028169014084507005|0.00343661971830986|0.0|0
1834|2|303|46.79|3|2|3|0.0231023102310231|0.154422442244224|0.42857142857142894|0
1141|2|612|29.17|10|7|3|0.0147058823529412|0.0476633986928105|1.11111111111111|0
1845|5|1238|45.82|6|0|4|0.00565428109854604|0.0370113085621971|0.857142857142857|0
561|4|828|66.56|7|4|3|0.0072463768115942|0.0803864734299517|1.16666666666667|0
785|3|1496|25.76|6|1|2|0.00267379679144385|0.0172192513368984|1.5|0
530|1|275|65.55|1|5|1|0.0981818181818182|0.23836363636363603|0.037037037037037|0
989|2|420|12.45|11|8|5|0.0285714285714286|0.0296428571428571|0.916666666666667|0
676|2|1476|97.73|9|0|1|0.0101626016260163|0.0662127371273713|0.6|0
85|3|1660|12.58|6|5|1|0.00903614457831325|0.00757831325301205|0.4|0
164|6|488|38.44|8|1|2|0.0471311475409836|0.0787704918032787|0.34782608695652195|0
1277|6|1692|54.07|0|2|0|0.008865248226950359|0.0319562647754137|0.0|0
1190|2|573|27.9|11|6|3|0.0209424083769634|0.0486910994764398|0.916666666666667|0
344|3|1328|93.55|5|4|5|0.0210843373493976|0.0704442771084337|0.178571428571429|0
1812|3|916|21.73|4|0|2|0.0131004366812227|0.0237227074235808|0.33333333333333304|0
741|4|1292|66.07|0|9|0|0.0038699690402476798|0.0511377708978328|0.0|0
1100|6|1809|29.84|6|6|1|0.0055279159756771706|0.0164953012714207|0.6|0
1058|2|755|7.48|4|10|5|0.0132450331125828|0.00990728476821192|0.4|0
1126|5|1793|27.96|11|10|3|0.0005577244841048519|0.0155939765755717|8.0|0
43|2|1451|23.1|3|9|3|0.00137835975189524|0.0159200551343901|1.5|0
1748|3|1371|10.9|2|7|4|0.00729394602479942|0.007950401167031359|0.2|0
1525|2|1579|63.52|10|0|5|0.0164661177960735|0.0402279924002533|0.384615384615385|0
1506|6|541|27.67|10|8|5|0.0277264325323475|0.0511460258780037|0.666666666666667|0
1149|6|12|82.71|10|9|5|0.8913333333333339|2.166486046511629|0.625|0
1483|3|517|31.59|11|8|1|0.0135396518375242|0.0611025145067698|1.57142857142857|0
1657|5|1523|18.77|6|2|4|0.00262639527248851|0.0123243598161523|1.5|0
1130|4|422|60.74|10|5|1|0.0497630331753555|0.1439336492891|0.47619047619047605|0
112|2|1278|98.78|2|3|1|0.00625978090766823|0.0772926447574335|0.25|0
1032|6|1053|35.03|1|5|1|0.0284900284900285|0.0332668566001899|0.0333333333333333|0
1322|6|871|99.15880000000001|4|10|3|0.0275545350172216|0.114190585533869|0.166666666666667|0
669|6|486|91.58|3|2|4|0.0411522633744856|0.18843621399177|0.15|0
41|2|622|60.75|11|5|4|0.0128617363344051|0.0976688102893891|1.375|0
1319|1|357|54.28|6|10|4|0.0448179271708683|0.152044817927171|0.375|0
1820|4|930|40.27|8|5|3|0.0021505376344086|0.0433010752688172|4.0|0
523|4|1039|4.5|0|0|2|0.0028873917228103897|0.00433108758421559|0.0|0
1088|5|1640|22.23|5|0|5|0.00365853658536585|0.0135548780487805|0.833333333333333|0
373|4|581|92.87|5|9|2|0.00516351118760757|0.159845094664372|1.6666666666666698|0
1566|1|886|97.49|4|9|0|0.0056433408577878106|0.11003386004514698|0.8|0
105|5|533|0.28|6|0|2|0.00375234521575985|0.000525328330206379|3.0|0
384|1|950|25.83|0|1|4|0.0315789473684211|0.0271894736842105|0.0|1
1502|4|1034|4.92|11|6|4|0.023210831721470003|0.00475822050290135|0.4583333333333329|0
65|1|1123|28.94|1|0|5|0.0133570792520036|0.0257702582368655|0.0666666666666667|0
107|3|185|98.96|4|2|1|0.14594594594594598|0.5349189189189191|0.148148148148148|0
351|2|933|22.62|7|1|3|0.0182207931404073|0.0242443729903537|0.411764705882353|0
326|1|1250|21.36|7|4|3|0.0032|0.017088|1.75|0
1849|3|703|8.2|8|7|0|0.00568990042674253|0.0116642958748222|2.0|0
849|2|9|40.13|7|2|0|0.8913333333333339|2.166486046511629|0.7777777777777779|0
236|5|1026|24.44|3|3|0|0.0224171539961014|0.0238206627680312|0.130434782608696|0
1793|2|1767|63.45|11|1|1|0.0130164119977363|0.0359083191850594|0.4782608695652171|0
1518|1|1578|94.43|3|6|3|0.00190114068441065|0.0598415716096325|1.0|0
1355|3|833|75.35|3|9|1|0.00960384153661465|0.0904561824729892|0.375|0
254|5|247|41.18|5|8|5|0.0809716599190283|0.166720647773279|0.25|0
1161|6|1253|8.35|6|10|2|0.000798084596967279|0.00666400638467678|6.0|0
454|1|213|17.76|11|3|0|0.0516431924882629|0.0833802816901408|1.0|0
255|3|1365|80.09|8|2|1|0.0212454212454212|0.0586739926739927|0.27586206896551696|0
683|4|1520|49.67|5|6|2|0.0177631578947368|0.0326776315789474|0.185185185185185|0
1546|1|63|99.15880000000001|8|10|5|0.0317460317460317|1.58253968253968|4.0|0
1087|4|1480|83.67|9|7|1|0.008783783783783779|0.0565337837837838|0.6923076923076921|0
1712|2|456|88.51|10|6|0|0.00219298245614035|0.194100877192982|8.0|0
391|6|328|56.33|1|9|0|0.0640243902439024|0.17173780487804902|0.0476190476190476|0
180|1|219|89.69|3|5|5|0.11415525114155302|0.40954337899543397|0.12|0
432|5|1122|7.37|5|5|5|0.0124777183600713|0.00656862745098039|0.3571428571428571|0
935|6|1246|80.08|8|6|2|0.00240770465489567|0.0642696629213483|2.6666666666666696|0
1330|1|1509|77.05|9|5|0|0.00596421471172962|0.0510603048376408|1.0|0
994|5|992|8.43|10|0|0|0.0151209677419355|0.008497983870967741|0.666666666666667|0
1172|6|833|46.81|0|0|2|0.0360144057623049|0.0561944777911164|0.0|0
1132|4|1280|21.81|3|3|3|0.0203125|0.0170390625|0.115384615384615|0
462|6|73|31.2|6|3|5|0.410958904109589|0.42739726027397296|0.2|0
650|6|1083|35.82|4|7|1|0.00369344413665743|0.0330747922437673|1.0|0
1261|1|1672|54.3|6|0|3|0.0041866028708134|0.0324760765550239|0.857142857142857|0
354|6|1069|92.12|1|7|4|0.0187090739008419|0.0861739943872778|0.05|0
193|2|1803|7.51|6|2|0|0.00610094287298946|0.00416528008874099|0.545454545454545|0
156|1|1035|61.75|8|0|0|0.00289855072463768|0.0596618357487923|2.6666666666666696|0
1164|4|115|18.32|7|6|1|0.2|0.15930434782608702|0.304347826086957|0
729|6|1032|80.97|11|10|3|0.0290697674418605|0.0784593023255814|0.3666666666666671|0
1185|5|1271|94.65|8|1|0|0.00865460267505901|0.0744689221085759|0.7272727272727271|0
571|3|1683|64.28|10|6|5|0.0130718954248366|0.0381937017231135|0.45454545454545503|0
223|6|1100|26.82|8|0|2|0.0254545454545455|0.0243818181818182|0.28571428571428603|0
1707|4|482|93.1|3|1|1|0.0145228215767635|0.19315352697095398|0.42857142857142894|0
601|2|1230|95.63|5|7|3|0.0016260162601626|0.0777479674796748|2.5|0
339|5|1666|79.5|4|5|0|0.00240096038415366|0.047719087635054|1.0|0
123|3|435|9.79|2|5|4|0.0528735632183908|0.0225057471264368|0.0869565217391304|0
1782|3|667|14.56|3|7|2|0.0359820089955022|0.0218290854572714|0.125|0
1010|5|1230|54.94|1|7|5|0.0203252032520325|0.0446666666666667|0.04|0
1632|3|1740|46.09|3|8|1|0.00977011494252874|0.0264885057471264|0.17647058823529396|0
1092|5|859|62.57|2|8|1|0.00931315483119907|0.0728405122235157|0.25|0
1258|2|1668|50.47|1|5|0|0.0113908872901679|0.030257793764987998|0.0526315789473684|0
1698|3|404|44.62|4|5|3|0.0297029702970297|0.110445544554455|0.33333333333333304|0
1796|6|575|8.55|5|1|0|0.0504347826086957|0.0148695652173913|0.172413793103448|0
1511|3|752|23.9|2|8|0|0.00398936170212766|0.031781914893617|0.666666666666667|0
577|3|859|84.15|7|4|2|0.00582072176949942|0.0979627473806752|1.4|0
11|4|764|28.98|8|0|0|0.0261780104712042|0.0379319371727749|0.4|0
1162|1|834|77.9|2|10|4|0.0311750599520384|0.0934052757793765|0.0769230769230769|1
228|4|1818|91.48|7|10|4|0.00878638110928062|0.0502361339923119|0.4375|0
772|1|1077|50.2|3|3|1|0.0278551532033426|0.046610956360260004|0.1|1
569|3|839|27.44|10|2|3|0.032181168057211|0.0327056019070322|0.37037037037037|0
111|6|1123|33.03|10|6|3|0.0053428317008014205|0.0294122885129118|1.6666666666666698|0
1514|4|192|64.91|7|6|5|0.046875|0.338072916666667|0.7777777777777779|0
608|1|1812|36.14|10|1|2|0.0044150110375275895|0.0199448123620309|1.25|0
353|1|189|42.45|6|10|1|0.137566137566138|0.224603174603175|0.23076923076923103|1
1341|1|1314|32.61|3|10|5|0.0175038051750381|0.0248173515981735|0.130434782608696|1
1246|3|62|63.44|1|7|3|0.0483870967741935|1.02322580645161|0.33333333333333304|0
1395|3|1675|21.22|10|6|4|0.0017910447761194|0.0126686567164179|3.3333333333333304|0
1045|6|1331|23.66|2|4|3|0.0067618332081142|0.0177761081893313|0.222222222222222|0
69|4|1228|3.17|7|4|4|0.0244299674267101|0.0025814332247557|0.23333333333333303|0
532|6|814|41.64|6|3|4|0.00737100737100737|0.0511547911547912|1.0|0
429|5|1149|36.63|7|0|4|0.0191470844212359|0.0318798955613577|0.31818181818181795|0
1823|4|1178|74.02|11|6|3|0.0135823429541596|0.0628353140916808|0.6875|0
1568|5|1628|71.69|10|4|4|0.0153562653562654|0.0440356265356265|0.4|0
1030|3|1223|81.14|5|5|4|0.000817661488143908|0.0663450531479967|5.0|0
1477|4|543|26.23|6|4|1|0.0165745856353591|0.0483057090239411|0.666666666666667|0
447|1|1486|57.13|4|1|1|0.0154777927321669|0.0384454912516824|0.17391304347826098|0
1136|5|1477|84.26|9|1|2|0.00609343263371699|0.0570480704129993|1.0|0
301|1|1225|96.92|9|7|5|0.0244897959183673|0.0791183673469388|0.3|1
291|2|1813|22.14|8|1|0|0.00551571980143409|0.0122118036403751|0.8|0
1173|5|1330|15.04|4|1|4|0.0037593984962406|0.0113082706766917|0.8|0
1264|2|452|81.76|0|10|3|0.0398230088495575|0.180884955752212|0.0|0
1710|5|1692|73.74|1|2|2|0.00531914893617021|0.0435815602836879|0.111111111111111|0
698|1|1692|21.21|4|10|5|0.00709219858156028|0.0125354609929078|0.33333333333333304|0
1337|3|56|40.87|2|1|4|0.0892857142857143|0.7298214285714291|0.4|0
1588|1|1103|90.95|3|5|1|0.0235720761559383|0.0824569356300997|0.115384615384615|1
148|1|299|42.06|9|8|3|0.0301003344481605|0.14066889632107002|1.0|0
1784|5|589|25.03|2|7|5|0.0186757215619694|0.0424957555178268|0.18181818181818202|0
1630|3|790|84.05|4|6|0|0.0240506329113924|0.106392405063291|0.21052631578947398|0
661|2|1775|19.21|8|2|4|0.00112676056338028|0.0108225352112676|4.0|0
202|4|1221|93.06|2|2|0|0.0106470106470106|0.0762162162162162|0.153846153846154|0
1242|1|474|65.46|3|10|5|0.0464135021097046|0.138101265822785|0.136363636363636|0
1266|6|1079|76.13|10|2|4|0.0213160333642261|0.0705560704355885|0.43478260869565205|0
557|2|271|97.17|5|2|0|0.0590405904059041|0.358560885608856|0.3125|0
653|4|1568|99.15880000000001|3|2|4|0.0153061224489796|0.0635459183673469|0.125|0
819|4|224|5.62|7|1|2|0.107142857142857|0.0250892857142857|0.29166666666666696|0
1086|4|83|35.33|10|8|4|0.168674698795181|0.42566265060241|0.7142857142857142|0
1744|5|570|24.44|1|9|3|0.0228070175438597|0.0428771929824561|0.0769230769230769|0
183|1|218|41.93|4|7|2|0.0963302752293578|0.19233944954128399|0.19047619047619|0
401|5|150|87.47|5|6|2|0.0666666666666667|0.583133333333333|0.5|0
1084|2|504|6.14|6|6|2|0.0555555555555556|0.0121825396825397|0.214285714285714|0
701|2|119|57.6|7|1|5|0.0672268907563025|0.48403361344537804|0.875|0
225|1|473|15.14|11|1|0|0.0549682875264271|0.0320084566596195|0.42307692307692296|1
587|3|574|92.73|8|0|3|0.0226480836236934|0.161550522648084|0.615384615384615|0
1279|5|867|74.0|0|2|4|0.00807381776239908|0.0853517877739331|0.0|0
968|4|1601|63.76|8|5|4|0.00749531542785759|0.0398251093066833|0.666666666666667|0
1041|1|900|12.28|2|2|1|0.01|0.0136444444444444|0.222222222222222|0
534|6|1223|16.79|1|4|3|0.000817661488143908|0.0137285363859362|1.0|0
1317|4|1349|54.05|11|10|0|0.00815418828762046|0.0400667160859896|1.0|0
1382|2|380|76.39|7|5|5|0.0131578947368421|0.201026315789474|1.4|0
642|2|1564|24.77|0|9|5|0.00447570332480818|0.0158375959079284|0.0|0
1240|3|298|99.15880000000001|2|7|3|0.08724832214765099|0.334664429530201|0.0769230769230769|0
365|3|1754|93.43|4|6|5|0.00798175598631699|0.053266818700114|0.28571428571428603|0
308|1|357|85.61|10|9|1|0.0644257703081232|0.23980392156862698|0.43478260869565205|0
1697|1|673|77.29|9|8|1|0.037147102526003|0.11484398216939098|0.36|1
316|2|758|18.6|6|8|5|0.00659630606860158|0.0245382585751979|1.2|0
153|5|1300|22.86|3|7|3|0.01|0.0175846153846154|0.23076923076923103|0
1121|1|1758|19.32|0|7|5|0.0164960182025028|0.0109897610921502|0.0|1
1527|6|320|26.99|0|4|5|0.053125|0.08434375|0.0|0
1402|5|926|27.93|9|9|5|0.019438444924406002|0.0301619870410367|0.5|0
744|1|453|64.19|10|1|5|0.0132450331125828|0.141699779249448|1.6666666666666698|0
1354|1|1047|42.31|10|4|0|0.005730659025787971|0.0404106972301815|1.6666666666666698|0
1736|3|429|88.55|1|8|0|0.00233100233100233|0.20641025641025604|1.0|0
269|6|890|59.49|11|4|4|0.0112359550561798|0.0668426966292135|1.1|0
1408|1|650|84.73|1|0|5|0.0123076923076923|0.130353846153846|0.125|0
1158|3|1370|63.26|4|6|5|0.0131386861313869|0.0461751824817518|0.222222222222222|0
194|5|165|79.75|2|7|4|0.0363636363636364|0.4833333333333329|0.33333333333333304|0
466|2|1746|75.13|1|1|5|0.0160366552119129|0.0430297823596793|0.0357142857142857|0
468|3|1082|91.51|11|6|0|0.0036968576709796703|0.0845748613678373|2.75|0
818|1|1251|18.15|2|6|3|0.0055955235811350895|0.0145083932853717|0.28571428571428603|0
1836|3|1736|4.66|0|8|5|0.00172811059907834|0.00268433179723502|0.0|0
376|5|337|9.35|3|7|3|0.0474777448071217|0.0277448071216617|0.1875|0
388|5|1423|41.76|10|2|2|0.0133520730850316|0.0293464511595221|0.526315789473684|0
1731|1|1367|65.92|5|1|0|0.0197512801755669|0.04822238478419901|0.185185185185185|1
528|4|1796|88.53|0|9|0|0.00111358574610245|0.0492928730512249|0.0|0
181|5|1439|36.09|3|5|5|0.0062543432939541396|0.0250799166087561|0.33333333333333304|0
1770|4|1413|33.23|6|5|0|0.0176928520877565|0.023517338995046|0.24|0
1440|6|1248|87.89|11|6|4|0.0048076923076923106|0.0704246794871795|1.8333333333333302|0
1295|6|100|52.55|7|0|1|0.29|0.5255|0.24137931034482799|0
1856|5|1764|79.93|8|0|3|0.00566893424036281|0.04531179138322|0.8|0
1718|1|667|26.44|10|7|4|0.00149925037481259|0.039640179910044995|8.0|0
1385|4|1766|83.52|7|1|5|0.0135900339750849|0.0472933182332956|0.29166666666666696|0
879|1|929|10.95|7|8|4|0.00215285252960172|0.0117868675995694|3.5|0
286|6|732|18.93|0|10|2|0.0177595628415301|0.0258606557377049|0.0|0
797|5|732|83.35|0|2|3|0.0286885245901639|0.113866120218579|0.0|0
938|5|942|16.19|9|3|1|0.00212314225053079|0.0171868365180467|4.5|0
506|6|1413|6.91|7|8|5|0.0014154281670205199|0.00489030431705591|3.5|0
141|5|726|12.28|2|5|4|0.012396694214876|0.0169146005509642|0.222222222222222|0
1399|3|1228|7.31|2|8|4|0.0228013029315961|0.00595276872964169|0.0714285714285714|0
976|5|898|96.88|11|7|1|0.0111358574610245|0.10788418708240499|1.1|0
907|3|329|42.32|7|6|5|0.08814589665653501|0.128632218844985|0.24137931034482799|0
1800|1|1381|69.57|1|9|4|0.0166545981173063|0.0503765387400435|0.0434782608695652|1
1425|2|209|82.32|8|10|4|0.07655502392344501|0.393875598086124|0.5|0
323|4|911|24.53|4|0|3|0.0230515916575192|0.0269264544456641|0.19047619047619|0
74|2|1068|23.64|4|0|1|0.0131086142322097|0.0221348314606742|0.28571428571428603|0
579|5|889|54.78|8|7|5|0.0247469066366704|0.0616197975253093|0.36363636363636404|0
1350|1|934|1.27|6|4|0|0.019271948608137|0.00135974304068522|0.33333333333333304|0
101|4|597|45.98|0|4|4|0.0284757118927973|0.0770184254606365|0.0|0
564|1|1775|30.56|0|2|2|0.00338028169014085|0.0172169014084507|0.0|0
348|1|1259|78.34|10|6|2|0.011119936457506002|0.0622239872915012|0.7142857142857142|0
677|3|587|8.2|11|2|5|0.0323679727427598|0.013969335604769999|0.578947368421053|0
1509|4|1649|32.27|0|8|1|0.000606428138265616|0.0195694360218314|0.0|0
1353|6|1554|55.19|5|2|1|0.0057915057915057895|0.0355148005148005|0.555555555555556|0
1792|2|772|73.41|7|7|1|0.0246113989637306|0.0950906735751295|0.368421052631579|0
1250|5|589|74.19|10|2|0|0.0033955857385399|0.125959252971138|5.0|0
1616|4|771|79.76|0|2|1|0.0311284046692607|0.10345006485084302|0.0|0
1587|1|1509|4.08|10|9|3|0.0132538104705103|0.0027037773359841|0.5|1
947|4|1177|33.67|0|10|2|0.007646559048428209|0.028606627017842005|0.0|0
1623|2|315|33.18|2|7|4|0.0507936507936508|0.105333333333333|0.125|0
483|6|1477|30.69|0|3|4|0.009478672985781991|0.020778605280975|0.0|0
104|6|894|77.5|6|6|4|0.0111856823266219|0.0866890380313199|0.6|0
1428|5|434|6.34|2|6|2|0.0230414746543779|0.0146082949308756|0.2|0
1195|2|67|71.46|11|6|2|0.0895522388059701|1.0665671641791|1.8333333333333302|0
224|4|352|21.69|10|7|0|0.0198863636363636|0.0616193181818182|1.42857142857143|0
1284|2|1400|44.37|10|1|2|0.02|0.0316928571428571|0.3571428571428571|1
1833|3|1536|33.57|11|2|2|0.015625|0.02185546875|0.4583333333333329|0
1785|1|1262|65.81|9|3|5|0.0110935023771791|0.0521473851030111|0.6428571428571429|0
812|2|1015|5.44|7|10|3|0.00689655172413793|0.00535960591133005|1.0|0
1437|6|246|38.67|10|0|3|0.0731707317073171|0.15719512195121998|0.555555555555556|0
931|4|9|73.77|4|3|3|0.8913333333333339|2.166486046511629|0.33333333333333304|0
1633|2|1023|73.78|2|3|4|0.00293255131964809|0.0721212121212121|0.666666666666667|0
6|3|294|55.63|2|7|1|0.0374149659863946|0.18921768707482997|0.18181818181818202|0
501|1|923|72.62|5|9|3|0.0227518959913326|0.0786782231852654|0.23809523809523803|1
1513|4|1519|90.38|8|5|2|0.00789993416721527|0.0594996708360764|0.666666666666667|0
360|2|1659|54.7|7|9|4|0.0006027727546714889|0.0329716696805304|7.0|0
1618|2|1759|98.46|5|4|4|0.0159181353041501|0.0559749857873792|0.178571428571429|1
405|2|135|29.17|3|1|5|0.192592592592593|0.216074074074074|0.115384615384615|0
1407|2|553|43.31|5|0|3|0.00723327305605787|0.0783182640144666|1.25|0
318|6|109|20.55|4|10|1|0.100917431192661|0.18853211009174303|0.36363636363636404|0
1809|2|755|56.06|11|5|3|0.0198675496688742|0.0742516556291391|0.733333333333333|0
610|1|518|48.65|9|10|3|0.0501930501930502|0.0939189189189189|0.34615384615384603|1
1253|2|183|83.31|0|10|1|0.0601092896174863|0.45524590163934403|0.0|0
928|5|1818|61.79|10|2|4|0.0005479452054794519|0.0338575342465753|8.0|0
130|3|1488|53.87|7|9|1|0.0174731182795699|0.0362029569892473|0.269230769230769|0
283|4|1546|10.98|10|9|2|0.0116429495472186|0.0071021992238033595|0.555555555555556|0
1814|2|770|9.17|11|10|5|0.0298701298701299|0.0119090909090909|0.4782608695652171|0
1329|5|126|4.4|2|4|3|0.0952380952380952|0.0349206349206349|0.166666666666667|0
859|2|454|63.78|11|5|0|0.0308370044052863|0.140484581497797|0.7857142857142858|0
374|5|494|44.76|1|9|4|0.0121457489878543|0.0906072874493927|0.166666666666667|0
191|5|1719|94.59|1|6|3|0.00814426992437464|0.0550261780104712|0.0714285714285714|0
1135|3|1207|54.2|6|6|3|0.00331400165700083|0.0449047224523612|1.5|0
1551|5|889|48.49|11|5|2|0.0326209223847019|0.0545444319460067|0.37931034482758597|0
1808|1|1380|54.08|8|4|1|0.0101449275362319|0.0391884057971014|0.5714285714285711|0
1645|5|1184|88.05|6|8|5|0.0143581081081081|0.0743665540540541|0.3529411764705879|0
389|2|1228|73.68|2|6|0|0.0138436482084691|0.06|0.11764705882352902|0
50|4|617|90.73|0|0|5|0.00162074554294976|0.14705024311183099|0.0|0
657|6|1065|79.82|6|5|5|0.0253521126760563|0.0749483568075117|0.222222222222222|0
1737|1|679|90.5|7|4|5|0.0265095729013255|0.13328424153166402|0.38888888888888895|0
882|1|1603|87.36|8|10|2|0.0180910792264504|0.0544978165938865|0.27586206896551696|1
962|6|1153|26.74|6|3|1|0.0164787510841284|0.0231916738941891|0.315789473684211|0
572|6|389|75.87|9|2|1|0.012853470437018|0.195038560411311|1.8|0
909|3|663|81.29|10|2|1|0.0346907993966818|0.122609351432881|0.43478260869565205|0
359|2|968|78.35|8|1|3|0.0227272727272727|0.0809400826446281|0.36363636363636404|0
711|2|358|5.31|0|10|5|0.0335195530726257|0.0148324022346369|0.0|0
1769|1|321|43.28|11|7|5|0.0903426791277259|0.134828660436137|0.37931034482758597|1
850|5|989|22.97|10|0|3|0.0121334681496461|0.0232254802831143|0.833333333333333|0
451|1|886|84.93|9|3|5|0.0158013544018059|0.0958577878103838|0.6428571428571429|0
667|4|451|67.08|8|10|5|0.0133037694013304|0.14873614190687398|1.33333333333333|0
1495|3|1446|6.37|10|3|0|0.020746887966805|0.00440525587828492|0.33333333333333304|0
1721|1|1309|27.63|2|5|4|0.0068754774637127605|0.0211077158135982|0.222222222222222|0
1875|1|397|41.89|5|5|0|0.0654911838790932|0.10551637279597|0.19230769230769199|1
1347|2|1355|76.25|8|1|0|0.0103321033210332|0.0562730627306273|0.5714285714285711|0
1572|6|183|6.14|2|10|2|0.120218579234973|0.033551912568306|0.0909090909090909|0
1085|6|121|75.89|0|1|2|0.0991735537190083|0.6271900826446279|0.0|0
315|5|598|13.13|11|3|2|0.00501672240802676|0.0219565217391304|3.6666666666666696|0
325|4|46|40.98|9|9|2|0.652173913043478|0.8908695652173909|0.3|0
1239|6|775|38.3|2|3|2|0.00258064516129032|0.0494193548387097|1.0|0
786|4|1423|87.2|4|8|5|0.0154602951510892|0.0612789880534083|0.18181818181818202|0
1336|4|112|93.89|2|0|4|0.214285714285714|0.8383035714285709|0.0833333333333333|0
727|3|1731|76.79|3|2|3|0.0103986135181976|0.0443616406701329|0.166666666666667|0
1547|6|1161|37.21|8|9|3|0.00602928509905254|0.0320499569336779|1.14285714285714|0
1743|6|583|71.9|9|8|0|0.0480274442538593|0.123327615780446|0.32142857142857106|0
1014|2|803|46.35|9|5|2|0.0224159402241594|0.0577210460772105|0.5|0
96|3|1599|36.79|9|5|3|0.0100062539086929|0.0230081300813008|0.5625|0
314|3|1329|57.14|5|7|1|0.0203160270880361|0.0429947328818661|0.185185185185185|0
1046|5|1066|54.11|11|10|5|0.0225140712945591|0.0507598499061914|0.4583333333333329|0
368|1|580|80.49|7|9|0|0.0120689655172414|0.138775862068965|1.0|0
904|2|1749|44.45|3|0|3|0.0148656375071469|0.0254145225843339|0.115384615384615|0
1293|2|911|92.23|1|3|4|0.0197585071350165|0.10124039517014301|0.0555555555555556|0
1139|1|1654|36.28|8|7|5|0.0151148730350665|0.0219347037484885|0.32|1
379|3|1072|89.13|0|3|1|0.00466417910447761|0.0831436567164179|0.0|0
1655|3|19|20.01|7|8|4|0.0526315789473684|1.05315789473684|7.0|0
1497|6|1747|84.54|3|1|3|0.0171722953634803|0.0483915283342874|0.1|0
704|2|1561|76.66|4|7|2|0.00704676489429853|0.0491095451633568|0.36363636363636404|0
1148|6|713|55.97|1|8|4|0.0252454417952314|0.0784992987377279|0.0555555555555556|0
723|5|755|48.92|2|8|0|0.033112582781457005|0.064794701986755|0.08|0
32|5|891|78.96|2|10|2|0.0280583613916947|0.0886195286195286|0.08|0
1749|4|502|75.97|5|3|0|0.0278884462151394|0.15133466135458198|0.3571428571428571|0
884|1|157|71.51|0|6|1|0.0764331210191083|0.4554777070063689|0.0|0
805|5|194|99.15880000000001|10|7|5|0.0824742268041237|0.514226804123711|0.625|0
1789|1|1681|60.33|10|0|0|0.0136823319452707|0.0358893515764426|0.43478260869565205|1
664|3|1496|85.06|7|9|2|0.0020053475935828896|0.0568582887700535|2.3333333333333304|0
900|1|1338|86.13|8|3|5|0.0224215246636771|0.064372197309417|0.266666666666667|1
1745|3|1308|90.3|2|7|1|0.00840978593272171|0.0690366972477064|0.18181818181818202|0
1666|3|1219|11.24|11|6|0|0.00246103363412633|0.00922067268252666|3.6666666666666696|0
1650|3|245|21.93|5|5|4|0.0163265306122449|0.0895102040816327|1.25|0
1738|1|350|14.49|9|8|2|0.0457142857142857|0.0414|0.5625|0
1389|4|1757|75.91|5|10|2|0.00455321570859419|0.0432043255549232|0.625|0
1813|3|557|69.06|10|0|5|0.0251346499102334|0.123985637342908|0.7142857142857142|0
1573|5|1153|33.14|10|0|3|0.026019080659150002|0.0287424111014744|0.33333333333333304|0
636|3|827|39.43|1|2|4|0.00846432889963724|0.0476783555018138|0.14285714285714302|0
209|5|1049|77.81|2|7|0|0.005719733079122971|0.0741754051477598|0.33333333333333304|0
30|6|314|48.54|6|1|1|0.0764331210191083|0.154585987261147|0.25|0
1318|4|1146|7.05|1|6|3|0.00785340314136126|0.00615183246073298|0.111111111111111|0
1565|1|670|26.13|10|7|0|0.0447761194029851|0.039|0.33333333333333304|1
381|4|40|25.99|6|5|5|0.35|0.64975|0.42857142857142894|0
1583|6|254|74.2|0|4|0|0.110236220472441|0.292125984251969|0.0|0
1183|1|1321|13.94|6|1|4|0.0211960635881908|0.010552611657834998|0.214285714285714|1
1450|3|837|77.96|5|5|5|0.026284348864994|0.09314217443249699|0.22727272727272702|0
707|2|567|94.25|9|3|2|0.0299823633156966|0.166225749559083|0.529411764705882|0
1684|1|1054|35.18|1|3|3|0.00094876660341556|0.0333776091081594|1.0|0
1482|6|1136|99.15880000000001|10|3|5|0.0255281690140845|0.0874911971830986|0.34482758620689696|0
355|1|1155|2.24|2|0|2|0.00519480519480519|0.0019393939393939398|0.33333333333333304|0
486|4|227|71.24|0|0|0|0.0308370044052863|0.313832599118943|0.0|0
1012|1|739|32.23|5|1|3|0.0284167794316644|0.0436129905277402|0.23809523809523803|0
1210|1|871|89.92|2|5|5|0.00229621125143513|0.10323765786452399|1.0|0
99|6|861|97.36|6|9|5|0.009291521486643441|0.11307781649245098|0.75|0
1305|1|1730|44.92|7|8|3|0.0092485549132948|0.0259653179190751|0.4375|0
1155|3|1486|16.84|0|10|3|0.0100942126514132|0.0113324360699865|0.0|0
131|5|827|40.5|3|3|4|0.0241837968561064|0.0489721886336155|0.15|0
1188|3|1170|19.81|4|10|2|0.0256410256410256|0.0169316239316239|0.133333333333333|0
983|1|164|51.79|4|9|5|0.0426829268292683|0.315792682926829|0.5714285714285711|0
1535|4|1630|33.48|0|7|4|0.0049079754601227|0.0205398773006135|0.0|0
940|3|791|66.37|2|1|5|0.0214917825537295|0.0839064475347661|0.11764705882352902|0
221|2|1459|77.21|4|1|2|0.0178204249485949|0.0529198080877313|0.153846153846154|0
71|5|70|40.04|1|1|4|0.4|0.5720000000000001|0.0357142857142857|0
1019|1|1659|75.72|2|2|5|0.00783604581072935|0.0456419529837251|0.153846153846154|0
385|6|1387|44.83|5|9|1|0.0108147080028839|0.0323215573179524|0.33333333333333304|0
596|6|1530|56.97|6|9|2|0.00326797385620915|0.0372352941176471|1.2|0
1417|6|700|56.78|5|10|3|0.0328571428571429|0.0811142857142857|0.21739130434782603|0
503|6|941|47.36|9|4|0|0.0180658873538789|0.0503294367693943|0.529411764705882|0
1249|3|944|87.48|3|4|4|0.0127118644067797|0.0926694915254237|0.25|0
1767|2|741|51.85|4|10|4|0.00269905533063428|0.0699730094466937|2.0|0
102|1|1319|37.1|7|7|0|0.0144048521607278|0.0281273692191054|0.368421052631579|0
996|5|934|57.43|5|1|0|0.0235546038543897|0.0614882226980728|0.22727272727272702|0
380|5|1621|53.69|0|7|1|0.0160394818013572|0.0331215299198026|0.0|0
542|2|932|80.12|2|1|3|0.00321888412017167|0.0859656652360515|0.666666666666667|0
1473|3|485|73.39|3|3|1|0.0247422680412371|0.151319587628866|0.25|0
913|1|214|87.58|6|1|5|0.014018691588784998|0.409252336448598|2.0|0
330|1|1499|96.19|9|0|3|0.0180120080053369|0.0641694462975317|0.33333333333333304|1
1281|6|1269|81.52|3|8|4|0.0118203309692671|0.0642395587076438|0.2|0
1681|3|375|91.15|6|4|2|0.064|0.243066666666667|0.25|0
44|2|401|80.86|0|1|0|0.0199501246882793|0.201645885286783|0.0|0
1578|3|1175|72.12|11|6|4|0.0161702127659574|0.0613787234042553|0.578947368421053|0
1611|2|1598|14.79|10|10|5|0.0018773466833541899|0.00925531914893617|3.3333333333333304|0
1078|2|929|65.61|4|2|0|0.031216361679225|0.0706243272335845|0.137931034482759|0
1854|6|656|95.58|5|6|3|0.00152439024390244|0.145701219512195|5.0|0
452|4|1603|90.0|1|1|5|0.000623830318153462|0.0561447286338116|1.0|0
1177|3|685|43.75|2|10|4|0.00437956204379562|0.0638686131386861|0.666666666666667|0
349|4|572|88.48|9|6|4|0.034965034965035|0.15468531468531502|0.45|0
828|3|64|12.33|10|5|3|0.359375|0.19265625|0.43478260869565205|0
1373|6|596|78.36|7|0|2|0.008389261744966441|0.131476510067114|1.4|0
1343|6|643|35.93|11|10|5|0.0264385692068429|0.0558786936236392|0.647058823529412|0
1312|4|863|36.16|11|4|0|0.0034762456546929303|0.0419003476245655|3.6666666666666696|0
1558|1|151|18.3|9|8|0|0.11258278145695401|0.121192052980132|0.529411764705882|0
19|3|1724|25.4|7|4|3|0.0110208816705336|0.0147331786542923|0.368421052631579|0
243|5|1469|91.79|1|8|3|0.0142954390742001|0.0624846834581348|0.0476190476190476|0
1695|1|1709|34.83|8|0|0|0.00292568753657109|0.0203803393797542|1.6|0
76|2|250|33.95|11|10|3|0.055999999999999994|0.1358|0.7857142857142858|0
1766|5|119|29.69|4|5|2|0.100840336134454|0.24949579831932803|0.33333333333333304|0
1528|3|847|49.05|1|9|5|0.0354191263282172|0.0579102715466352|0.0333333333333333|0
1361|4|949|13.41|5|3|3|0.0221285563751317|0.0141306638566913|0.23809523809523803|0
1481|4|745|92.43|10|3|2|0.0013422818791946301|0.12406711409396|8.0|0
713|5|381|68.41|4|2|0|0.0131233595800525|0.179553805774278|0.8|0
702|2|1021|6.24|1|10|2|0.0029382957884427|0.00611165523996082|0.33333333333333304|0
1553|4|1763|21.77|0|0|1|0.00623936471922859|0.0123482699943278|0.0|0
750|1|264|89.38|4|5|0|0.0416666666666667|0.338560606060606|0.36363636363636404|0
1499|6|468|90.66|7|3|0|0.0641025641025641|0.19371794871794898|0.23333333333333303|0
494|3|458|6.04|3|10|4|0.0480349344978166|0.0131877729257642|0.136363636363636|0
465|3|410|53.61|1|7|5|0.0414634146341463|0.130756097560976|0.0588235294117647|0
1335|4|1342|0.74|8|1|5|0.0134128166915052|0.000551415797317437|0.444444444444444|0
1609|1|1207|28.32|9|10|3|0.00911350455675228|0.0234631317315659|0.818181818181818|0
505|5|439|34.27|0|5|1|0.0660592255125285|0.0780637813211845|0.0|0
651|1|883|74.69|11|2|2|0.0124575311438279|0.0845866364665912|1.0|0
332|2|694|74.11|10|6|4|0.0115273775216138|0.10678674351585|1.25|0
80|3|1642|6.25|7|8|2|0.0048721071863581|0.0038063337393422704|0.875|0
84|2|109|24.32|10|0|5|0.100917431192661|0.22311926605504603|0.9090909090909091|0
1194|6|335|91.16|10|7|1|0.00597014925373134|0.27211940298507503|5.0|0
1114|5|487|83.51|2|6|5|0.0287474332648871|0.17147843942505098|0.14285714285714302|0
1788|2|467|92.95|6|3|4|0.0578158458244111|0.199036402569593|0.222222222222222|0
120|3|654|85.68|4|10|3|0.00152905198776758|0.131009174311927|4.0|0
257|4|928|62.81|8|7|4|0.009698275862068971|0.0676831896551724|0.8888888888888891|0
507|1|1448|1.22|0|6|1|0.00138121546961326|0.000842541436464088|0.0|0
1230|6|165|8.63|5|5|1|0.12121212121212101|0.0523030303030303|0.25|0
549|1|764|37.46|4|8|0|0.0209424083769634|0.0490314136125654|0.25|0
606|6|1235|10.5|4|3|1|0.0202429149797571|0.008502024291497979|0.16|0
114|4|1175|77.42|0|5|3|0.0119148936170213|0.0658893617021277|0.0|0
1204|4|704|77.63|0|2|2|0.00710227272727273|0.110269886363636|0.0|0
1719|2|303|88.23|11|5|1|0.0297029702970297|0.29118811881188106|1.22222222222222|0
390|1|1691|90.31|6|5|1|0.0124186871673566|0.0534062684801892|0.28571428571428603|1
795|3|544|80.15|4|10|2|0.007352941176470591|0.147334558823529|1.0|0
552|6|990|56.52|2|3|4|0.0161616161616162|0.0570909090909091|0.125|0
394|3|1190|59.76|6|5|4|0.0210084033613445|0.050218487394957996|0.24|0
250|5|853|23.57|3|3|1|0.0117233294255569|0.0276318874560375|0.3|0
1470|1|963|38.73|9|1|1|0.00311526479750779|0.0402180685358255|3.0|0
81|3|1018|27.26|1|9|0|0.0235756385068762|0.0267779960707269|0.0416666666666667|0
600|4|1293|55.85|9|10|5|0.00618716163959783|0.0431941221964424|1.125|0
372|4|1662|21.4|3|7|3|0.0120336943441637|0.0128760529482551|0.15|0
1362|3|1666|5.0|2|3|3|0.017406962785114|0.00300120048019208|0.0689655172413793|0
289|5|580|66.02|9|3|1|0.00862068965517241|0.113827586206897|1.8|0
736|1|1122|86.21|7|0|2|0.0151515151515152|0.0768360071301248|0.411764705882353|0
1838|1|1465|58.95|10|0|2|0.0170648464163823|0.0402389078498294|0.4|1
1290|1|775|54.85|0|6|3|0.00129032258064516|0.0707741935483871|0.0|0
1539|6|203|29.2|11|3|2|0.0246305418719212|0.14384236453201998|2.2|0
1628|5|597|49.72|11|10|2|0.0452261306532663|0.0832830820770519|0.407407407407407|0
1542|3|1137|60.94|6|7|0|0.0149516270888303|0.0535971855760774|0.3529411764705879|0
1613|5|157|33.89|11|3|3|0.14649681528662398|0.215859872611465|0.4782608695652171|0
31|5|285|6.23|5|6|2|0.10526315789473699|0.021859649122806996|0.166666666666667|0
1646|6|1704|94.06|6|6|2|0.00469483568075117|0.0551995305164319|0.75|0
334|1|1595|11.61|7|8|0|0.00250783699059561|0.00727899686520376|1.75|0
382|5|1106|13.65|4|3|3|0.0036166365280289295|0.0123417721518987|1.0|0
1795|3|1451|11.9|9|1|4|0.00895933838731909|0.00820124052377671|0.6923076923076921|0
66|1|232|18.27|9|5|2|0.00862068965517241|0.07875|4.5|0
857|3|1369|25.08|8|10|2|0.0197224251278305|0.0183199415631848|0.296296296296296|0
1692|2|1210|25.72|4|3|3|0.0008264462809917361|0.0212561983471074|4.0|0
1267|5|1193|43.56|3|2|3|0.0142497904442582|0.0365129924559933|0.17647058823529396|0
1053|2|1332|57.85|6|5|1|0.000750750750750751|0.0434309309309309|6.0|0
953|1|1612|31.34|2|4|3|0.0086848635235732|0.0194416873449132|0.14285714285714302|0
1377|6|1457|87.56|5|2|3|0.0123541523678792|0.0600960878517502|0.277777777777778|0
1725|1|385|44.73|4|8|2|0.0285714285714286|0.11618181818181801|0.36363636363636404|0
646|5|970|14.69|3|1|4|0.0288659793814433|0.0151443298969072|0.107142857142857|0
513|1|389|35.92|6|6|0|0.038560411311054005|0.0923393316195373|0.4|0
172|2|297|91.67|5|6|4|0.0841750841750842|0.30865319865319896|0.2|0
555|6|1571|13.93|0|6|0|0.0159134309357097|0.00886696371737747|0.0|0
176|5|1138|78.7|3|5|0|0.0184534270650264|0.0691564147627417|0.14285714285714302|0
1315|5|1553|61.11|0|9|3|0.0128783000643915|0.0393496458467482|0.0|0
811|6|1634|42.9|2|2|3|0.011015911872705|0.0262545899632803|0.111111111111111|0
1197|5|171|50.12|4|3|0|0.0818713450292398|0.29309941520467797|0.28571428571428603|0
1167|6|868|30.14|10|5|5|0.0345622119815668|0.0347235023041475|0.33333333333333304|0
568|3|111|99.15880000000001|8|10|3|0.0810810810810811|0.8966666666666671|0.8888888888888891|0
1342|2|335|24.87|2|2|2|0.017910447761194|0.0742388059701493|0.33333333333333304|0
460|4|123|88.45|0|7|3|0.0650406504065041|0.7191056910569109|0.0|0
1714|3|1478|68.55|5|6|0|0.0162381596752368|0.0463802435723951|0.208333333333333|0
79|3|1771|2.51|3|1|4|0.00508187464709204|0.00141727837380011|0.33333333333333304|0
732|1|1262|40.27|3|5|3|0.0182250396196513|0.0319096671949287|0.130434782608696|1
1507|2|1817|9.95|10|7|3|0.0126582278481013|0.00547605943863511|0.43478260869565205|0
910|3|1488|31.77|4|9|2|0.0201612903225806|0.0213508064516129|0.133333333333333|0
703|5|94|61.31|1|3|5|0.20212765957446802|0.652234042553192|0.0526315789473684|0
1169|1|781|11.84|10|3|4|0.00768245838668374|0.0151600512163892|1.6666666666666698|0
418|1|18|20.66|4|4|5|0.8913333333333339|1.14777777777778|0.137931034482759|0
1733|2|922|26.5|9|10|2|0.0032537960954446897|0.0287418655097614|3.0|0
475|6|671|0.14|10|3|1|0.0104321907600596|0.00020864381520119198|1.42857142857143|0
614|5|1210|34.0|8|2|1|0.0140495867768595|0.028099173553719|0.47058823529411803|0
1480|2|1765|85.29|8|5|3|0.0113314447592068|0.0483229461756374|0.4|0
1654|5|1232|47.15|0|1|4|0.00162337662337662|0.0382711038961039|0.0|0
192|2|249|77.28|9|3|4|0.0441767068273092|0.31036144578313296|0.818181818181818|0
298|5|80|79.55|3|0|5|0.2625|0.994375|0.14285714285714302|0
370|5|641|19.4|5|6|2|0.0249609984399376|0.0302652106084243|0.3125|0
1652|4|1480|65.67|2|7|5|0.0202702702702703|0.0443716216216216|0.0666666666666667|0
991|1|422|55.55|5|8|4|0.0497630331753555|0.13163507109004702|0.23809523809523803|0
699|1|1129|87.01|7|2|3|0.00620017714791851|0.0770682019486271|1.0|0
1577|1|1818|24.46|4|4|5|0.0148107515085025|0.0134174437739989|0.148148148148148|1
263|1|1568|2.42|2|6|2|0.00637755102040816|0.0015433673469387801|0.2|0
233|6|1698|32.22|4|3|3|0.000588928150765607|0.0189752650176678|4.0|0
173|6|2|75.74|6|1|1|0.8913333333333339|2.166486046511629|0.75|0
327|2|42|26.6|8|3|1|0.6190476190476191|0.633333333333333|0.307692307692308|0
1294|3|399|91.32|2|5|5|0.0676691729323308|0.22887218045112803|0.0740740740740741|0
352|3|1639|45.02|9|4|5|0.00854179377669311|0.0274679682733374|0.6428571428571429|0
969|5|1603|20.08|2|5|4|0.00623830318153462|0.0125265127885215|0.2|0
422|1|846|4.2|3|3|5|0.00118203309692671|0.0049645390070922|3.0|0
1432|5|1145|11.05|4|1|3|0.00786026200873362|0.00965065502183406|0.444444444444444|0
1761|2|55|12.86|11|9|2|0.25454545454545496|0.233818181818182|0.7857142857142858|0
1358|1|467|93.26|6|4|3|0.0471092077087794|0.19970021413276198|0.272727272727273|0
802|1|934|94.3|3|0|2|0.0139186295503212|0.10096359743040699|0.23076923076923103|0
89|6|1790|70.66|5|1|0|0.00726256983240223|0.0394748603351955|0.384615384615385|0
533|5|871|83.86|9|9|4|0.0172215843857635|0.0962801377726751|0.6|0
1554|4|577|93.37|9|9|1|0.0467937608318891|0.161819757365685|0.33333333333333304|0
621|1|326|93.09|9|0|1|0.0122699386503067|0.285552147239264|2.25|0
397|4|1260|41.49|10|4|2|0.0126984126984127|0.0329285714285714|0.625|0
733|6|573|44.11|11|3|3|0.043630017452007|0.0769808027923211|0.44|0
396|2|319|61.79|5|2|3|0.0188087774294671|0.19369905956112898|0.833333333333333|0
886|3|58|88.92|3|8|2|0.327586206896552|1.5331034482758603|0.157894736842105|0
1826|5|1455|90.53|10|1|4|0.0199312714776632|0.0622199312714777|0.34482758620689696|0
1619|4|347|85.42|9|4|0|0.0144092219020173|0.24616714697406303|1.8|0
1762|2|1637|70.76|1|4|0|0.0018326206475259602|0.0432254123396457|0.33333333333333304|0
1189|4|15|45.41|1|5|0|0.8913333333333339|2.166486046511629|0.0333333333333333|0
1723|6|407|62.09|7|3|3|0.0393120393120393|0.15255528255528303|0.4375|0
1873|2|767|50.95|7|2|0|0.0221642764015645|0.0664276401564537|0.411764705882353|0
135|2|959|11.63|6|10|0|0.0260688216892596|0.0121272158498436|0.24|0
1020|5|1346|36.21|10|10|0|0.012630014858841002|0.0269019316493314|0.588235294117647|0
328|6|1569|62.42|0|4|1|0.0121096239643085|0.0397833014659019|0.0|0
1436|6|103|80.45|9|2|2|0.26213592233009697|0.7810679611650491|0.33333333333333304|0
1501|1|151|67.03|9|8|0|0.00662251655629139|0.44390728476821206|8.0|0
992|6|569|60.21|2|10|2|0.0474516695957821|0.105817223198594|0.0740740740740741|0
1024|1|1000|76.72|5|5|2|0.024|0.07672000000000001|0.208333333333333|1
575|1|666|58.91|2|9|1|0.0225225225225225|0.0884534534534535|0.133333333333333|0
754|1|1540|97.98|4|5|4|0.0155844155844156|0.0636233766233766|0.166666666666667|1
1270|3|1597|11.64|10|2|4|0.0062617407639323705|0.00728866624921728|1.0|0
1097|3|845|92.07|6|6|3|0.00473372781065089|0.10895857988165698|1.5|0
1143|5|55|19.74|3|3|0|0.10909090909090899|0.358909090909091|0.5|0
1029|1|551|81.87|2|0|2|0.0054446460980036296|0.148584392014519|0.666666666666667|0
26|3|1503|23.0|10|3|1|0.019294743845641997|0.0153027278775782|0.34482758620689696|0
342|4|741|36.36|3|4|2|0.0323886639676113|0.0490688259109312|0.125|0
945|2|1221|52.94|10|5|3|0.00163800163800164|0.0433579033579034|5.0|0
638|5|805|51.76|11|4|3|0.0062111801242236|0.0642981366459627|2.2|0
1776|1|242|39.24|8|5|4|0.0330578512396694|0.162148760330579|1.0|0
634|2|550|81.73|0|10|0|0.0545454545454545|0.1486|0.0|0
184|5|793|10.3|8|5|1|0.0201765447667087|0.0129886506935687|0.5|0
860|6|1605|8.4|3|0|2|0.00249221183800623|0.00523364485981308|0.75|0
106|3|1636|70.4|8|9|4|0.00916870415647922|0.0430317848410758|0.5333333333333329|0
565|6|191|8.55|9|4|2|0.00523560209424084|0.0447643979057592|8.0|0
345|4|709|0.23|2|8|3|0.0239774330042313|0.000324400564174894|0.11764705882352902|0
967|2|224|67.69|0|9|5|0.11607142857142899|0.3021875|0.0|0
893|3|1397|34.51|7|9|2|0.008589835361488909|0.0247029348604152|0.583333333333333|0
509|4|1325|53.33|3|4|2|0.0226415094339623|0.0402490566037736|0.1|0
1200|3|1268|73.31|7|6|4|0.0141955835962145|0.0578154574132492|0.38888888888888895|0
1109|4|109|39.02|3|0|4|0.055045871559632996|0.35798165137614707|0.5|0
562|5|233|0.54|2|8|0|0.0815450643776824|0.00231759656652361|0.10526315789473699|0
222|5|1123|58.9|8|9|1|0.0213713268032057|0.0524487978628673|0.33333333333333304|0
479|2|157|5.35|11|4|2|0.0700636942675159|0.0340764331210191|1.0|0
58|2|351|50.75|1|7|0|0.0455840455840456|0.144586894586895|0.0625|0
2|3|1516|62.16|3|10|5|0.00857519788918206|0.0410026385224274|0.23076923076923103|0
1166|3|1708|97.51|8|5|0|0.015807962529273998|0.0570901639344262|0.296296296296296|0
1519|1|722|55.25|1|4|2|0.03601108033241|0.0765235457063712|0.0384615384615385|0
581|3|160|2.37|0|9|0|0.05|0.0148125|0.0|0
1202|5|391|56.9|4|9|4|0.0690537084398977|0.14552429667519198|0.148148148148148|0
765|2|1423|53.52|0|0|2|0.0203794799718904|0.037610681658467995|0.0|0
535|2|45|32.81|4|4|0|0.133333333333333|0.7291111111111109|0.666666666666667|0
843|5|983|59.64|5|9|2|0.0213631739572737|0.0606714140386572|0.23809523809523803|0
1168|6|406|9.3|11|8|2|0.0123152709359606|0.0229064039408867|2.2|0
497|6|583|24.41|9|8|3|0.0205831903945112|0.0418696397941681|0.75|0
1125|3|1239|47.75|9|1|4|0.0048426150121065395|0.0385391444713479|1.5|0
75|6|300|93.04|4|4|3|0.0333333333333333|0.31013333333333304|0.4|0
1709|4|179|30.19|3|5|2|0.0614525139664804|0.168659217877095|0.272727272727273|0
1105|4|1299|43.15|1|3|3|0.0046189376443418|0.0332178598922248|0.166666666666667|0
1291|4|1148|88.89|11|2|0|0.00871080139372822|0.0774303135888502|1.1|0
1156|6|128|63.32|5|4|4|0.2265625|0.4946875|0.172413793103448|0
347|2|1363|1.84|7|7|4|0.0168745414526779|0.0013499633162142302|0.304347826086957|0
982|2|1303|37.6|3|10|2|0.0153491941673062|0.0288564850345357|0.15|0
590|1|195|67.44|7|4|4|0.0615384615384615|0.34584615384615397|0.583333333333333|0
932|2|822|55.56|7|5|2|0.0316301703163017|0.0675912408759124|0.269230769230769|0
129|4|420|89.92|2|2|3|0.0523809523809524|0.21409523809523803|0.0909090909090909|0
717|5|269|35.05|3|4|5|0.0706319702602231|0.13029739776951701|0.157894736842105|0
338|3|1744|78.42|9|8|4|0.0172018348623853|0.0449655963302752|0.3|0
412|5|902|54.43|1|4|2|0.0332594235033259|0.0603436807095344|0.0333333333333333|0
1209|1|1602|30.86|3|9|4|0.0124843945068664|0.0192634207240949|0.15|1
1174|6|85|25.74|5|2|3|0.0941176470588235|0.302823529411765|0.625|0
1356|4|1654|71.48|8|10|2|0.0108827085852479|0.0432164449818622|0.444444444444444|0
1706|1|1236|67.97|7|4|2|0.0113268608414239|0.0549919093851133|0.5|0
1414|6|1220|85.4|3|0|3|0.00573770491803279|0.07|0.42857142857142894|0
633|1|81|6.18|2|4|5|0.23456790123456797|0.0762962962962963|0.10526315789473699|0
776|2|1656|87.74|8|4|1|0.000603864734299517|0.0529830917874396|8.0|0
331|5|764|91.5|11|2|2|0.0274869109947644|0.119764397905759|0.523809523809524|0
883|2|1678|84.32|3|0|1|0.0131108462455304|0.0502502979737783|0.136363636363636|0
175|5|1145|85.1|2|9|0|0.0183406113537118|0.0743231441048035|0.0952380952380952|0
