|trustLevel|totalScanTimeInSeconds|grandTotal|lineItemVoids|scansWithoutRegistration|quantityModifications|scannedLineItemsPerSecond|valuePerSecond|lineItemVoidsPerPosition|fraud
149|2|1755|8.32|2|0|4|0.00512820512820513|0.00474074074074074|0.222222222222222|0
304|4|259|23.83|4|5|5|0.0308880308880309|0.09200772200772198|0.5|0
903|1|660|6.06|3|7|1|0.0272727272727273|0.00918181818181818|0.166666666666667|0
875|3|1425|82.7|8|1|3|0.0210526315789474|0.0580350877192982|0.266666666666667|0
740|4|877|69.95|2|7|1|0.0022805017103762803|0.0797605473204105|1.0|0
624|3|1467|70.58|7|9|0|0.007498295841854121|0.0481117927743695|0.6363636363636359|0
220|6|1434|17.25|0|8|0|0.0160390516039052|0.0120292887029289|0.0|0
806|5|1701|88.92|2|8|1|0.00881834215167548|0.0522751322751323|0.133333333333333|0
620|1|1177|82.53|8|0|4|0.0110450297366185|0.0701189464740867|0.615384615384615|0
1851|4|981|36.26|6|4|2|0.0142711518858308|0.0369622833843017|0.42857142857142894|0
781|5|1337|17.13|7|6|1|0.0216903515332835|0.0128122662677636|0.24137931034482799|0
1807|3|130|42.82|6|0|5|0.2|0.329384615384615|0.23076923076923103|0
1406|1|647|85.62|4|2|2|0.0185471406491499|0.132333848531685|0.33333333333333304|0
488|3|1705|71.83|0|6|2|0.0023460410557184803|0.0421290322580645|0.0|0
1285|1|832|74.83|6|10|3|0.0180288461538462|0.0899399038461538|0.4|0
760|2|364|62.82|8|8|3|0.0659340659340659|0.172582417582418|0.33333333333333304|0
1368|2|1300|99.59|0|9|1|0.0223076923076923|0.0766076923076923|0.0|1
697|1|901|31.16|4|9|2|0.0277469478357381|0.0345837957824639|0.16|1
1229|6|1411|55.87|2|5|4|0.0205527994330262|0.0395960311835578|0.0689655172413793|0
145|1|1312|51.43|7|1|1|0.007621951219512191|0.0391996951219512|0.7|0
1562|3|1710|11.63|6|4|3|0.0134502923976608|0.0068011695906432705|0.260869565217391|0
971|6|1080|69.71|2|10|1|0.0212962962962963|0.0645462962962963|0.0869565217391304|0
954|2|1194|89.82|10|7|3|0.0201005025125628|0.0752261306532663|0.4166666666666671|0
934|1|1266|11.09|0|0|4|0.0181674565560821|0.008759873617693521|0.0|0
761|2|1352|29.19|5|5|3|0.0177514792899408|0.0215902366863905|0.208333333333333|0
239|5|635|52.23|9|0|5|0.0456692913385827|0.082251968503937|0.31034482758620696|0
387|4|982|61.84|10|3|4|0.0285132382892057|0.0629735234215886|0.3571428571428571|0
1717|3|559|52.69|3|9|0|0.0232558139534884|0.09425760286225399|0.23076923076923103|0
137|3|304|12.09|2|8|0|0.0296052631578947|0.0397697368421053|0.222222222222222|0
1530|3|89|27.22|3|7|5|0.292134831460674|0.30584269662921304|0.115384615384615|0
933|1|486|46.5|4|1|3|0.037037037037037|0.095679012345679|0.222222222222222|0
324|1|1099|35.31|11|3|2|0.0218380345768881|0.0321292083712466|0.4583333333333329|1
758|4|1027|10.3|6|1|3|0.0262901655306719|0.0100292112950341|0.222222222222222|0
1671|3|92|94.87|6|5|5|0.0434782608695652|1.03119565217391|1.5|0
473|5|1684|35.59|2|3|4|0.0142517814726841|0.0211342042755344|0.0833333333333333|0
514|5|110|19.72|1|7|4|0.11818181818181801|0.179272727272727|0.0769230769230769|0
1412|2|677|1.76|6|5|0|0.0162481536189069|0.00259970457902511|0.545454545454545|0
654|5|50|53.55|3|8|5|0.08|1.071|0.75|0
516|1|1045|45.74|0|2|4|0.0267942583732057|0.0437703349282297|0.0|1
510|3|670|16.76|0|7|5|0.0343283582089552|0.0250149253731343|0.0|0
852|3|1724|39.12|2|1|1|0.00290023201856148|0.0226914153132251|0.4|0
769|3|1528|36.01|1|5|3|0.0130890052356021|0.0235667539267016|0.05|0
1388|2|937|3.88|8|5|3|0.0213447171824973|0.00414087513340448|0.4|0
1434|1|1798|77.97|4|6|4|0.0100111234705228|0.0433648498331479|0.222222222222222|0
179|3|876|42.68|9|0|2|0.0125570776255708|0.0487214611872146|0.818181818181818|0
1081|4|1375|67.81|11|7|3|0.00727272727272727|0.0493163636363636|1.1|0
1328|1|1753|14.41|5|1|1|0.0062749572162008|0.00822019395322305|0.45454545454545503|0
700|5|808|52.65|10|5|3|0.0185643564356436|0.0651608910891089|0.666666666666667|0
456|6|1098|33.87|0|10|1|0.00728597449908925|0.0308469945355191|0.0|0
307|2|1048|45.74|3|5|5|0.00477099236641221|0.0436450381679389|0.6|0
383|1|153|39.39|4|3|4|0.0849673202614379|0.25745098039215697|0.307692307692308|0
613|5|1610|93.67|4|6|2|0.0031055900621118|0.0581801242236025|0.8|0
602|6|510|27.59|8|5|4|0.0039215686274509795|0.0540980392156863|4.0|0
839|4|1156|80.22|6|4|0|0.023356401384082997|0.0693944636678201|0.222222222222222|0
1217|4|29|84.08|1|0|4|0.7241379310344829|2.89931034482759|0.0476190476190476|0
783|2|1805|13.89|9|5|0|0.00443213296398892|0.007695290858725759|1.125|0
292|1|1830|48.69|10|10|0|0.0136612021857923|0.0266065573770492|0.4|1
1691|2|681|0.61|3|8|2|0.026431718061674|0.000895741556534508|0.166666666666667|0
612|6|351|70.31|6|8|2|0.0598290598290598|0.20031339031339002|0.28571428571428603|0
1694|3|763|62.93|11|4|0|0.0393184796854522|0.0824770642201835|0.3666666666666671|0
556|6|931|16.24|5|5|4|0.0247046186895811|0.0174436090225564|0.21739130434782603|0
1532|5|753|46.95|2|8|3|0.0013280212483399699|0.0623505976095618|2.0|0
1069|3|932|27.18|9|5|4|0.00429184549356223|0.0291630901287554|2.25|0
110|4|477|1.36|10|1|1|0.0440251572327044|0.0028511530398322897|0.47619047619047605|0
1797|6|865|31.84|10|7|3|0.0173410404624277|0.0368092485549133|0.666666666666667|0
406|3|684|86.69|5|1|0|0.0219298245614035|0.12673976608187099|0.33333333333333304|0
1137|1|839|41.75|10|2|2|0.034564958283670996|0.049761620977354|0.34482758620689696|1
1858|4|1830|23.73|6|4|0|0.0153005464480874|0.0129672131147541|0.214285714285714|0
3|6|1791|92.31|8|4|4|0.0161920714684534|0.0515410385259632|0.27586206896551696|0
5|1|770|11.09|11|5|2|0.0337662337662338|0.0144025974025974|0.42307692307692296|1
632|4|1221|20.33|6|7|0|0.0221130221130221|0.0166502866502867|0.222222222222222|0
487|4|399|68.52|1|9|4|0.0300751879699248|0.17172932330827098|0.0833333333333333|0
920|6|911|82.58|4|9|5|0.0142700329308452|0.0906476399560922|0.307692307692308|0
958|4|1507|64.41|0|1|4|0.0192435301924353|0.0427405441274054|0.0|0
297|2|809|21.21|0|7|5|0.0210135970333745|0.0262175525339926|0.0|0
1077|6|1482|81.55|3|3|4|0.0134952766531714|0.0550269905533063|0.15|0
1118|1|581|58.38|4|1|1|0.0275387263339071|0.100481927710843|0.25|0
826|1|221|4.9|10|6|4|0.085972850678733|0.0221719457013575|0.526315789473684|0
1302|4|499|63.38|0|4|1|0.00601202404809619|0.127014028056112|0.0|0
1416|5|1130|55.66|7|3|3|0.0079646017699115|0.0492566371681416|0.7777777777777779|0
1068|2|1502|40.29|3|10|0|0.0193075898801598|0.0268242343541944|0.103448275862069|1
242|1|439|63.23|10|3|2|0.0182232346241458|0.144031890660592|1.25|0
72|6|1154|57.64|7|10|4|0.0173310225303293|0.04994800693240901|0.35|0
1424|6|663|57.83|6|9|3|0.028657616892911|0.0872247360482655|0.315789473684211|0
1842|1|724|14.52|9|5|5|0.0069060773480663|0.0200552486187845|1.8|0
712|2|1688|52.49|3|5|5|0.004739336492891|0.031095971563981004|0.375|0
237|2|1660|13.69|1|3|2|0.0126506024096386|0.00824698795180723|0.0476190476190476|0
755|2|548|70.39|5|9|3|0.0273722627737226|0.128448905109489|0.33333333333333304|0
1392|4|1829|69.65|11|8|4|0.00820120284308365|0.0380809185347184|0.733333333333333|0
458|5|937|70.88|4|1|3|0.0064034151547492|0.0756456776947705|0.666666666666667|0
1345|4|1383|67.25|5|0|5|0.0137382501807664|0.0486261749819234|0.263157894736842|0
573|3|1587|30.25|3|1|0|0.00189035916824197|0.0190611216131065|1.0|0
82|3|44|78.64|1|10|1|0.0909090909090909|1.7872727272727298|0.25|0
472|5|1196|87.05|8|7|0|0.0133779264214047|0.0727842809364549|0.5|0
410|1|1428|82.07|9|3|1|0.00140056022408964|0.0574719887955182|4.5|0
1435|5|1815|61.81|9|3|2|0.0137741046831956|0.0340550964187328|0.36|0
896|3|1050|29.28|5|3|4|0.00380952380952381|0.0278857142857143|1.25|0
1301|5|335|53.72|8|1|0|0.0865671641791045|0.160358208955224|0.27586206896551696|0
1541|6|280|62.9|3|5|4|0.0928571428571429|0.22464285714285698|0.115384615384615|0
1326|4|810|80.02|4|5|4|0.0308641975308642|0.0987901234567901|0.16|0
747|6|1746|87.99|0|2|5|0.011454753722795|0.0503951890034364|0.0|0
171|4|1235|40.55|9|2|5|0.000809716599190283|0.032834008097166|9.0|0
990|6|421|93.15|3|9|4|0.0593824228028504|0.22125890736342002|0.12|0
794|5|874|33.7|2|10|5|0.028604118993134996|0.038558352402746|0.08|0
1216|3|492|43.66|10|6|4|0.0528455284552846|0.088739837398374|0.384615384615385|0
1057|3|1267|64.93|2|5|5|0.0118389897395422|0.0512470402525651|0.133333333333333|0
885|1|300|57.97|1|9|1|0.09|0.19323333333333303|0.037037037037037|1
1299|4|642|50.35|8|4|2|0.0264797507788162|0.0784267912772586|0.47058823529411803|0
1636|6|1200|19.99|7|9|4|0.0075|0.0166583333333333|0.7777777777777779|0
726|6|929|46.01|9|7|3|0.0247578040904198|0.0495263724434876|0.39130434782608703|0
248|2|365|20.05|8|10|2|0.0356164383561644|0.0549315068493151|0.615384615384615|0
317|2|1783|78.3|11|3|3|0.0033651149747616397|0.0439147504206394|1.8333333333333302|0
1430|2|1458|10.4|7|7|1|0.014403292181069999|0.007133058984910841|0.33333333333333304|0
8|6|962|65.44|7|0|2|0.0280665280665281|0.068024948024948|0.25925925925925897|0
1225|3|1505|64.78|2|0|0|0.0179401993355482|0.0430431893687708|0.0740740740740741|0
714|6|858|15.69|2|3|0|0.0163170163170163|0.0182867132867133|0.14285714285714302|0
493|6|720|49.12|11|4|5|0.0236111111111111|0.0682222222222222|0.647058823529412|0
1106|2|93|85.04|2|3|4|0.032258064516129|0.914408602150538|0.666666666666667|0
1465|1|174|96.0|0|2|2|0.109195402298851|0.5517241379310339|0.0|0
891|6|1763|30.98|0|5|5|0.0124787294384572|0.0175723199092456|0.0|0
559|6|226|56.79|2|10|2|0.0619469026548673|0.251283185840708|0.14285714285714302|0
511|2|459|58.95|4|10|5|0.0239651416122004|0.12843137254901998|0.36363636363636404|0
134|4|466|48.17|8|0|0|0.0622317596566524|0.103369098712446|0.27586206896551696|0
1116|4|1399|26.46|2|2|4|0.0192994996426019|0.0189135096497498|0.0740740740740741|0
1298|5|1725|22.09|6|0|3|0.0115942028985507|0.0128057971014493|0.3|0
1872|3|338|88.93|1|3|5|0.0739644970414201|0.26310650887574|0.04|0
1099|2|1663|63.73|5|6|4|0.00300661455201443|0.0383223090799759|1.0|0
441|1|1403|59.68|4|1|1|0.0135424091233072|0.0425374198146828|0.21052631578947398|0
1683|3|1774|49.31|4|10|4|0.0101465614430665|0.0277959413754228|0.222222222222222|0
964|3|603|96.11|10|7|0|0.0149253731343284|0.1593864013267|1.11111111111111|0
1226|4|168|62.96|1|9|3|0.166666666666667|0.374761904761905|0.0357142857142857|0
1687|2|1793|2.33|10|5|1|0.011154489682096999|0.0012994980479643099|0.5|0
491|6|1448|58.75|11|8|0|0.0138121546961326|0.0405732044198895|0.55|0
963|5|183|37.97|6|2|0|0.15846994535519102|0.207486338797814|0.206896551724138|0
641|4|933|82.79|6|9|4|0.00214362272240086|0.0887352625937835|3.0|0
770|5|290|23.21|0|5|2|0.0206896551724138|0.0800344827586207|0.0|0
400|3|674|50.15|11|4|0|0.0148367952522255|0.07440652818991099|1.1|0
83|3|550|84.57|6|0|3|0.04|0.153763636363636|0.272727272727273|0
1500|3|629|66.15|5|10|1|0.0365659777424483|0.10516693163752001|0.21739130434782603|0
1863|1|1134|14.51|7|2|4|0.00264550264550265|0.0127954144620811|2.3333333333333304|0
1520|5|1446|92.06|2|1|2|0.00899031811894882|0.0636652835408022|0.153846153846154|0
1421|4|1489|20.55|9|3|0|0.0094022834116857|0.0138012088650101|0.6428571428571429|0
88|5|1228|85.93|11|0|1|0.0162866449511401|0.0699755700325733|0.55|0
887|3|411|60.25|8|6|5|0.0145985401459854|0.14659367396593698|1.33333333333333|0
147|4|921|3.39|3|4|2|0.00217155266015201|0.00368078175895765|1.5|0
1831|4|30|52.22|9|6|2|0.9|1.74066666666667|0.33333333333333304|0
647|4|1310|95.65|0|10|0|0.016030534351145|0.0730152671755725|0.0|0
1332|3|1524|35.09|1|8|0|0.00328083989501312|0.0230249343832021|0.2|0
952|4|1015|57.97|2|4|2|0.0147783251231527|0.0571133004926108|0.133333333333333|0
529|3|565|30.39|2|3|4|0.0230088495575221|0.053787610619469|0.153846153846154|0
55|1|768|7.24|4|10|3|0.0143229166666667|0.009427083333333329|0.36363636363636404|0
54|3|983|14.07|2|4|0|0.0193285859613428|0.0143133265513733|0.10526315789473699|0
853|2|910|37.98|4|5|3|0.0274725274725275|0.0417362637362637|0.16|0
449|1|1126|31.39|8|7|3|0.00266429840142096|0.0278774422735346|2.6666666666666696|0
1307|4|1176|42.45|6|6|0|0.00850340136054422|0.0360969387755102|0.6|0
1234|3|803|74.57|8|4|3|0.0049813200498132|0.0928642590286426|2.0|0
1735|1|93|48.98|5|8|0|0.11827956989247301|0.5266666666666671|0.45454545454545503|0
1142|1|1158|99.82|10|10|0|0.0224525043177893|0.0862003454231434|0.384615384615385|1
743|4|1603|49.42|3|10|2|0.0124766063630692|0.0308296943231441|0.15|0
499|1|600|8.8|6|8|3|0.0483333333333333|0.0146666666666667|0.206896551724138|1
625|5|1620|83.68|4|3|2|0.008641975308641971|0.0516543209876543|0.28571428571428603|0
440|2|1286|61.21|5|9|3|0.00622083981337481|0.04759720062208401|0.625|0
1663|2|1117|80.84|5|1|3|0.0134288272157565|0.0723724261414503|0.33333333333333304|0
53|1|1385|34.68|5|8|4|0.0194945848375451|0.0250397111913357|0.185185185185185|1
369|2|735|29.79|4|7|2|0.0380952380952381|0.040530612244898|0.14285714285714302|0
970|2|279|1.9|1|4|5|0.043010752688172005|0.00681003584229391|0.0833333333333333|0
1061|6|472|83.98|5|4|0|0.0338983050847458|0.177923728813559|0.3125|0
1033|6|1315|30.49|0|9|5|0.0152091254752852|0.0231863117870722|0.0|0
274|6|285|76.75|11|7|3|0.0491228070175439|0.26929824561403504|0.7857142857142858|0
125|5|1786|69.83|6|8|3|0.00111982082866741|0.0390985442329227|3.0|0
7|2|1545|22.8|0|8|4|0.00647249190938511|0.0147572815533981|0.0|0
1479|6|1543|27.91|6|2|2|0.0084251458198315|0.0180881399870382|0.46153846153846206|0
258|6|1097|21.77|1|10|0|0.0100273473108478|0.019845031905196|0.0909090909090909|0
824|2|617|67.96|0|0|5|0.00162074554294976|0.11014586709886501|0.0|0
122|4|580|89.67|3|7|1|0.0293103448275862|0.154603448275862|0.17647058823529396|0
51|3|1593|25.53|2|2|2|0.0175768989328311|0.0160263653483992|0.0714285714285714|0
185|4|1437|92.55|11|6|5|0.0146137787056367|0.0644050104384134|0.523809523809524|0
1310|2|1142|89.43|6|1|2|0.00350262697022767|0.0783099824868652|1.5|0
670|4|558|25.96|2|10|5|0.010752688172043001|0.0465232974910394|0.33333333333333304|0
1593|5|973|48.59|10|1|1|0.0154162384378212|0.0499383350462487|0.666666666666667|0
1127|3|1143|93.66|1|5|5|0.00874890638670166|0.0819422572178478|0.1|0
685|4|976|15.59|6|9|0|0.0297131147540984|0.0159733606557377|0.206896551724138|0
1026|1|157|2.13|5|3|3|0.14012738853503198|0.0135668789808917|0.22727272727272702|0
1035|4|160|59.93|0|0|5|0.1125|0.3745625|0.0|0
1727|4|839|82.62|8|0|3|0.0178784266984505|0.0984743742550656|0.5333333333333329|0
796|6|48|46.48|2|7|2|0.29166666666666696|0.9683333333333329|0.14285714285714302|0
1254|2|1502|80.34|10|5|5|0.0066577896138482|0.0534886817576565|1.0|0
207|1|524|38.78|11|3|3|0.0400763358778626|0.0740076335877863|0.523809523809524|0
1545|2|154|4.4|2|4|5|0.0454545454545455|0.0285714285714286|0.28571428571428603|0
270|1|1666|25.6|5|5|3|0.00600240096038415|0.0153661464585834|0.5|0
1419|3|470|47.97|11|5|1|0.0574468085106383|0.10206382978723401|0.407407407407407|0
847|5|1102|91.99|0|3|1|0.0254083484573503|0.08347549909255901|0.0|0
1660|4|1082|79.13|11|3|3|0.0249537892791128|0.0731330868761553|0.407407407407407|0
226|2|1597|11.14|2|5|5|0.0137758296806512|0.00697557921102066|0.0909090909090909|0
86|2|1078|58.61|9|10|3|0.007421150278293141|0.0543692022263451|1.125|0
434|6|1053|40.34|2|1|0|0.000949667616334283|0.038309591642925|2.0|0
1119|5|1124|19.13|5|0|5|0.00622775800711744|0.0170195729537367|0.7142857142857142|0
436|1|1512|75.0|11|6|1|0.0158730158730159|0.0496031746031746|0.4583333333333329|1
459|6|1147|17.81|2|9|4|0.00523103748910201|0.0155274629468178|0.33333333333333304|0
1243|1|966|47.98|10|4|1|0.0082815734989648|0.0496687370600414|1.25|0
837|2|1065|15.25|4|6|1|0.0150234741784038|0.0143192488262911|0.25|0
1413|4|1655|83.13|6|8|0|0.00664652567975831|0.0502296072507553|0.545454545454545|0
290|6|1624|29.71|5|2|3|0.0123152709359606|0.0182943349753695|0.25|0
1492|3|239|2.16|0|7|0|0.0878661087866109|0.00903765690376569|0.0|0
246|3|440|49.34|3|5|5|0.0113636363636364|0.112136363636364|0.6|0
844|3|1137|76.37|11|3|1|0.0149516270888303|0.0671679859278804|0.647058823529412|0
450|6|689|51.27|1|10|0|0.0275761973875181|0.0744121915820029|0.0526315789473684|0
1853|2|1397|8.48|1|5|3|0.0171796707229778|0.00607015032211883|0.0416666666666667|0
1669|4|1365|37.49|5|3|4|0.00293040293040293|0.0274652014652015|1.25|0
1131|5|1604|16.06|9|1|1|0.00872817955112219|0.0100124688279302|0.6428571428571429|0
1571|2|354|0.58|7|3|1|0.0282485875706215|0.00163841807909605|0.7|0
435|1|1075|3.22|5|1|3|0.0018604651162790699|0.0029953488372093|2.5|0
1696|5|1631|82.26|1|7|1|0.00919681177191907|0.0504353157572042|0.0666666666666667|0
1008|6|1570|83.22|5|6|3|0.00700636942675159|0.0530063694267516|0.45454545454545503|0
1455|1|1049|40.41|5|8|5|0.0133460438512869|0.0385224022878932|0.3571428571428571|0
1538|6|1593|59.82|5|6|2|0.0112994350282486|0.0375517890772128|0.277777777777778|0
109|4|1814|52.98|3|7|4|0.0071664829106946|0.0292061742006615|0.23076923076923103|0
1816|3|1563|87.86|4|1|0|0.00575815738963532|0.056212412028151|0.444444444444444|0
438|5|87|63.45|2|7|3|0.149425287356322|0.7293103448275859|0.153846153846154|0
742|5|1567|89.94|9|6|5|0.01914486279515|0.0573962986598596|0.3|0
889|2|443|83.91|0|10|0|0.0383747178329571|0.18941309255079|0.0|0
1233|6|934|15.69|9|10|2|0.0203426124197002|0.0167987152034261|0.47368421052631604|0
1073|3|455|33.13|5|3|0|0.0527472527472527|0.0728131868131868|0.208333333333333|0
28|6|1629|40.42|6|7|4|0.0135052179251074|0.0248127685696746|0.272727272727273|0
687|2|95|79.98|2|0|4|0.23157894736842102|0.8418947368421049|0.0909090909090909|0
195|5|1726|7.75|2|5|3|0.00405561993047509|0.0044901506373117|0.28571428571428603|0
275|5|475|51.6|0|4|1|0.00631578947368421|0.10863157894736801|0.0|0
60|5|1237|48.22|7|2|3|0.00808407437348424|0.03898140662894101|0.7|0
1503|3|422|12.28|9|3|5|0.0118483412322275|0.0290995260663507|1.8|0
1674|5|282|98.15|1|6|3|0.099290780141844|0.34804964539007105|0.0357142857142857|0
709|3|321|33.01|5|6|3|0.0747663551401869|0.102834890965732|0.208333333333333|0
1297|3|1054|89.39|5|6|3|0.0189753320683112|0.0848102466793169|0.25|0
10|5|1533|84.73|4|2|4|0.0104370515329419|0.0552707110241357|0.25|0
927|5|1410|7.64|6|3|3|0.00567375886524823|0.00541843971631206|0.75|0
1220|5|1821|0.99|0|3|2|0.00823723228995058|0.000543657331136738|0.0|0
547|3|471|25.25|4|8|3|0.0509554140127389|0.0536093418259023|0.166666666666667|0
138|3|1237|96.4|3|1|3|0.0056588520614389605|0.077930476960388|0.42857142857142894|0
1384|1|1280|14.65|10|0|3|0.0078125|0.0114453125|1.0|0
321|6|791|23.22|8|2|3|0.0379266750948167|0.0293552465233881|0.266666666666667|0
1524|3|287|68.23|5|1|0|0.0731707317073171|0.23773519163763102|0.23809523809523803|0
1036|1|1060|88.99|10|2|3|0.0273584905660377|0.0839528301886792|0.34482758620689696|1
1304|2|820|79.73|7|4|1|0.0280487804878049|0.0972317073170732|0.304347826086957|0
1676|1|1265|14.8|5|4|2|0.0063241106719367605|0.011699604743083|0.625|0
1810|1|383|3.35|3|8|1|0.0234986945169713|0.0087467362924282|0.33333333333333304|0
1461|2|1203|48.35|3|1|1|0.0199501246882793|0.0401911886949293|0.125|0
949|2|61|31.49|10|1|5|0.18032786885245897|0.516229508196721|0.9090909090909091|0
1730|4|13|73.98|10|9|5|1.46153846153846|5.69076923076923|0.526315789473684|0
205|1|1054|75.58|11|5|4|0.0208728652751423|0.071707779886148|0.5|1
1746|3|929|5.14|1|5|1|0.0118406889128095|0.00553283100107643|0.0909090909090909|0
1259|1|1004|56.55|11|2|3|0.0059760956175298795|0.0563247011952191|1.8333333333333302|0
70|1|861|31.34|11|3|0|0.0232288037166086|0.0363995354239257|0.55|0
1747|3|4|8.62|5|10|1|1.5|2.155|0.833333333333333|0
972|6|821|79.78|6|4|5|0.00121802679658952|0.0971741778319123|6.0|0
1163|4|1178|55.11|3|2|5|0.0254668930390492|0.0467826825127334|0.1|0
417|6|1239|94.94|2|0|5|0.0104923325262308|0.0766263115415658|0.153846153846154|0
616|5|1716|28.0|5|6|0|0.013986013986014|0.0163170163170163|0.208333333333333|0
1867|2|206|71.3|4|0|4|0.106796116504854|0.34611650485436896|0.18181818181818202|0
1531|4|322|83.14|9|8|2|0.0527950310559006|0.258198757763975|0.529411764705882|0
1151|2|1818|57.67|2|4|1|0.0137513751375138|0.0317216721672167|0.08|0
1822|2|1689|13.7|8|1|1|0.0177619893428064|0.00811130846654825|0.266666666666667|1
1224|5|550|76.36|11|1|3|0.0363636363636364|0.138836363636364|0.55|0
684|6|1283|89.36|7|2|0|0.0233826968043648|0.0696492595479345|0.23333333333333303|0
808|4|304|61.72|2|0|5|0.0986842105263158|0.203026315789474|0.0666666666666667|0
170|4|81|51.58|9|3|5|0.185185185185185|0.6367901234567901|0.6|0
92|2|1515|7.69|11|4|1|0.0138613861386139|0.00507590759075908|0.523809523809524|0
1038|3|821|36.44|11|0|2|0.02557856272838|0.0443848964677223|0.523809523809524|0
603|6|1586|90.12|8|2|0|0.0182849936948298|0.0568221941992434|0.27586206896551696|0
97|2|1305|87.65|7|8|4|0.021455938697318003|0.0671647509578544|0.25|1
977|6|299|10.02|0|7|5|0.020066889632107|0.0335117056856187|0.0|0
395|3|1236|80.09|3|9|3|0.0105177993527508|0.0647977346278317|0.23076923076923103|0
1443|6|650|32.58|9|3|0|0.0292307692307692|0.0501230769230769|0.47368421052631604|0
899|4|1466|19.16|6|2|0|0.0190995907230559|0.0130695770804911|0.214285714285714|0
1659|6|428|4.57|10|9|1|0.04439252336448599|0.0106775700934579|0.526315789473684|0
790|6|917|41.98|4|3|5|0.007633587786259541|0.0457797164667394|0.5714285714285711|0
251|2|705|17.95|4|3|3|0.0184397163120567|0.0254609929078014|0.307692307692308|0
1877|2|685|62.68|1|6|2|0.035036496350364994|0.0915036496350365|0.0416666666666667|0
609|5|720|73.29|8|10|3|0.00555555555555556|0.101791666666667|2.0|0
1865|2|1827|68.94|6|5|1|0.00821018062397373|0.0377339901477833|0.4|0
519|6|1192|59.87|8|6|3|0.0201342281879195|0.0502265100671141|0.33333333333333304|0
1582|1|27|95.3|3|2|3|0.8888888888888891|3.5296296296296297|0.125|0
1832|6|680|92.4|7|10|3|0.0264705882352941|0.135882352941176|0.38888888888888895|0
203|3|460|50.97|9|9|4|0.00434782608695652|0.11080434782608699|4.5|0
1634|4|1826|79.52|9|8|2|0.0109529025191676|0.0435487404162103|0.45|0
471|4|331|39.03|7|5|3|0.054380664652568|0.117915407854985|0.38888888888888895|0
305|3|751|68.27|7|1|3|0.033288948069241|0.0909054593874833|0.28|0
833|4|1765|15.47|10|8|5|0.00623229461756374|0.008764872521246459|0.9090909090909091|0
629|2|517|83.67|0|1|3|0.0290135396518375|0.16183752417795|0.0|0
870|6|1831|60.66|10|4|0|0.008738394320043691|0.0331294374658656|0.625|0
357|2|623|11.15|5|8|0|0.00802568218298555|0.0178972712680578|1.0|0
132|2|669|13.58|6|7|1|0.00298953662182362|0.0202989536621824|3.0|0
522|6|762|59.93|5|0|4|0.00918635170603675|0.0786482939632546|0.7142857142857142|0
1409|4|1692|61.1|6|5|4|0.0112293144208038|0.0361111111111111|0.315789473684211|0
271|2|506|86.07|0|6|1|0.0237154150197628|0.170098814229249|0.0|0
144|1|788|80.87|0|8|3|0.0101522842639594|0.10262690355329901|0.0|0
1779|1|1625|89.93|11|3|0|0.0116923076923077|0.0553415384615385|0.578947368421053|1
166|3|1518|81.03|8|4|2|0.00197628458498024|0.0533794466403162|2.6666666666666696|0
210|6|1603|47.86|9|9|3|0.000623830318153462|0.0298565190268247|9.0|0
858|3|786|30.86|8|6|3|0.0025445292620865103|0.0392620865139949|4.0|0
1339|1|424|97.86|8|8|2|0.0707547169811321|0.230801886792453|0.266666666666667|1
921|3|1174|36.22|9|1|4|0.00851788756388416|0.0308517887563884|0.9|0
834|4|368|76.2|10|7|5|0.00271739130434783|0.207065217391304|10.0|0
206|1|198|49.24|1|1|4|0.0303030303030303|0.24868686868686898|0.166666666666667|0
1222|6|1300|19.11|1|0|1|0.0153846153846154|0.0147|0.05|0
1198|2|1743|99.28|11|9|3|0.014916810097533002|0.0569592656339644|0.42307692307692296|1
827|4|657|97.54|6|5|0|0.0273972602739726|0.148462709284627|0.33333333333333304|0
309|2|1147|70.69|8|9|5|0.004359197907585|0.0616303400174368|1.6|0
944|1|29|8.35|9|10|0|0.206896551724138|0.287931034482759|1.5|0
1544|6|1243|66.54|8|8|4|0.0120675784392599|0.0535317779565567|0.5333333333333329|0
278|1|618|98.64|11|8|2|0.0420711974110032|0.15961165048543696|0.42307692307692296|1
925|3|1049|60.81|5|1|5|0.0181124880838894|0.0579694947569113|0.263157894736842|0
1037|6|687|74.39|9|5|1|0.0436681222707424|0.108282387190684|0.3|0
29|5|1435|91.96|4|3|3|0.0132404181184669|0.0640836236933798|0.21052631578947398|0
367|3|1331|52.7|6|6|2|0.0180315552216379|0.0395942900075131|0.25|0
1560|1|1730|11.13|8|7|0|0.0121387283236994|0.00643352601156069|0.38095238095238104|1
748|3|9|22.6|7|2|0|2.1111111111111103|2.5111111111111097|0.368421052631579|0
560|3|731|9.39|2|7|3|0.0369357045143639|0.0128454172366621|0.0740740740740741|0
1104|5|568|52.08|11|6|4|0.0105633802816901|0.0916901408450704|1.8333333333333302|0
1160|6|958|39.12|4|4|2|0.0240083507306889|0.0408350730688935|0.17391304347826098|0
749|2|949|8.38|5|10|2|0.0200210748155954|0.00883034773445732|0.263157894736842|0
630|2|940|73.36|2|9|2|0.00212765957446809|0.0780425531914894|1.0|0
1296|5|1068|41.13|6|1|3|0.00842696629213483|0.0385112359550562|0.666666666666667|0
1237|5|1122|1.79|6|5|1|0.0160427807486631|0.0015953654188948301|0.33333333333333304|0
877|3|1353|17.55|6|1|5|0.0118255728011826|0.0129711751662971|0.375|0
888|2|274|17.49|7|10|0|0.0218978102189781|0.0638321167883212|1.16666666666667|0
1649|3|1116|24.18|6|7|0|0.0134408602150538|0.0216666666666667|0.4|0
49|1|16|32.29|2|0|5|1.5|2.018125|0.0833333333333333|0
146|5|106|81.05|2|3|3|0.0471698113207547|0.7646226415094342|0.4|0
68|6|449|21.0|5|4|2|0.0022271714922049|0.0467706013363029|5.0|0
444|5|102|14.49|0|2|3|0.166666666666667|0.142058823529412|0.0|0
757|1|239|72.65|9|1|0|0.0251046025104603|0.30397489539749|1.5|0
693|2|1646|62.93|3|5|5|0.00243013365735115|0.038232077764277|0.75|0
1708|3|558|65.51|2|7|2|0.00716845878136201|0.117401433691756|0.5|0
252|5|1581|65.84|9|5|4|0.00885515496521189|0.0416445287792536|0.6428571428571429|0
1238|2|546|56.21|8|4|5|0.0183150183150183|0.102948717948718|0.8|0
746|1|1533|3.12|7|1|5|0.0045662100456621|0.00203522504892368|1.0|0
1648|3|527|80.08|11|5|5|0.0303605313092979|0.15195445920303602|0.6875|0
204|5|1024|66.64|1|3|0|0.0087890625|0.065078125|0.111111111111111|0
1631|5|33|65.62|5|1|5|0.0303030303030303|1.9884848484848503|5.0|0
198|4|1320|77.93|4|6|1|0.0174242424242424|0.0590378787878788|0.17391304347826098|0
1806|6|1507|23.96|1|0|4|0.0159256801592568|0.0158991373589914|0.0416666666666667|0
163|6|1668|73.58|1|5|3|0.012589928057553998|0.0441127098321343|0.0476190476190476|0
63|1|1748|26.31|0|9|1|0.0085812356979405|0.0150514874141876|0.0|0
988|3|1364|23.4|6|10|1|0.005865102639296189|0.0171554252199414|0.75|0
671|3|1569|19.5|6|2|4|0.00892288081580625|0.0124282982791587|0.42857142857142894|0
1381|2|1099|6.87|5|9|3|0.00818926296633303|0.00625113739763421|0.555555555555556|0
1600|1|1406|77.48|7|1|5|0.0163584637268848|0.0551066856330014|0.304347826086957|1
1215|2|320|7.02|8|4|4|0.04375|0.0219375|0.5714285714285711|0
1734|2|1553|63.32|7|8|1|0.00193174500965873|0.0407726980038635|2.3333333333333304|0
956|2|1754|37.07|9|1|2|0.00741163055872292|0.0211345496009122|0.6923076923076921|0
1463|1|1749|71.1|1|2|1|0.00686106346483705|0.0406518010291595|0.0833333333333333|0
1701|3|533|32.81|2|0|1|0.0150093808630394|0.0615572232645403|0.25|0
1839|1|358|34.74|7|6|4|0.00558659217877095|0.0970391061452514|3.5|0
1144|2|554|70.78|6|0|0|0.0108303249097473|0.127761732851986|1.0|0
1300|5|900|24.74|2|2|2|0.0177777777777778|0.0274888888888889|0.125|0
1276|2|1803|14.37|11|0|5|0.0155296727676095|0.00797004991680532|0.3928571428571429|1
1850|6|680|51.89|8|5|2|0.0338235294117647|0.0763088235294118|0.34782608695652195|0
1848|2|1211|88.88|8|1|5|0.0033030553261767103|0.0733938893476466|2.0|0
1607|3|1544|2.6|9|2|3|0.0038860103626943|0.0016839378238342|1.5|0
413|5|1808|30.75|4|7|2|0.009402654867256641|0.0170077433628319|0.23529411764705901|0
865|5|1244|49.41|2|1|3|0.0168810289389068|0.0397186495176849|0.0952380952380952|0
346|3|136|42.61|6|0|4|0.161764705882353|0.31330882352941203|0.272727272727273|0
1610|3|1189|79.01|1|1|3|0.0185029436501262|0.0664507989907485|0.0454545454545455|0
1821|4|1501|51.16|7|4|5|0.011325782811459|0.0340839440373085|0.411764705882353|0
287|4|259|49.63|2|4|1|0.0965250965250965|0.191621621621622|0.08|0
1052|2|1796|83.98|8|9|4|0.00779510022271715|0.0467594654788419|0.5714285714285711|0
61|2|1450|62.63|5|9|3|0.0103448275862069|0.0431931034482759|0.33333333333333304|0
1372|4|721|7.18|10|0|2|0.0013869625520111|0.00995839112343967|10.0|0
823|4|889|61.71|1|5|4|0.00224971878515186|0.0694150731158605|0.5|0
1510|3|1736|79.36|2|9|5|0.0046082949308755795|0.0457142857142857|0.25|0
464|6|658|49.76|11|4|1|0.0243161094224924|0.0756231003039514|0.6875|0
259|2|454|77.15|1|1|5|0.0616740088105727|0.169933920704846|0.0357142857142857|0
1505|4|340|80.66|11|4|2|0.0117647058823529|0.237235294117647|2.75|0
815|2|1746|44.05|1|3|0|0.00171821305841924|0.0252290950744559|0.33333333333333304|0
414|2|1103|86.78|5|6|0|0.0253853127833182|0.0786763372620127|0.178571428571429|0
1268|5|1169|35.52|6|1|4|0.0248075278015398|0.0303849443969204|0.206896551724138|0
227|1|91|0.26|8|6|4|0.307692307692308|0.00285714285714286|0.28571428571428603|1
115|2|1094|91.26|9|0|3|0.00639853747714808|0.08341864716636199|1.28571428571429|0
189|5|641|79.14|1|6|1|0.0436817472698908|0.123463338533541|0.0357142857142857|0
404|3|784|98.48|3|4|0|0.0306122448979592|0.125612244897959|0.125|0
455|3|1515|44.1|1|1|0|0.0158415841584158|0.0291089108910891|0.0416666666666667|0
1022|6|1204|13.7|1|0|1|0.0215946843853821|0.0113787375415282|0.0384615384615385|0
1724|3|836|97.99|5|9|4|0.0179425837320574|0.11721291866028698|0.33333333333333304|0
779|5|1154|9.8|2|9|2|0.0251299826689775|0.00849220103986135|0.0689655172413793|0
152|2|530|37.36|1|3|3|0.0490566037735849|0.0704905660377358|0.0384615384615385|0
591|3|169|0.16|9|1|3|0.13017751479289902|0.0009467455621301779|0.409090909090909|0
1325|4|800|94.66|7|10|1|0.01375|0.118325|0.6363636363636359|0
1754|1|467|87.58|0|8|2|0.0578158458244111|0.18753747323340503|0.0|1
873|3|937|36.43|2|4|0|0.0149413020277481|0.0388794023479189|0.14285714285714302|0
1829|2|77|66.01|5|3|5|0.36363636363636404|0.8572727272727271|0.178571428571429|0
566|3|1162|90.67|0|2|0|0.0223752151462995|0.0780292598967298|0.0|0
1082|5|847|55.76|11|0|3|0.0200708382526564|0.0658323494687131|0.647058823529412|0
490|1|1213|93.48|9|1|3|0.0123660346248969|0.0770651277823578|0.6|0
1396|3|84|70.92|4|9|5|0.261904761904762|0.8442857142857142|0.18181818181818202|0
1271|2|820|75.59|5|1|0|0.00365853658536585|0.0921829268292683|1.6666666666666698|0
215|1|909|64.11|8|0|3|0.0055005500550055|0.0705280528052805|1.6|0
583|2|609|20.04|0|10|4|0.0197044334975369|0.0329064039408867|0.0|0
1864|4|1005|78.16|1|0|3|0.00796019900497512|0.077771144278607|0.125|0
1682|4|405|97.38|7|4|4|0.0493827160493827|0.24044444444444396|0.35|0
1625|1|1809|64.74|1|8|1|0.0127142067440575|0.035787728026533995|0.0434782608695652|1
998|5|1676|78.04|9|2|5|0.00178997613365155|0.046563245823389006|3.0|0
1653|5|1273|19.48|1|2|3|0.0196386488609584|0.0153024351924588|0.04|0
453|3|1808|89.35|5|1|1|0.0138274336283186|0.0494192477876106|0.2|0
1441|1|892|94.62|10|6|0|0.0201793721973094|0.10607623318385699|0.555555555555556|0
993|4|1722|28.98|2|8|0|0.0104529616724739|0.0168292682926829|0.111111111111111|0
329|1|1244|87.97|3|8|2|0.00803858520900321|0.0707154340836013|0.3|0
1595|4|1095|15.8|11|4|0|0.0219178082191781|0.0144292237442922|0.4583333333333329|0
1469|1|1054|4.08|5|6|5|0.023719165085389|0.0038709677419354795|0.2|1
1624|1|88|40.15|10|1|3|0.0113636363636364|0.45625|10.0|0
1369|6|872|91.26|7|9|1|0.0275229357798165|0.10465596330275201|0.29166666666666696|0
57|6|692|21.65|7|7|5|0.0216763005780347|0.0312861271676301|0.46666666666666706|0
1365|5|96|86.04|3|8|3|0.15625|0.89625|0.2|0
1380|5|781|45.56|2|9|1|0.028169014084507005|0.0583354673495519|0.0909090909090909|0
1569|2|1323|43.26|4|6|5|0.018896447467876|0.0326984126984127|0.16|0
618|5|1629|58.91|3|2|5|0.0104358502148557|0.0361632903621854|0.17647058823529396|0
363|6|1473|0.01|10|8|0|0.00543109300746775|6.78886625933469e-06|1.25|0
1248|2|1261|89.41|7|0|0|0.0229976209357653|0.07090404440919901|0.24137931034482799|0
1080|5|1499|54.9|10|2|0|0.00333555703802535|0.0366244162775183|2.0|0
1837|1|756|15.41|10|4|2|0.0158730158730159|0.0203835978835979|0.833333333333333|0
851|5|400|62.54|2|9|1|0.0625|0.15635|0.08|0
995|2|216|21.97|1|5|4|0.0277777777777778|0.101712962962963|0.166666666666667|0
848|1|1295|45.66|5|7|4|0.0030888030888030897|0.0352586872586873|1.25|0
864|3|1493|93.07|11|7|5|0.00669792364367046|0.062337575351641|1.1|0
1702|4|823|90.65|1|5|3|0.00607533414337789|0.11014580801944099|0.2|0
1031|5|809|44.01|5|8|0|0.0160692212608158|0.0544004944375773|0.384615384615385|0
445|2|245|55.29|0|10|2|0.0530612244897959|0.225673469387755|0.0|0
771|1|274|37.48|9|3|2|0.0802919708029197|0.136788321167883|0.409090909090909|0
545|3|1427|17.54|5|8|4|0.0189208128941836|0.012291520672740001|0.185185185185185|0
1338|6|595|36.09|1|9|2|0.0252100840336134|0.060655462184874|0.0666666666666667|0
524|2|884|79.98|4|6|5|0.00452488687782805|0.0904751131221719|1.0|0
392|3|261|86.46|9|5|4|0.11494252873563199|0.331264367816092|0.3|0
1456|5|497|17.85|1|6|2|0.00603621730382294|0.0359154929577465|0.33333333333333304|0
1433|4|870|18.45|7|3|1|0.00344827586206897|0.0212068965517241|2.3333333333333304|0
751|5|606|32.18|11|6|3|0.0462046204620462|0.0531023102310231|0.3928571428571429|0
1016|2|1146|42.83|1|4|5|0.0226876090750436|0.0373734729493892|0.0384615384615385|0
1496|2|842|7.33|3|6|1|0.0356294536817102|0.00870546318289786|0.1|0
508|6|481|24.17|1|5|1|0.027027027027027|0.0502494802494803|0.0769230769230769|0
1145|2|1487|28.62|7|6|2|0.000672494956287828|0.0192468056489576|7.0|0
1112|5|1267|14.58|6|0|2|0.0165745856353591|0.011507498026835|0.28571428571428603|0
1644|5|1814|8.37|8|6|0|0.00220507166482911|0.00461411245865491|2.0|0
690|5|1778|66.21|7|10|0|0.0050618672665916796|0.0372384701912261|0.7777777777777779|0
288|3|989|22.77|7|7|3|0.0252780586450961|0.0230232558139535|0.28|0
1352|2|1293|97.6|8|10|4|0.0116009280742459|0.0754833720030936|0.5333333333333329|0
1498|5|1313|10.43|0|8|5|0.00609291698400609|0.00794364051789794|0.0|0
1221|6|1470|6.96|5|1|1|0.0149659863945578|0.0047346938775510205|0.22727272727272702|0
1074|3|174|56.09|3|7|3|0.11494252873563199|0.32235632183908003|0.15|0
946|5|32|63.99|8|8|0|0.28125|1.9996875|0.8888888888888891|0
91|1|996|71.94|7|0|1|0.0271084337349398|0.0722289156626506|0.25925925925925897|1
752|5|642|73.45|10|10|5|0.043613707165109004|0.114408099688474|0.3571428571428571|0
1448|4|423|16.55|3|5|5|0.0449172576832151|0.0391252955082742|0.157894736842105|0
294|3|1704|50.7|3|10|2|0.0123239436619718|0.0297535211267606|0.14285714285714302|0
663|2|931|68.85|1|9|0|0.0268528464017186|0.073952738990333|0.04|0
774|5|43|7.78|0|6|5|0.627906976744186|0.18093023255814|0.0|0
1280|2|1819|60.15|0|7|3|0.0164925783397471|0.033067619571192995|0.0|1
303|3|1051|26.24|11|1|3|0.0247383444338725|0.0249666983824929|0.42307692307692296|0
1042|3|433|32.5|7|2|0|0.0254041570438799|0.0750577367205543|0.6363636363636359|0
1750|2|987|26.32|6|5|0|0.0263424518743668|0.0266666666666667|0.23076923076923103|0
1452|2|355|61.15|6|5|0|0.0845070422535211|0.17225352112676098|0.2|0
1091|4|1570|55.17|5|8|1|0.0159235668789809|0.035140127388535|0.2|0
281|3|1479|4.06|0|4|3|0.0101419878296146|0.00274509803921569|0.0|0
1349|5|1037|79.36|4|7|3|0.00289296046287367|0.0765284474445516|1.33333333333333|0
1083|5|1702|63.57|3|0|3|0.00587544065804935|0.0373501762632197|0.3|0
1855|3|1636|8.6|6|3|1|0.007334963325183371|0.00525672371638142|0.5|0
622|6|615|96.76|4|8|3|0.0308943089430894|0.157333333333333|0.21052631578947398|0
1013|1|300|64.64|7|6|1|0.06|0.21546666666666697|0.38888888888888895|0
784|6|163|57.22|0|0|5|0.0674846625766871|0.351042944785276|0.0|0
605|4|975|24.49|6|2|0|0.00205128205128205|0.0251179487179487|3.0|0
178|1|1382|36.76|5|7|1|0.0166425470332851|0.0265991316931983|0.21739130434782603|1
1574|2|180|15.39|6|3|2|0.15|0.0855|0.222222222222222|0
241|4|581|87.17|1|3|1|0.0327022375215146|0.15003442340791698|0.0526315789473684|0
1552|4|1095|76.99|1|6|2|0.0118721461187215|0.070310502283105|0.0769230769230769|0
1176|3|1566|46.52|1|7|1|0.005108556832694761|0.0297062579821201|0.125|0
1668|2|522|6.78|4|3|4|0.0325670498084291|0.0129885057471264|0.23529411764705901|0
1700|1|298|14.91|5|8|5|0.0671140939597315|0.0500335570469799|0.25|0
1103|5|6|84.32|10|6|2|4.83333333333333|14.0533333333333|0.34482758620689696|0
484|4|1225|88.95|11|9|5|0.00326530612244898|0.0726122448979592|2.75|0
950|1|653|56.89|9|2|2|0.0367534456355283|0.0871209800918836|0.375|0
253|2|880|51.25|0|10|3|0.0170454545454545|0.0582386363636364|0.0|0
1257|2|1191|39.0|9|7|4|0.00923593618807725|0.0327455919395466|0.818181818181818|0
73|3|1393|99.58|1|8|0|0.0136396267049533|0.0714860014357502|0.0526315789473684|0
273|1|546|23.92|11|2|1|0.032967032967032996|0.0438095238095238|0.6111111111111109|0
1751|3|703|47.17|8|8|4|0.00568990042674253|0.0670981507823613|2.0|0
1536|5|507|60.93|7|4|4|0.0532544378698225|0.12017751479289901|0.25925925925925897|0
1263|6|1315|98.59|3|7|3|0.00228136882129278|0.0749733840304183|1.0|0
1772|2|1178|26.85|2|0|0|0.00764006791171477|0.0227928692699491|0.222222222222222|0
728|3|616|38.62|1|2|2|0.0438311688311688|0.0626948051948052|0.037037037037037|0
299|1|339|80.28|8|1|2|0.0855457227138643|0.236814159292035|0.27586206896551696|0
320|4|1516|73.82|2|2|3|0.0019788918205804803|0.0486939313984169|0.666666666666667|0
113|3|1171|90.98|8|1|0|0.013663535439795|0.0776942783945346|0.5|0
1445|4|1692|70.17|3|9|3|0.0106382978723404|0.0414716312056738|0.166666666666667|0
474|5|843|7.77|5|3|3|0.0130486358244365|0.009217081850533809|0.45454545454545503|0
264|5|838|44.03|11|6|2|0.0107398568019093|0.0525417661097852|1.22222222222222|0
34|2|866|39.38|10|9|1|0.0046189376443418|0.045473441108545|2.5|0
276|6|127|11.91|10|4|4|0.22834645669291298|0.0937795275590551|0.34482758620689696|0
1596|1|1211|0.8|10|4|0|0.0181668042939719|0.0006606110652353429|0.45454545454545503|1
1543|4|168|9.35|6|6|5|0.136904761904762|0.0556547619047619|0.260869565217391|0
214|5|1151|97.79|6|8|1|0.0147697654213727|0.0849609035621199|0.3529411764705879|0
861|3|360|36.84|9|3|4|0.0277777777777778|0.102333333333333|0.9|0
588|2|888|55.67|11|5|5|0.0168918918918919|0.0626914414414414|0.733333333333333|0
1235|2|1071|86.49|11|4|3|0.0186741363211951|0.0807563025210084|0.55|0
730|3|1536|79.94|5|9|1|0.00325520833333333|0.0520442708333333|1.0|0
282|4|233|83.33|0|0|2|0.0300429184549356|0.357639484978541|0.0|0
1602|3|943|2.86|10|1|0|0.0180275715800636|0.0030328738069989396|0.588235294117647|0
799|5|1812|40.83|8|1|5|0.0022075055187638|0.0225331125827815|2.0|0
867|2|374|51.06|6|2|2|0.0240641711229947|0.136524064171123|0.666666666666667|0
266|5|490|32.22|6|4|3|0.0551020408163265|0.0657551020408163|0.222222222222222|0
659|2|1397|69.02|7|4|4|0.007158196134574091|0.0494058697208303|0.7|0
1047|4|810|93.76|2|4|2|0.0308641975308642|0.115753086419753|0.08|0
1729|3|421|79.04|4|2|0|0.0071258907363420405|0.187743467933492|1.33333333333333|0
45|6|960|93.09|7|2|3|0.0104166666666667|0.09696875|0.7|0
1579|2|1253|40.43|4|6|1|0.0167597765363128|0.0322665602553871|0.19047619047619|0
644|4|1155|73.36|11|10|0|0.0147186147186147|0.0635151515151515|0.647058823529412|0
694|2|137|66.41|9|6|1|0.0510948905109489|0.48474452554744507|1.28571428571429|0
343|2|415|37.77|1|5|1|0.0530120481927711|0.0910120481927711|0.0454545454545455|0
182|2|1818|79.15|6|4|0|0.0011001100110011|0.0435368536853685|3.0|0
854|5|433|55.92|4|6|0|0.0069284064665127|0.129145496535797|1.33333333333333|0
1180|1|1578|0.07|2|3|0|0.0139416983523447|4.43599493029151e-05|0.0909090909090909|0
1236|6|1055|74.87|10|3|0|0.0180094786729858|0.0709668246445498|0.526315789473684|0
628|3|1374|52.01|3|4|1|0.000727802037845706|0.0378529839883552|3.0|0
536|5|441|86.58|1|2|3|0.0249433106575964|0.19632653061224498|0.0909090909090909|0
433|2|1203|74.91|9|1|3|0.0108063175394846|0.0622693266832918|0.6923076923076921|0
1203|5|765|53.32|6|10|0|0.0235294117647059|0.0696993464052288|0.33333333333333304|0
880|5|1044|56.8|1|8|2|0.00862068965517241|0.0544061302681992|0.111111111111111|0
1490|4|347|56.91|8|2|4|0.0461095100864553|0.16400576368876096|0.5|0
584|2|502|23.46|6|3|4|0.0577689243027888|0.0467330677290837|0.206896551724138|0
229|5|709|22.5|9|8|0|0.0282087447108604|0.0317348377997179|0.45|0
1639|5|1413|28.11|0|4|2|0.00849256900212314|0.0198938428874735|0.0|0
188|6|671|0.7|4|5|3|0.029806259314456|0.00104321907600596|0.2|0
1146|2|1055|11.61|11|4|4|0.007582938388625591|0.0110047393364929|1.375|0
1098|4|575|70.21|2|4|2|0.0452173913043478|0.12210434782608699|0.0769230769230769|0
0|5|1054|54.7|7|0|3|0.0275142314990512|0.0518975332068311|0.24137931034482799|0
627|4|620|99.63|0|7|2|0.0032258064516129|0.16069354838709698|0.0|0
705|4|1636|5.71|1|5|4|0.0134474327628362|0.00349022004889976|0.0454545454545455|0
961|2|1135|43.08|11|2|3|0.0114537444933921|0.0379559471365639|0.8461538461538459|0
142|2|414|98.72|0|5|1|0.0314009661835749|0.238454106280193|0.0|0
574|1|213|48.5|0|0|3|0.126760563380282|0.227699530516432|0.0|0
715|1|1666|93.56|6|6|4|0.0078031212484994|0.0561584633853541|0.46153846153846206|0
813|4|739|49.75|1|8|1|0.03382949932341|0.0673207036535859|0.04|0
1231|3|1157|59.42|9|5|2|0.0259291270527226|0.0513569576490925|0.3|0
1371|1|1476|64.39|9|8|4|0.0121951219512195|0.0436246612466125|0.5|1
768|6|1136|90.04|1|7|0|0.0008802816901408449|0.0792605633802817|1.0|0
116|1|990|19.42|1|7|3|0.0202020202020202|0.0196161616161616|0.05|0
461|3|1027|80.15|8|5|3|0.0019474196689386603|0.0780428432327167|4.0|0
1804|4|1175|74.52|4|4|3|0.0127659574468085|0.0634212765957447|0.266666666666667|0
1075|5|141|84.35|10|6|4|0.198581560283688|0.59822695035461|0.3571428571428571|0
1422|6|1614|51.21|7|4|5|0.0185873605947955|0.031728624535316004|0.23333333333333303|0
1771|4|113|58.9|9|4|0|0.256637168141593|0.5212389380530971|0.31034482758620696|0
1462|3|1574|45.79|6|6|5|0.0177890724269377|0.0290914866581957|0.214285714285714|0
1548|4|515|92.19|1|1|0|0.0388349514563107|0.17900970873786398|0.05|0
407|4|790|64.89|5|9|3|0.020253164556961998|0.0821392405063291|0.3125|0
1603|2|965|64.51|5|1|5|0.0186528497409326|0.0668497409326425|0.277777777777778|0
1841|2|1539|11.13|9|1|5|0.00454840805717999|0.00723196881091618|1.28571428571429|0
1585|1|1486|36.36|9|4|4|0.0060565275908479104|0.0244683714670256|1.0|0
1534|6|258|7.85|3|0|1|0.0077519379844961205|0.0304263565891473|1.5|0
24|1|71|78.91|1|4|4|0.0140845070422535|1.1114084507042299|1.0|0
582|1|884|3.61|8|0|5|0.0192307692307692|0.00408371040723982|0.47058823529411803|0
1590|4|697|81.24|4|8|1|0.0286944045911047|0.11655667144906698|0.2|0
619|4|969|82.38|10|6|3|0.022703818369453|0.085015479876161|0.45454545454545503|0
1835|3|3|64.94|3|4|3|4.66666666666667|21.646666666666697|0.214285714285714|0
336|2|895|27.48|11|1|5|0.0201117318435754|0.0307039106145251|0.6111111111111109|0
1622|4|1785|65.03|4|3|4|0.007843137254901959|0.0364313725490196|0.28571428571428603|0
1597|1|117|32.84|9|0|4|0.170940170940171|0.280683760683761|0.45|0
1386|1|213|29.27|4|7|0|0.0610328638497653|0.137417840375587|0.307692307692308|0
986|3|1803|25.56|8|6|1|0.00332778702163062|0.0141763727121464|1.33333333333333|0
1403|4|884|89.72|4|8|3|0.0147058823529412|0.101493212669683|0.307692307692308|0
1635|3|1422|6.21|8|7|3|0.00140646976090014|0.0043670886075949395|4.0|0
1094|6|1015|98.75|7|2|1|0.00689655172413793|0.0972906403940887|1.0|0
955|5|276|98.07|11|2|1|0.101449275362319|0.355326086956522|0.3928571428571429|0
1670|5|678|69.69|10|1|3|0.0442477876106195|0.102787610619469|0.33333333333333304|0
1170|4|641|59.07|2|4|5|0.0280811232449298|0.0921528861154446|0.111111111111111|0
13|4|1705|16.96|7|4|4|0.0158357771260997|0.00994721407624633|0.25925925925925897|0
1764|2|28|54.84|7|3|1|1.0|1.9585714285714297|0.25|0
1594|6|897|83.34|7|5|5|0.0156075808249721|0.0929096989966555|0.5|0
985|1|849|54.97|2|7|5|0.0058892815076560705|0.0647467608951708|0.4|0
1387|2|1829|40.38|4|8|1|0.0038272279934390397|0.0220776380535812|0.5714285714285711|0
1815|1|866|44.22|3|9|5|0.0184757505773672|0.0510623556581986|0.1875|0
1340|2|850|94.74|10|1|5|0.0058823529411764705|0.11145882352941199|2.0|0
1034|1|976|46.3|7|0|4|0.00307377049180328|0.0474385245901639|2.3333333333333304|0
563|6|1332|16.78|10|2|4|0.003003003003003|0.0125975975975976|2.5|0
47|6|1424|66.9|9|8|3|0.0175561797752809|0.0469803370786517|0.36|0
25|5|816|81.54|8|7|1|0.0110294117647059|0.0999264705882353|0.8888888888888891|0
526|2|404|7.98|0|1|2|0.0668316831683168|0.0197524752475248|0.0|0
216|1|704|23.16|2|8|3|0.0426136363636364|0.0328977272727273|0.0666666666666667|1
652|6|52|70.03|8|6|5|0.0384615384615385|1.34673076923077|4.0|0
615|6|434|15.09|6|5|5|0.0046082949308755795|0.0347695852534562|3.0|0
1637|1|808|11.71|10|4|2|0.0148514851485149|0.0144925742574257|0.833333333333333|0
1439|5|553|41.25|10|10|0|0.0470162748643761|0.0745931283905967|0.384615384615385|0
1393|5|1615|99.49|6|10|0|0.0074303405572755405|0.0616037151702786|0.5|0
476|4|1724|79.77|0|6|1|0.0104408352668213|0.0462703016241299|0.0|0
1009|2|1409|60.44|8|6|5|0.0063875088715401|0.0428956706884315|0.8888888888888891|0
94|2|952|0.58|8|5|0|0.0168067226890756|0.000609243697478992|0.5|0
1868|5|794|29.91|5|3|2|0.0138539042821159|0.0376700251889169|0.45454545454545503|0
249|5|1720|86.84|4|1|3|0.00988372093023256|0.0504883720930233|0.23529411764705901|0
918|5|726|48.3|1|10|4|0.0192837465564738|0.0665289256198347|0.0714285714285714|0
553|2|1467|14.48|7|10|5|0.0156782549420586|0.00987048398091343|0.304347826086957|0
33|2|1355|48.87|2|0|4|0.00516605166051661|0.0360664206642066|0.28571428571428603|0
1108|5|1590|45.56|11|1|2|0.00125786163522013|0.0286540880503145|5.5|0
597|4|923|93.36|2|2|3|0.0184182015167931|0.10114842903575301|0.11764705882352902|0
1777|3|596|10.74|2|1|2|0.0134228187919463|0.0180201342281879|0.25|0
87|2|1464|58.21|8|3|0|0.0177595628415301|0.0397609289617486|0.307692307692308|0
439|6|1743|42.09|11|2|2|0.0126219162363741|0.0241480206540448|0.5|0
16|3|1295|42.9|11|10|0|0.016988416988417|0.0331274131274131|0.5|0
775|2|1607|7.72|4|10|4|0.0074673304293715|0.004803982576229|0.33333333333333304|0
1621|1|1264|42.18|0|6|4|0.0142405063291139|0.033370253164557|0.0|0
708|2|571|33.67|6|10|4|0.0490367775831874|0.0589667250437828|0.214285714285714|1
1228|2|237|98.15|10|4|2|0.0590717299578059|0.414135021097046|0.7142857142857142|0
235|4|216|77.45|3|6|3|0.0833333333333333|0.358564814814815|0.166666666666667|0
1138|3|1786|23.13|6|7|0|0.0106382978723404|0.0129507278835386|0.315789473684211|0
1048|6|1230|27.16|10|7|3|0.0032520325203252|0.0220813008130081|2.5|0
1357|1|1292|18.62|7|4|1|0.00309597523219814|0.0144117647058824|1.75|0
1773|2|50|4.1|2|5|3|0.54|0.08199999999999999|0.0740740740740741|0
520|4|1066|14.91|7|8|1|0.00187617260787992|0.0139868667917448|3.5|0
1589|3|1694|99.15|4|2|1|0.0035419126328217203|0.058530106257379005|0.666666666666667|0
1401|2|916|17.01|8|0|5|0.0131004366812227|0.0185698689956332|0.666666666666667|0
1049|6|288|99.96|5|3|0|0.09375|0.34708333333333297|0.185185185185185|0
936|4|1260|49.5|10|5|5|0.0015873015873015901|0.0392857142857143|5.0|0
869|6|1352|33.23|2|6|2|0.0170118343195266|0.0245784023668639|0.0869565217391304|0
737|6|1546|92.65|5|2|4|0.00323415265200517|0.0599288486416559|1.0|0
1703|3|933|30.73|1|9|5|0.00857449088960343|0.0329367631296892|0.125|0
428|6|1627|87.66|7|0|5|0.0122925629993854|0.0538783036263061|0.35|0
1004|4|1787|35.51|2|6|5|0.00335758254057079|0.0198712926692781|0.33333333333333304|0
640|5|401|20.27|2|6|3|0.00249376558603491|0.0505486284289277|2.0|0
829|2|109|29.42|2|3|1|0.23853211009174302|0.26990825688073394|0.0769230769230769|0
980|4|679|79.95|9|4|0|0.0191458026509573|0.11774668630338699|0.6923076923076921|0
1805|2|1027|39.9|0|4|2|0.0116845180136319|0.0388510223953262|0.0|0
1799|6|1807|65.04|9|5|0|0.0143884892086331|0.0359933591588268|0.34615384615384603|0
362|3|1374|51.79|9|0|4|0.000727802037845706|0.0376928675400291|9.0|0
