|trustLevel|totalScanTimeInSeconds|grandTotal|lineItemVoids|scansWithoutRegistration|quantityModifications|scannedLineItemsPerSecond|valuePerSecond|lineItemVoidsPerPosition|fraud
539|2|1280|41.86|6|3|1|0.00390625|0.032703125|1.2|0
678|1|824|25.31|1|9|4|0.0194174757281553|0.0307160194174757|0.0625|0
1073|3|455|33.13|5|3|0|0.0527472527472527|0.0728131868131868|0.208333333333333|0
1269|2|716|34.24|2|8|4|0.0251396648044693|0.0478212290502793|0.111111111111111|0
1220|5|1821|0.99|0|3|2|0.00823723228995058|0.000543657331136738|0.0|0
963|5|183|37.97|6|2|0|0.15846994535519102|0.207486338797814|0.206896551724138|0
745|1|518|70.73|6|1|0|0.0366795366795367|0.136544401544402|0.315789473684211|0
672|6|552|3.78|8|6|3|0.0036231884057971|0.0068478260869565205|4.0|0
656|5|1618|60.74|11|10|4|0.0135970333745365|0.037540173053152|0.5|0
1498|5|1313|10.43|0|8|5|0.00609291698400609|0.00794364051789794|0.0|0
1697|1|673|77.29|9|8|1|0.037147102526003|0.11484398216939098|0.36|1
241|4|581|87.17|1|3|1|0.0327022375215146|0.15003442340791698|0.0526315789473684|0
1419|3|470|47.97|11|5|1|0.0574468085106383|0.10206382978723401|0.407407407407407|0
899|4|1466|19.16|6|2|0|0.0190995907230559|0.0130695770804911|0.214285714285714|0
631|5|78|74.44|0|2|5|0.35897435897435903|0.9543589743589741|0.0|0
886|3|58|88.92|3|8|2|0.327586206896552|1.5331034482758603|0.157894736842105|0
455|3|1515|44.1|1|1|0|0.0158415841584158|0.0291089108910891|0.0416666666666667|0
1294|3|399|91.32|2|5|5|0.0676691729323308|0.22887218045112803|0.0740740740740741|0
1402|5|926|27.93|9|9|5|0.019438444924406002|0.0301619870410367|0.5|0
1228|2|237|98.15|10|4|2|0.0590717299578059|0.414135021097046|0.7142857142857142|0
1786|1|1007|76.01|1|6|1|0.00198609731876862|0.0754816285998014|0.5|0
1626|6|1339|61.49|7|6|1|0.0141896938013443|0.0459223300970874|0.368421052631579|0
1613|5|157|33.89|11|3|3|0.14649681528662398|0.215859872611465|0.4782608695652171|0
355|1|1155|2.24|2|0|2|0.00519480519480519|0.0019393939393939398|0.33333333333333304|0
630|2|940|73.36|2|9|2|0.00212765957446809|0.0780425531914894|1.0|0
1485|1|1266|45.08|9|3|0|0.00631911532385466|0.035608214849921|1.125|0
214|5|1151|97.79|6|8|1|0.0147697654213727|0.0849609035621199|0.3529411764705879|0
104|6|894|77.5|6|6|4|0.0111856823266219|0.0866890380313199|0.6|0
1516|3|828|68.01|7|1|4|0.0265700483091787|0.0821376811594203|0.31818181818181795|0
1000|4|811|26.63|9|0|0|0.0123304562268804|0.0328360049321825|0.9|0
1654|5|1232|47.15|0|1|4|0.00162337662337662|0.0382711038961039|0.0|0
0|5|1054|54.7|7|0|3|0.0275142314990512|0.0518975332068311|0.24137931034482799|0
1121|1|1758|19.32|0|7|5|0.0164960182025028|0.0109897610921502|0.0|1
1627|2|1173|29.03|8|2|5|0.00426257459505541|0.0247485080988917|1.6|0
1116|4|1399|26.46|2|2|4|0.0192994996426019|0.0189135096497498|0.0740740740740741|0
1550|6|1208|64.93|8|2|0|0.0248344370860927|0.05375|0.266666666666667|0
888|2|274|17.49|7|10|0|0.0218978102189781|0.0638321167883212|1.16666666666667|0
1475|2|150|60.24|4|3|1|0.0533333333333333|0.4016|0.5|0
622|6|615|96.76|4|8|3|0.0308943089430894|0.157333333333333|0.21052631578947398|0
862|1|37|41.8|6|3|1|0.027027027027027|1.12972972972973|6.0|0
1296|5|1068|41.13|6|1|3|0.00842696629213483|0.0385112359550562|0.666666666666667|0
838|6|622|23.85|7|0|4|0.0466237942122186|0.0383440514469453|0.24137931034482799|0
811|6|1634|42.9|2|2|3|0.011015911872705|0.0262545899632803|0.111111111111111|0
555|6|1571|13.93|0|6|0|0.0159134309357097|0.00886696371737747|0.0|0
1097|3|845|92.07|6|6|3|0.00473372781065089|0.10895857988165698|1.5|0
208|6|172|58.21|8|7|5|0.0697674418604651|0.33843023255814003|0.666666666666667|0
186|2|542|22.4|0|1|5|0.0036900369003690005|0.0413284132841328|0.0|0
1813|3|557|69.06|10|0|5|0.0251346499102334|0.123985637342908|0.7142857142857142|0
1796|6|575|8.55|5|1|0|0.0504347826086957|0.0148695652173913|0.172413793103448|0
1427|2|1526|79.95|10|0|1|0.009829619921363041|0.052391874180865|0.666666666666667|0
116|1|990|19.42|1|7|3|0.0202020202020202|0.0196161616161616|0.05|0
726|6|929|46.01|9|7|3|0.0247578040904198|0.0495263724434876|0.39130434782608703|0
1456|5|497|17.85|1|6|2|0.00603621730382294|0.0359154929577465|0.33333333333333304|0
917|3|343|87.23|11|4|4|0.0728862973760933|0.25431486880466503|0.44|0
1568|5|1628|71.69|10|4|4|0.0153562653562654|0.0440356265356265|0.4|0
905|6|1436|23.29|3|3|5|0.0181058495821727|0.0162186629526462|0.115384615384615|0
1547|6|1161|37.21|8|9|3|0.00602928509905254|0.0320499569336779|1.14285714285714|0
159|2|735|89.47|8|9|3|0.0353741496598639|0.12172789115646301|0.307692307692308|0
1838|1|1465|58.95|10|0|2|0.0170648464163823|0.0402389078498294|0.4|1
790|6|917|41.98|4|3|5|0.007633587786259541|0.0457797164667394|0.5714285714285711|0
768|6|1136|90.04|1|7|0|0.0008802816901408449|0.0792605633802817|1.0|0
1597|1|117|32.84|9|0|4|0.170940170940171|0.280683760683761|0.45|0
543|4|1302|54.48|7|2|3|0.00998463901689708|0.0418433179723502|0.538461538461538|0
1616|4|771|79.76|0|2|1|0.0311284046692607|0.10345006485084302|0.0|0
642|2|1564|24.77|0|9|5|0.00447570332480818|0.0158375959079284|0.0|0
577|3|859|84.15|7|4|2|0.00582072176949942|0.0979627473806752|1.4|0
1266|6|1079|76.13|10|2|4|0.0213160333642261|0.0705560704355885|0.43478260869565205|0
660|4|1405|43.3|4|9|1|0.007117437722419929|0.0308185053380783|0.4|0
1620|4|150|47.39|9|10|1|0.166666666666667|0.315933333333333|0.36|0
309|2|1147|70.69|8|9|5|0.004359197907585|0.0616303400174368|1.6|0
1420|1|1280|15.53|5|2|5|0.0046875|0.0121328125|0.833333333333333|0
1722|3|562|73.28|1|10|3|0.0444839857651246|0.13039145907473298|0.04|0
1316|3|1771|33.98|11|5|0|0.0107284020327499|0.0191869000564653|0.578947368421053|0
444|5|102|14.49|0|2|3|0.166666666666667|0.142058823529412|0.0|0
1091|4|1570|55.17|5|8|1|0.0159235668789809|0.035140127388535|0.2|0
1708|3|558|65.51|2|7|2|0.00716845878136201|0.117401433691756|0.5|0
1022|6|1204|13.7|1|0|1|0.0215946843853821|0.0113787375415282|0.0384615384615385|0
1268|5|1169|35.52|6|1|4|0.0248075278015398|0.0303849443969204|0.206896551724138|0
1756|2|453|36.03|2|4|0|0.0022075055187638|0.0795364238410596|2.0|0
1696|5|1631|82.26|1|7|1|0.00919681177191907|0.0504353157572042|0.0666666666666667|0
1511|3|752|23.9|2|8|0|0.00398936170212766|0.031781914893617|0.666666666666667|0
1353|6|1554|55.19|5|2|1|0.0057915057915057895|0.0355148005148005|0.555555555555556|0
975|4|1335|12.99|4|5|4|0.0059925093632958795|0.009730337078651691|0.5|0
1868|5|794|29.91|5|3|2|0.0138539042821159|0.0376700251889169|0.45454545454545503|0
904|2|1749|44.45|3|0|3|0.0148656375071469|0.0254145225843339|0.115384615384615|0
70|1|861|31.34|11|3|0|0.0232288037166086|0.0363995354239257|0.55|0
1693|5|713|50.15|4|8|3|0.0350631136044881|0.0703366058906031|0.16|0
733|6|573|44.11|11|3|3|0.043630017452007|0.0769808027923211|0.44|0
109|4|1814|52.98|3|7|4|0.0071664829106946|0.0292061742006615|0.23076923076923103|0
1691|2|681|0.61|3|8|2|0.026431718061674|0.000895741556534508|0.166666666666667|0
770|5|290|23.21|0|5|2|0.0206896551724138|0.0800344827586207|0.0|0
1572|6|183|6.14|2|10|2|0.120218579234973|0.033551912568306|0.0909090909090909|0
900|1|1338|86.13|8|3|5|0.0224215246636771|0.064372197309417|0.266666666666667|1
62|5|508|57.9|2|7|0|0.0275590551181102|0.11397637795275599|0.14285714285714302|0
1563|4|1168|93.3|10|7|2|0.004280821917808221|0.0798801369863014|2.0|0
1127|3|1143|93.66|1|5|5|0.00874890638670166|0.0819422572178478|0.1|0
573|3|1587|30.25|3|1|0|0.00189035916824197|0.0190611216131065|1.0|0
1201|4|1415|42.2|9|5|4|0.0028268551236749102|0.0298233215547703|2.25|0
1606|5|95|15.24|8|7|2|0.0210526315789474|0.160421052631579|4.0|0
1224|5|550|76.36|11|1|3|0.0363636363636364|0.138836363636364|0.55|0
673|2|149|49.15|5|1|0|0.0201342281879195|0.329865771812081|1.6666666666666698|0
586|2|1656|2.7|0|10|1|0.00301932367149758|0.0016304347826087|0.0|0
45|6|960|93.09|7|2|3|0.0104166666666667|0.09696875|0.7|0
898|3|1530|92.15|5|2|2|0.00849673202614379|0.0602287581699346|0.384615384615385|0
564|1|1775|30.56|0|2|2|0.00338028169014085|0.0172169014084507|0.0|0
1833|3|1536|33.57|11|2|2|0.015625|0.02185546875|0.4583333333333329|0
1732|2|1265|10.51|6|7|5|0.0126482213438735|0.00830830039525692|0.375|0
1574|2|180|15.39|6|3|2|0.15|0.0855|0.222222222222222|0
299|1|339|80.28|8|1|2|0.0855457227138643|0.236814159292035|0.27586206896551696|0
931|4|9|73.77|4|3|3|1.33333333333333|8.196666666666669|0.33333333333333304|0
795|3|544|80.15|4|10|2|0.007352941176470591|0.147334558823529|1.0|0
1540|1|1084|10.62|9|8|4|0.014760147601476002|0.0097970479704797|0.5625|0
1751|3|703|47.17|8|8|4|0.00568990042674253|0.0670981507823613|2.0|0
134|4|466|48.17|8|0|0|0.0622317596566524|0.103369098712446|0.27586206896551696|0
1455|1|1049|40.41|5|8|5|0.0133460438512869|0.0385224022878932|0.3571428571428571|0
890|1|1009|31.03|3|7|3|0.0287413280475719|0.0307532210109019|0.103448275862069|1
918|5|726|48.3|1|10|4|0.0192837465564738|0.0665289256198347|0.0714285714285714|0
997|2|1639|81.7|4|7|0|0.00793166564978645|0.0498474679682733|0.307692307692308|0
357|2|623|11.15|5|8|0|0.00802568218298555|0.0178972712680578|1.0|0
1678|3|1229|58.32|6|10|5|0.0227827502034174|0.04745321399511799|0.214285714285714|0
738|3|836|18.29|7|9|3|0.0167464114832536|0.021877990430622|0.5|0
1010|5|1230|54.94|1|7|5|0.0203252032520325|0.0446666666666667|0.04|0
105|5|533|0.28|6|0|2|0.00375234521575985|0.000525328330206379|3.0|0
43|2|1451|23.1|3|9|3|0.00137835975189524|0.0159200551343901|1.5|0
1350|1|934|1.27|6|4|0|0.019271948608137|0.00135974304068522|0.33333333333333304|0
894|6|1377|3.25|7|1|2|0.0108932461873638|0.0023602033405955|0.46666666666666706|0
278|1|618|98.64|11|8|2|0.0420711974110032|0.15961165048543696|0.42307692307692296|1
610|1|518|48.65|9|10|3|0.0501930501930502|0.0939189189189189|0.34615384615384603|1
965|1|236|72.36|2|3|2|0.0593220338983051|0.30661016949152503|0.14285714285714302|0
1358|1|467|93.26|6|4|3|0.0471092077087794|0.19970021413276198|0.272727272727273|0
1757|4|745|21.46|0|0|1|0.0268456375838926|0.0288053691275168|0.0|0
344|3|1328|93.55|5|4|5|0.0210843373493976|0.0704442771084337|0.178571428571429|0
334|1|1595|11.61|7|8|0|0.00250783699059561|0.00727899686520376|1.75|0
648|1|1542|9.99|2|10|2|0.0194552529182879|0.00647859922178988|0.0666666666666667|1
1021|3|526|89.39|10|4|4|0.0342205323193916|0.16994296577946802|0.555555555555556|0
1614|3|1170|31.54|6|7|0|0.0196581196581197|0.026957264957264998|0.260869565217391|0
844|3|1137|76.37|11|3|1|0.0149516270888303|0.0671679859278804|0.647058823529412|0
1117|6|510|31.96|10|4|3|0.0058823529411764705|0.0626666666666667|3.3333333333333304|0
1298|5|1725|22.09|6|0|3|0.0115942028985507|0.0128057971014493|0.3|0
263|1|1568|2.42|2|6|2|0.00637755102040816|0.0015433673469387801|0.2|0
1458|6|1107|81.63|4|10|1|0.014453477868112|0.073739837398374|0.25|0
60|5|1237|48.22|7|2|3|0.00808407437348424|0.03898140662894101|0.7|0
411|3|1099|52.86|10|2|1|0.0236578707916288|0.04809827115559599|0.384615384615385|0
1153|2|1797|31.25|1|1|3|0.0111296605453534|0.0173900946021146|0.05|0
25|5|816|81.54|8|7|1|0.0110294117647059|0.0999264705882353|0.8888888888888891|0
1478|1|46|21.96|11|4|1|0.5217391304347829|0.477391304347826|0.4583333333333329|0
1841|2|1539|11.13|9|1|5|0.00454840805717999|0.00723196881091618|1.28571428571429|0
617|5|542|69.76|4|2|0|0.0350553505535055|0.128708487084871|0.21052631578947398|0
1188|3|1170|19.81|4|10|2|0.0256410256410256|0.0169316239316239|0.133333333333333|0
1084|2|504|6.14|6|6|2|0.0555555555555556|0.0121825396825397|0.214285714285714|0
531|5|1326|73.47|5|1|4|0.0180995475113122|0.0554072398190045|0.208333333333333|0
249|5|1720|86.84|4|1|3|0.00988372093023256|0.0504883720930233|0.23529411764705901|0
1422|6|1614|51.21|7|4|5|0.0185873605947955|0.031728624535316004|0.23333333333333303|0
680|1|1506|36.67|7|3|4|0.0119521912350598|0.0243492695883134|0.38888888888888895|0
818|1|1251|18.15|2|6|3|0.0055955235811350895|0.0145083932853717|0.28571428571428603|0
132|2|669|13.58|6|7|1|0.00298953662182362|0.0202989536621824|3.0|0
1437|6|246|38.67|10|0|3|0.0731707317073171|0.15719512195121998|0.555555555555556|0
1670|5|678|69.69|10|1|3|0.0442477876106195|0.102787610619469|0.33333333333333304|0
1747|3|4|8.62|5|10|1|1.5|2.155|0.833333333333333|0
731|4|160|89.67|8|5|2|0.00625|0.5604375|8.0|0
857|3|1369|25.08|8|10|2|0.0197224251278305|0.0183199415631848|0.296296296296296|0
1872|3|338|88.93|1|3|5|0.0739644970414201|0.26310650887574|0.04|0
315|5|598|13.13|11|3|2|0.00501672240802676|0.0219565217391304|3.6666666666666696|0
1174|6|85|25.74|5|2|3|0.0941176470588235|0.302823529411765|0.625|0
1318|4|1146|7.05|1|6|3|0.00785340314136126|0.00615183246073298|0.111111111111111|0
1783|3|557|65.74|11|2|3|0.0359066427289048|0.11802513464990999|0.55|0
1276|2|1803|14.37|11|0|5|0.0155296727676095|0.00797004991680532|0.3928571428571429|1
625|5|1620|83.68|4|3|2|0.008641975308641971|0.0516543209876543|0.28571428571428603|0
1848|2|1211|88.88|8|1|5|0.0033030553261767103|0.0733938893476466|2.0|0
1744|5|570|24.44|1|9|3|0.0228070175438597|0.0428771929824561|0.0769230769230769|0
1343|6|643|35.93|11|10|5|0.0264385692068429|0.0558786936236392|0.647058823529412|0
1871|3|1434|69.97|8|1|4|0.0104602510460251|0.0487935843793584|0.5333333333333329|0
247|4|467|94.13|3|9|4|0.0406852248394004|0.201563169164882|0.157894736842105|0
1541|6|280|62.9|3|5|4|0.0928571428571429|0.22464285714285698|0.115384615384615|0
1366|3|1422|47.45|3|6|3|0.0182841068917018|0.0333684950773558|0.115384615384615|0
848|1|1295|45.66|5|7|4|0.0030888030888030897|0.0352586872586873|1.25|0
99|6|861|97.36|6|9|5|0.009291521486643441|0.11307781649245098|0.75|0
1513|4|1519|90.38|8|5|2|0.00789993416721527|0.0594996708360764|0.666666666666667|0
528|4|1796|88.53|0|9|0|0.00111358574610245|0.0492928730512249|0.0|0
823|4|889|61.71|1|5|4|0.00224971878515186|0.0694150731158605|0.5|0
369|2|735|29.79|4|7|2|0.0380952380952381|0.040530612244898|0.14285714285714302|0
103|1|1335|38.95|5|1|3|0.0142322097378277|0.0291760299625468|0.263157894736842|0
1380|5|781|45.56|2|9|1|0.028169014084507005|0.0583354673495519|0.0909090909090909|0
1512|2|1000|12.51|9|7|1|0.011000000000000001|0.01251|0.818181818181818|0
778|1|1548|79.58|10|7|2|0.0122739018087855|0.0514082687338501|0.526315789473684|1
1782|3|667|14.56|3|7|2|0.0359820089955022|0.0218290854572714|0.125|0
1673|3|140|96.15|7|4|0|0.0642857142857143|0.686785714285714|0.7777777777777779|0
985|1|849|54.97|2|7|5|0.0058892815076560705|0.0647467608951708|0.4|0
1525|2|1579|63.52|10|0|5|0.0164661177960735|0.0402279924002533|0.384615384615385|0
1533|4|479|46.28|11|6|0|0.0146137787056367|0.0966179540709812|1.57142857142857|0
1404|2|1173|92.99|0|8|5|0.0196078431372549|0.0792753623188406|0.0|0
393|6|1359|2.14|3|0|1|0.00294334069168506|0.00157468727005151|0.75|0
1056|4|1076|92.56|5|5|4|0.00650557620817844|0.0860223048327138|0.7142857142857142|0
1470|1|963|38.73|9|1|1|0.00311526479750779|0.0402180685358255|3.0|0
1196|6|1206|91.77|3|4|0|0.0024875621890547302|0.0760945273631841|1.0|0
496|6|1649|43.91|9|0|0|0.00970285021224985|0.0266282595512432|0.5625|0
422|1|846|4.2|3|3|5|0.00118203309692671|0.0049645390070922|3.0|0
1426|1|1325|38.1|10|7|1|0.0181132075471698|0.0287547169811321|0.4166666666666671|1
1827|1|1133|24.49|3|3|1|0.0114739629302736|0.0216151809355693|0.23076923076923103|0
692|5|1248|58.5|9|5|3|0.0240384615384615|0.046875|0.3|0
1211|4|1160|98.4|9|2|4|0.0172413793103448|0.0848275862068966|0.45|0
1738|1|350|14.49|9|8|2|0.0457142857142857|0.0414|0.5625|0
1378|5|1607|67.57|8|8|2|0.00497822028624767|0.0420472930927194|1.0|0
294|3|1704|50.7|3|10|2|0.0123239436619718|0.0297535211267606|0.14285714285714302|0
1216|3|492|43.66|10|6|4|0.0528455284552846|0.088739837398374|0.384615384615385|0
259|2|454|77.15|1|1|5|0.0616740088105727|0.169933920704846|0.0357142857142857|0
1132|4|1280|21.81|3|3|3|0.0203125|0.0170390625|0.115384615384615|0
225|1|473|15.14|11|1|0|0.0549682875264271|0.0320084566596195|0.42307692307692296|1
1123|5|999|14.99|6|1|5|0.012012012012012|0.015005005005005|0.5|0
603|6|1586|90.12|8|2|0|0.0182849936948298|0.0568221941992434|0.27586206896551696|0
1306|6|1577|80.95|7|4|2|0.00380469245402663|0.0513316423589093|1.16666666666667|0
734|2|585|89.34|11|9|1|0.0136752136752137|0.152717948717949|1.375|0
860|6|1605|8.4|3|0|2|0.00249221183800623|0.00523364485981308|0.75|0
977|6|299|10.02|0|7|5|0.020066889632107|0.0335117056856187|0.0|0
1066|2|462|37.29|0|1|1|0.0346320346320346|0.0807142857142857|0.0|0
476|4|1724|79.77|0|6|1|0.0104408352668213|0.0462703016241299|0.0|0
1709|4|179|30.19|3|5|2|0.0614525139664804|0.168659217877095|0.272727272727273|0
1386|1|213|29.27|4|7|0|0.0610328638497653|0.137417840375587|0.307692307692308|0
474|5|843|7.77|5|3|3|0.0130486358244365|0.009217081850533809|0.45454545454545503|0
1159|6|539|11.89|3|4|5|0.0445269016697588|0.0220593692022263|0.125|0
589|4|1412|88.07|1|8|1|0.0028328611898017|0.0623725212464589|0.25|0
1831|4|30|52.22|9|6|2|0.9|1.74066666666667|0.33333333333333304|0
841|2|788|91.04|1|4|1|0.0050761421319797|0.115532994923858|0.25|0
356|1|424|61.96|5|2|4|0.0023584905660377397|0.146132075471698|5.0|0
431|1|809|15.94|5|2|3|0.0321384425216316|0.0197033374536465|0.19230769230769199|0
987|6|683|35.22|11|5|5|0.0102489019033675|0.0515666178623719|1.57142857142857|0
971|6|1080|69.71|2|10|1|0.0212962962962963|0.0645462962962963|0.0869565217391304|0
995|2|216|21.97|1|5|4|0.0277777777777778|0.101712962962963|0.166666666666667|0
1278|3|152|11.51|8|9|4|0.151315789473684|0.0757236842105263|0.34782608695652195|0
1199|5|236|96.43|7|10|4|0.0635593220338983|0.40860169491525394|0.46666666666666706|0
636|3|827|39.43|1|2|4|0.00846432889963724|0.0476783555018138|0.14285714285714302|0
1594|6|897|83.34|7|5|5|0.0156075808249721|0.0929096989966555|0.5|0
90|5|1052|67.09|6|2|4|0.0180608365019011|0.0637737642585551|0.315789473684211|0
1706|1|1236|67.97|7|4|2|0.0113268608414239|0.0549919093851133|0.5|0
1686|3|1123|16.11|3|2|3|0.0178094390026714|0.0143455031166518|0.15|0
1495|3|1446|6.37|10|3|0|0.020746887966805|0.00440525587828492|0.33333333333333304|0
289|5|580|66.02|9|3|1|0.00862068965517241|0.113827586206897|1.8|0
1817|2|1775|5.79|11|8|4|0.0140845070422535|0.00326197183098592|0.44|1
143|1|898|2.64|9|3|5|0.0334075723830735|0.00293986636971047|0.3|1
428|6|1627|87.66|7|0|5|0.0122925629993854|0.0538783036263061|0.35|0
1483|3|517|31.59|11|8|1|0.0135396518375242|0.0611025145067698|1.57142857142857|0
1169|1|781|11.84|10|3|4|0.00768245838668374|0.0151600512163892|1.6666666666666698|0
666|3|1012|26.27|0|1|1|0.0049407114624505895|0.0259584980237154|0.0|0
650|6|1083|35.82|4|7|1|0.00369344413665743|0.0330747922437673|1.0|0
754|1|1540|97.98|4|5|4|0.0155844155844156|0.0636233766233766|0.166666666666667|1
212|4|813|59.43|8|9|2|0.018450184501845|0.07309963099630999|0.5333333333333329|0
893|3|1397|34.51|7|9|2|0.008589835361488909|0.0247029348604152|0.583333333333333|0
424|6|1795|88.13|4|10|5|0.0033426183844011102|0.0490974930362117|0.666666666666667|0
877|3|1353|17.55|6|1|5|0.0118255728011826|0.0129711751662971|0.375|0
1370|2|1793|6.71|5|7|0|0.015058561070831|0.00374233128834356|0.185185185185185|0
1215|2|320|7.02|8|4|4|0.04375|0.0219375|0.5714285714285711|0
607|6|1034|30.4|2|3|2|0.00193423597678917|0.0294003868471954|1.0|0
5|1|770|11.09|11|5|2|0.0337662337662338|0.0144025974025974|0.42307692307692296|1
1724|3|836|97.99|5|9|4|0.0179425837320574|0.11721291866028698|0.33333333333333304|0
1277|6|1692|54.07|0|2|0|0.008865248226950359|0.0319562647754137|0.0|0
459|6|1147|17.81|2|9|4|0.00523103748910201|0.0155274629468178|0.33333333333333304|0
481|2|1249|13.14|1|6|1|0.0136108887109688|0.0105204163330665|0.0588235294117647|0
1528|3|847|49.05|1|9|5|0.0354191263282172|0.0579102715466352|0.0333333333333333|0
1792|2|772|73.41|7|7|1|0.0246113989637306|0.0950906735751295|0.368421052631579|0
1556|2|607|78.51|11|1|5|0.014827018121911001|0.129341021416804|1.22222222222222|0
1807|3|130|42.82|6|0|5|0.2|0.329384615384615|0.23076923076923103|0
779|5|1154|9.8|2|9|2|0.0251299826689775|0.00849220103986135|0.0689655172413793|0
1094|6|1015|98.75|7|2|1|0.00689655172413793|0.0972906403940887|1.0|0
876|2|762|84.22|4|9|1|0.00918635170603675|0.11052493438320199|0.5714285714285711|0
27|4|329|56.65|10|2|5|0.0638297872340425|0.17218844984802403|0.47619047619047605|0
629|2|517|83.67|0|1|3|0.0290135396518375|0.16183752417795|0.0|0
901|6|1336|63.49|6|9|4|0.00149700598802395|0.0475224550898204|3.0|0
843|5|983|59.64|5|9|2|0.0213631739572737|0.0606714140386572|0.23809523809523803|0
729|6|1032|80.97|11|10|3|0.0290697674418605|0.0784593023255814|0.3666666666666671|0
489|6|69|79.78|8|1|1|0.36231884057971003|1.15623188405797|0.32|0
1176|3|1566|46.52|1|7|1|0.005108556832694761|0.0297062579821201|0.125|0
1479|6|1543|27.91|6|2|2|0.0084251458198315|0.0180881399870382|0.46153846153846206|0
1340|2|850|94.74|10|1|5|0.0058823529411764705|0.11145882352941199|2.0|0
1700|1|298|14.91|5|8|5|0.0671140939597315|0.0500335570469799|0.25|0
146|5|106|81.05|2|3|3|0.0471698113207547|0.7646226415094342|0.4|0
1163|4|1178|55.11|3|2|5|0.0254668930390492|0.0467826825127334|0.1|0
349|4|572|88.48|9|6|4|0.034965034965035|0.15468531468531502|0.45|0
1190|2|573|27.9|11|6|3|0.0209424083769634|0.0486910994764398|0.916666666666667|0
412|5|902|54.43|1|4|2|0.0332594235033259|0.0603436807095344|0.0333333333333333|0
1145|2|1487|28.62|7|6|2|0.000672494956287828|0.0192468056489576|7.0|0
1376|5|1716|94.48|4|5|2|0.00466200466200466|0.0550582750582751|0.5|0
1790|2|166|23.92|11|2|5|0.07228915662650601|0.144096385542169|0.916666666666667|0
1134|5|255|28.54|8|6|5|0.109803921568627|0.11192156862745099|0.28571428571428603|0
1055|5|710|52.73|1|10|0|0.0140845070422535|0.0742676056338028|0.1|0
1311|4|1363|27.27|10|7|1|0.00146735143066764|0.0200073367571533|5.0|0
853|2|910|37.98|4|5|3|0.0274725274725275|0.0417362637362637|0.16|0
1262|1|1783|94.84|3|0|4|0.0151430173864274|0.0531912507010656|0.111111111111111|1
480|2|923|19.04|1|1|1|0.0119176598049837|0.0206283856988082|0.0909090909090909|0
129|4|420|89.92|2|2|3|0.0523809523809524|0.21409523809523803|0.0909090909090909|0
873|3|937|36.43|2|4|0|0.0149413020277481|0.0388794023479189|0.14285714285714302|0
1544|6|1243|66.54|8|8|4|0.0120675784392599|0.0535317779565567|0.5333333333333329|0
1237|5|1122|1.79|6|5|1|0.0160427807486631|0.0015953654188948301|0.33333333333333304|0
1603|2|965|64.51|5|1|5|0.0186528497409326|0.0668497409326425|0.277777777777778|0
517|1|400|22.96|2|6|0|0.0475|0.0574|0.10526315789473699|0
1650|3|245|21.93|5|5|4|0.0163265306122449|0.0895102040816327|1.25|0
1639|5|1413|28.11|0|4|2|0.00849256900212314|0.0198938428874735|0.0|0
310|1|1362|89.74|8|6|5|0.0022026431718061698|0.0658883994126285|2.6666666666666696|0
1719|2|303|88.23|11|5|1|0.0297029702970297|0.29118811881188106|1.22222222222222|0
1397|5|801|50.28|8|6|0|0.0162297128589263|0.0627715355805243|0.615384615384615|0
1847|3|1171|25.56|11|1|3|0.0204953031596926|0.0218274978650726|0.4583333333333329|0
1104|5|568|52.08|11|6|4|0.0105633802816901|0.0916901408450704|1.8333333333333302|0
1818|5|224|28.55|5|7|4|0.0758928571428571|0.127455357142857|0.294117647058824|0
1388|2|937|3.88|8|5|3|0.0213447171824973|0.00414087513340448|0.4|0
1842|1|724|14.52|9|5|5|0.0069060773480663|0.0200552486187845|1.8|0
845|4|988|70.36|7|10|1|0.0101214574898785|0.0712145748987854|0.7|0
1640|6|421|21.09|8|7|4|0.0475059382422803|0.0500950118764846|0.4|0
495|1|43|23.08|4|6|2|0.604651162790698|0.5367441860465121|0.153846153846154|0
449|1|1126|31.39|8|7|3|0.00266429840142096|0.0278774422735346|2.6666666666666696|0
29|5|1435|91.96|4|3|3|0.0132404181184669|0.0640836236933798|0.21052631578947398|0
1057|3|1267|64.93|2|5|5|0.0118389897395422|0.0512470402525651|0.133333333333333|0
252|5|1581|65.84|9|5|4|0.00885515496521189|0.0416445287792536|0.6428571428571429|0
1054|6|355|1.22|0|6|2|0.028169014084507005|0.00343661971830986|0.0|0
1759|3|1421|10.78|5|8|4|0.0091484869809993|0.007586206896551721|0.384615384615385|0
1384|1|1280|14.65|10|0|3|0.0078125|0.0114453125|1.0|0
1270|3|1597|11.64|10|2|4|0.0062617407639323705|0.00728866624921728|1.0|0
1812|3|916|21.73|4|0|2|0.0131004366812227|0.0237227074235808|0.33333333333333304|0
1018|4|911|69.28|10|10|0|0.0241492864983535|0.0760482985729967|0.45454545454545503|0
1052|2|1796|83.98|8|9|4|0.00779510022271715|0.0467594654788419|0.5714285714285711|0
1252|3|851|93.75|2|8|3|0.0082256169212691|0.110164512338425|0.28571428571428603|0
668|3|452|39.55|0|7|3|0.0530973451327434|0.0875|0.0|0
392|3|261|86.46|9|5|4|0.11494252873563199|0.331264367816092|0.3|0
1704|4|1220|93.1|7|0|0|0.00163934426229508|0.0763114754098361|3.5|0
1079|5|1698|33.71|9|5|1|0.0088339222614841|0.0198527679623086|0.6|0
117|5|37|62.17|9|4|4|0.7837837837837841|1.68027027027027|0.31034482758620696|0
219|1|636|38.87|8|0|4|0.0283018867924528|0.0611163522012579|0.444444444444444|0
1668|2|522|6.78|4|3|4|0.0325670498084291|0.0129885057471264|0.23529411764705901|0
394|3|1190|59.76|6|5|4|0.0210084033613445|0.050218487394957996|0.24|0
72|6|1154|57.64|7|10|4|0.0173310225303293|0.04994800693240901|0.35|0
1844|2|1259|20.78|3|5|4|0.007148530579825259|0.016505162827641|0.33333333333333304|0
1829|2|77|66.01|5|3|5|0.36363636363636404|0.8572727272727271|0.178571428571429|0
1223|3|1557|82.33|3|7|4|0.00321130378933847|0.0528773281952473|0.6|0
750|1|264|89.38|4|5|0|0.0416666666666667|0.338560606060606|0.36363636363636404|0
896|3|1050|29.28|5|3|4|0.00380952380952381|0.0278857142857143|1.25|0
1825|1|36|35.02|8|10|1|0.25|0.972777777777778|0.8888888888888891|0
1401|2|916|17.01|8|0|5|0.0131004366812227|0.0185698689956332|0.666666666666667|0
1520|5|1446|92.06|2|1|2|0.00899031811894882|0.0636652835408022|0.153846153846154|0
1448|4|423|16.55|3|5|5|0.0449172576832151|0.0391252955082742|0.157894736842105|0
1364|2|786|30.36|10|3|3|0.0089058524173028|0.0386259541984733|1.42857142857143|0
590|1|195|67.44|7|4|4|0.0615384615384615|0.34584615384615397|0.583333333333333|0
1283|2|240|44.13|3|9|1|0.00833333333333333|0.183875|1.5|0
1347|2|1355|76.25|8|1|0|0.0103321033210332|0.0562730627306273|0.5714285714285711|0
657|6|1065|79.82|6|5|5|0.0253521126760563|0.0749483568075117|0.222222222222222|0
683|4|1520|49.67|5|6|2|0.0177631578947368|0.0326776315789474|0.185185185185185|0
463|3|1018|66.26|8|5|2|0.0196463654223969|0.0650884086444008|0.4|0
1175|6|1086|59.42|5|4|1|0.0239410681399632|0.0547145488029466|0.19230769230769199|0
1038|3|821|36.44|11|0|2|0.02557856272838|0.0443848964677223|0.523809523809524|0
1501|1|151|67.03|9|8|0|0.00662251655629139|0.44390728476821206|9.0|0
1809|2|755|56.06|11|5|3|0.0198675496688742|0.0742516556291391|0.733333333333333|0
362|3|1374|51.79|9|0|4|0.000727802037845706|0.0376928675400291|9.0|0
1099|2|1663|63.73|5|6|4|0.00300661455201443|0.0383223090799759|1.0|0
1845|5|1238|45.82|6|0|4|0.00565428109854604|0.0370113085621971|0.857142857142857|0
832|4|590|57.23|2|3|1|0.0508474576271186|0.09699999999999999|0.0666666666666667|0
1564|3|440|77.6|4|2|3|0.0431818181818182|0.17636363636363603|0.21052631578947398|0
1692|2|1210|25.72|4|3|3|0.0008264462809917361|0.0212561983471074|4.0|0
1875|1|397|41.89|5|5|0|0.0654911838790932|0.10551637279597|0.19230769230769199|1
773|2|767|90.66|5|4|2|0.0169491525423729|0.11820078226857901|0.384615384615385|0
978|1|1244|57.08|4|10|0|0.00241157556270096|0.0458842443729904|1.33333333333333|0
364|5|1487|51.83|3|7|1|0.00134498991257566|0.0348554135843981|1.5|0
499|1|600|8.8|6|8|3|0.0483333333333333|0.0146666666666667|0.206896551724138|1
781|5|1337|17.13|7|6|1|0.0216903515332835|0.0128122662677636|0.24137931034482799|0
1473|3|485|73.39|3|3|1|0.0247422680412371|0.151319587628866|0.25|0
1766|5|119|29.69|4|5|2|0.100840336134454|0.24949579831932803|0.33333333333333304|0
343|2|415|37.77|1|5|1|0.0530120481927711|0.0910120481927711|0.0454545454545455|0
808|4|304|61.72|2|0|5|0.0986842105263158|0.203026315789474|0.0666666666666667|0
1515|6|1060|71.23|1|0|5|0.0188679245283019|0.0671981132075472|0.05|0
1617|4|642|80.45|2|3|4|0.0389408099688473|0.125311526479751|0.08|0
1329|5|126|4.4|2|4|3|0.0952380952380952|0.0349206349206349|0.166666666666667|0
725|6|1210|80.37|3|0|3|0.012396694214876|0.0664214876033058|0.2|0
210|6|1603|47.86|9|9|3|0.000623830318153462|0.0298565190268247|9.0|0
1167|6|868|30.14|10|5|5|0.0345622119815668|0.0347235023041475|0.33333333333333304|0
878|5|1752|20.51|6|10|2|0.0091324200913242|0.0117066210045662|0.375|0
637|4|316|16.35|9|8|0|0.00949367088607595|0.0517405063291139|3.0|0
1362|3|1666|5.0|2|3|3|0.017406962785114|0.00300120048019208|0.0689655172413793|0
314|3|1329|57.14|5|7|1|0.0203160270880361|0.0429947328818661|0.185185185185185|0
379|3|1072|89.13|0|3|1|0.00466417910447761|0.0831436567164179|0.0|0
456|6|1098|33.87|0|10|1|0.00728597449908925|0.0308469945355191|0.0|0
1317|4|1349|54.05|11|10|0|0.00815418828762046|0.0400667160859896|1.0|0
190|2|277|76.34|5|10|0|0.0252707581227437|0.27559566787003603|0.7142857142857142|0
454|1|213|17.76|11|3|0|0.0516431924882629|0.0833802816901408|1.0|0
634|2|550|81.73|0|10|0|0.0545454545454545|0.1486|0.0|0
1765|1|500|5.88|4|1|0|0.002|0.01176|4.0|0
298|5|80|79.55|3|0|5|0.2625|0.994375|0.14285714285714302|0
1118|1|581|58.38|4|1|1|0.0275387263339071|0.100481927710843|0.25|0
819|4|224|5.62|7|1|2|0.107142857142857|0.0250892857142857|0.29166666666666696|0
1240|3|298|99.73|2|7|3|0.08724832214765099|0.334664429530201|0.0769230769230769|0
1352|2|1293|97.6|8|10|4|0.0116009280742459|0.0754833720030936|0.5333333333333329|0
24|1|71|78.91|1|4|4|0.0140845070422535|1.1114084507042299|1.0|0
1746|3|929|5.14|1|5|1|0.0118406889128095|0.00553283100107643|0.0909090909090909|0
847|5|1102|91.99|0|3|1|0.0254083484573503|0.08347549909255901|0.0|0
155|3|1741|11.94|7|3|5|0.0166570936243538|0.00685812751292361|0.24137931034482799|0
1212|2|144|75.04|9|9|0|0.159722222222222|0.5211111111111111|0.39130434782608703|0
1187|5|1189|51.39|0|1|2|0.0235492010092515|0.0432211942809083|0.0|0
1465|1|174|96.0|0|2|2|0.109195402298851|0.5517241379310339|0.0|0
949|2|61|31.49|10|1|5|0.18032786885245897|0.516229508196721|0.9090909090909091|0
1221|6|1470|6.96|5|1|1|0.0149659863945578|0.0047346938775510205|0.22727272727272702|0
1725|1|385|44.73|4|8|2|0.0285714285714286|0.11618181818181801|0.36363636363636404|0
1451|3|1045|49.05|7|7|2|0.0220095693779904|0.0469377990430622|0.304347826086957|0
323|4|911|24.53|4|0|3|0.0230515916575192|0.0269264544456641|0.19047619047619|0
1271|2|820|75.59|5|1|0|0.00365853658536585|0.0921829268292683|1.6666666666666698|0
751|5|606|32.18|11|6|3|0.0462046204620462|0.0531023102310231|0.3928571428571429|0
972|6|821|79.78|6|4|5|0.00121802679658952|0.0971741778319123|6.0|0
1059|5|418|24.08|9|5|2|0.0550239234449761|0.0576076555023924|0.39130434782608703|0
87|2|1464|58.21|8|3|0|0.0177595628415301|0.0397609289617486|0.307692307692308|0
1385|4|1766|83.52|7|1|5|0.0135900339750849|0.0472933182332956|0.29166666666666696|0
135|2|959|11.63|6|10|0|0.0260688216892596|0.0121272158498436|0.24|0
806|5|1701|88.92|2|8|1|0.00881834215167548|0.0522751322751323|0.133333333333333|0
1418|4|149|94.28|1|4|2|0.10738255033557001|0.632751677852349|0.0625|0
1138|3|1786|23.13|6|7|0|0.0106382978723404|0.0129507278835386|0.315789473684211|0
1173|5|1330|15.04|4|1|4|0.0037593984962406|0.0113082706766917|0.8|0
874|5|171|75.29|5|1|4|0.0935672514619883|0.440292397660819|0.3125|0
850|5|989|22.97|10|0|3|0.0121334681496461|0.0232254802831143|0.833333333333333|0
142|2|414|98.72|0|5|1|0.0314009661835749|0.238454106280193|0.0|0
1025|1|471|43.78|4|3|0|0.0488322717622081|0.0929511677282378|0.17391304347826098|0
777|3|515|51.33|8|0|3|0.0330097087378641|0.0996699029126214|0.47058823529411803|0
407|4|790|64.89|5|9|3|0.020253164556961998|0.0821392405063291|0.3125|0
224|4|352|21.69|10|7|0|0.0198863636363636|0.0616193181818182|1.42857142857143|0
1290|1|775|54.85|0|6|3|0.00129032258064516|0.0707741935483871|0.0|0
1494|6|819|80.67|5|10|1|0.00244200244200244|0.0984981684981685|2.5|0
120|3|654|85.68|4|10|3|0.00152905198776758|0.131009174311927|4.0|0
1412|2|677|1.76|6|5|0|0.0162481536189069|0.00259970457902511|0.545454545454545|0
1828|3|1421|2.42|7|8|0|0.0197044334975369|0.00170302603800141|0.25|0
34|2|866|39.38|10|9|1|0.0046189376443418|0.045473441108545|2.5|0
910|3|1488|31.77|4|9|2|0.0201612903225806|0.0213508064516129|0.133333333333333|0
993|4|1722|28.98|2|8|0|0.0104529616724739|0.0168292682926829|0.111111111111111|0
291|2|1813|22.14|8|1|0|0.00551571980143409|0.0122118036403751|0.8|0
304|4|259|23.83|4|5|5|0.0308880308880309|0.09200772200772198|0.5|0
290|6|1624|29.71|5|2|3|0.0123152709359606|0.0182943349753695|0.25|0
199|2|796|3.76|1|2|0|0.0314070351758794|0.00472361809045226|0.04|0
616|5|1716|28.0|5|6|0|0.013986013986014|0.0163170163170163|0.208333333333333|0
1643|3|448|65.18|2|4|5|0.0379464285714286|0.14549107142857098|0.11764705882352902|0
1662|5|1014|50.31|7|6|0|0.0207100591715976|0.0496153846153846|0.33333333333333304|0
895|1|1180|34.29|6|9|1|0.0101694915254237|0.0290593220338983|0.5|0
820|6|1192|51.26|11|0|0|0.023489932885906003|0.043003355704697994|0.3928571428571429|0
1562|3|1710|11.63|6|4|3|0.0134502923976608|0.0068011695906432705|0.260869565217391|0
397|4|1260|41.49|10|4|2|0.0126984126984127|0.0329285714285714|0.625|0
1496|2|842|7.33|3|6|1|0.0356294536817102|0.00870546318289786|0.1|0
991|1|422|55.55|5|8|4|0.0497630331753555|0.13163507109004702|0.23809523809523803|0
494|3|458|6.04|3|10|4|0.0480349344978166|0.0131877729257642|0.136363636363636|0
508|6|481|24.17|1|5|1|0.027027027027027|0.0502494802494803|0.0769230769230769|0
737|6|1546|92.65|5|2|4|0.00323415265200517|0.0599288486416559|1.0|0
131|5|827|40.5|3|3|4|0.0241837968561064|0.0489721886336155|0.15|0
1315|5|1553|61.11|0|9|3|0.0128783000643915|0.0393496458467482|0.0|0
804|6|1510|41.42|1|10|3|0.0033112582781457|0.0274304635761589|0.2|0
384|1|950|25.83|0|1|4|0.0315789473684211|0.0271894736842105|0.0|1
1523|3|494|47.77|2|8|1|0.0587044534412955|0.0967004048582996|0.0689655172413793|0
1308|6|785|16.21|4|1|3|0.0063694267515923605|0.0206496815286624|0.8|0
377|4|661|88.58|4|4|1|0.0302571860816944|0.134009077155824|0.2|0
741|4|1292|66.07|0|9|0|0.0038699690402476798|0.0511377708978328|0.0|0
89|6|1790|70.66|5|1|0|0.00726256983240223|0.0394748603351955|0.384615384615385|0
1312|4|863|36.16|11|4|0|0.0034762456546929303|0.0419003476245655|3.6666666666666696|0
1548|4|515|92.19|1|1|0|0.0388349514563107|0.17900970873786398|0.05|0
1440|6|1248|87.89|11|6|4|0.0048076923076923106|0.0704246794871795|1.8333333333333302|0
954|2|1194|89.82|10|7|3|0.0201005025125628|0.0752261306532663|0.4166666666666671|0
755|2|548|70.39|5|9|3|0.0273722627737226|0.128448905109489|0.33333333333333304|0
1214|1|1582|51.93|5|0|2|0.0176991150442478|0.0328255372945638|0.178571428571429|1
388|5|1423|41.76|10|2|2|0.0133520730850316|0.0293464511595221|0.526315789473684|0
399|4|676|61.02|6|2|2|0.0118343195266272|0.0902662721893491|0.75|0
922|5|754|6.84|0|8|5|0.0397877984084881|0.00907161803713528|0.0|0
756|4|943|70.03|0|1|2|0.004241781548250271|0.0742629904559915|0.0|0
1367|2|1706|27.13|4|9|3|0.0023446658851113697|0.0159026963657679|1.0|0
308|1|357|85.61|10|9|1|0.0644257703081232|0.23980392156862698|0.43478260869565205|0
33|2|1355|48.87|2|0|4|0.00516605166051661|0.0360664206642066|0.28571428571428603|0
1816|3|1563|87.86|4|1|0|0.00575815738963532|0.056212412028151|0.444444444444444|0
796|6|48|46.48|2|7|2|0.29166666666666696|0.9683333333333329|0.14285714285714302|0
1013|1|300|64.64|7|6|1|0.06|0.21546666666666697|0.38888888888888895|0
708|2|571|33.67|6|10|4|0.0490367775831874|0.0589667250437828|0.214285714285714|1
670|4|558|25.96|2|10|5|0.010752688172043001|0.0465232974910394|0.33333333333333304|0
686|4|1793|4.58|7|1|4|0.0161740100390407|0.00255437813720022|0.24137931034482799|0
955|5|276|98.07|11|2|1|0.101449275362319|0.355326086956522|0.3928571428571429|0
140|5|78|92.86|5|1|5|0.384615384615385|1.19051282051282|0.166666666666667|0
107|3|185|98.96|4|2|1|0.14594594594594598|0.5349189189189191|0.148148148148148|0
297|2|809|21.21|0|7|5|0.0210135970333745|0.0262175525339926|0.0|0
643|2|369|36.17|10|4|2|0.0569105691056911|0.0980216802168022|0.47619047619047605|0
710|2|1187|64.15|2|9|5|0.0033698399326032|0.0540438079191238|0.5|0
136|2|282|70.79|4|8|4|0.024822695035461|0.25102836879432605|0.5714285714285711|0
1142|1|1158|99.82|10|10|0|0.0224525043177893|0.0862003454231434|0.384615384615385|1
538|6|854|18.45|10|9|4|0.0327868852459016|0.0216042154566745|0.3571428571428571|0
12|4|1736|5.46|4|10|4|0.00576036866359447|0.0031451612903225803|0.4|0
157|1|818|88.58|7|8|3|0.0220048899755501|0.10828850855745699|0.38888888888888895|0
440|2|1286|61.21|5|9|3|0.00622083981337481|0.04759720062208401|0.625|0
645|1|1782|13.34|5|1|4|0.0151515151515152|0.00748597081930415|0.185185185185185|1
746|1|1533|3.12|7|1|5|0.0045662100456621|0.00203522504892368|1.0|0
179|3|876|42.68|9|0|2|0.0125570776255708|0.0487214611872146|0.818181818181818|0
615|6|434|15.09|6|5|5|0.0046082949308755795|0.0347695852534562|3.0|0
226|2|1597|11.14|2|5|5|0.0137758296806512|0.00697557921102066|0.0909090909090909|0
707|2|567|94.25|9|3|2|0.0299823633156966|0.166225749559083|0.529411764705882|0
1713|4|474|86.63|9|8|1|0.0569620253164557|0.18276371308016895|0.33333333333333304|0
1234|3|803|74.57|8|4|3|0.0049813200498132|0.0928642590286426|2.0|0
272|6|1162|42.24|6|3|3|0.00688468158347676|0.0363511187607573|0.75|0
1607|3|1544|2.6|9|2|3|0.0038860103626943|0.0016839378238342|1.5|0
1623|2|315|33.18|2|7|4|0.0507936507936508|0.105333333333333|0.125|0
1019|1|1659|75.72|2|2|5|0.00783604581072935|0.0456419529837251|0.153846153846154|0
1259|1|1004|56.55|11|2|3|0.0059760956175298795|0.0563247011952191|1.8333333333333302|0
361|3|733|7.35|6|9|4|0.0150068212824011|0.0100272851296044|0.545454545454545|0
38|5|1561|91.75|7|6|2|0.0121716848174247|0.0587764253683536|0.368421052631579|0
526|2|404|7.98|0|1|2|0.0668316831683168|0.0197524752475248|0.0|0
664|3|1496|85.06|7|9|2|0.0020053475935828896|0.0568582887700535|2.3333333333333304|0
347|2|1363|1.84|7|7|4|0.0168745414526779|0.0013499633162142302|0.304347826086957|0
1567|5|389|8.11|4|6|2|0.0565552699228792|0.0208483290488432|0.18181818181818202|0
765|2|1423|53.52|0|0|2|0.0203794799718904|0.037610681658467995|0.0|0
144|1|788|80.87|0|8|3|0.0101522842639594|0.10262690355329901|0.0|0
581|3|160|2.37|0|9|0|0.05|0.0148125|0.0|0
821|6|1555|92.3|4|8|0|0.0141479099678457|0.0593569131832797|0.18181818181818202|0
940|3|791|66.37|2|1|5|0.0214917825537295|0.0839064475347661|0.11764705882352902|0
1149|6|12|82.71|10|9|5|1.33333333333333|6.8925|0.625|0
1763|4|1791|84.09|2|6|2|0.0150753768844221|0.0469514237855946|0.0740740740740741|0
261|1|637|39.52|10|1|0|0.0204081632653061|0.0620408163265306|0.7692307692307689|0
1546|1|63|99.7|8|10|5|0.0317460317460317|1.58253968253968|4.0|0
1446|2|131|12.21|7|7|3|0.0610687022900763|0.093206106870229|0.875|0
221|2|1459|77.21|4|1|2|0.0178204249485949|0.0529198080877313|0.153846153846154|0
1642|5|11|79.66|1|5|4|2.18181818181818|7.24181818181818|0.0416666666666667|0
1375|1|1516|98.59|1|8|1|0.0191292875989446|0.065032981530343|0.0344827586206897|1
1860|2|431|12.24|10|5|0|0.0533642691415313|0.0283990719257541|0.43478260869565205|0
1046|5|1066|54.11|11|10|5|0.0225140712945591|0.0507598499061914|0.4583333333333329|0
1701|3|533|32.81|2|0|1|0.0150093808630394|0.0615572232645403|0.25|0
1202|5|391|56.9|4|9|4|0.0690537084398977|0.14552429667519198|0.148148148148148|0
1002|5|664|87.01|7|2|1|0.0180722891566265|0.131039156626506|0.583333333333333|0
1341|1|1314|32.61|3|10|5|0.0175038051750381|0.0248173515981735|0.130434782608696|1
326|1|1250|21.36|7|4|3|0.0032|0.017088|1.75|0
176|5|1138|78.7|3|5|0|0.0184534270650264|0.0691564147627417|0.14285714285714302|0
815|2|1746|44.05|1|3|0|0.00171821305841924|0.0252290950744559|0.33333333333333304|0
1508|4|1427|93.21|3|2|2|0.0175192711983181|0.0653188507358094|0.12|0
305|3|751|68.27|7|1|3|0.033288948069241|0.0909054593874833|0.28|0
3|6|1791|92.31|8|4|4|0.0161920714684534|0.0515410385259632|0.27586206896551696|0
1424|6|663|57.83|6|9|3|0.028657616892911|0.0872247360482655|0.315789473684211|0
475|6|671|0.14|10|3|1|0.0104321907600596|0.00020864381520119198|1.42857142857143|0
715|1|1666|93.56|6|6|4|0.0078031212484994|0.0561584633853541|0.46153846153846206|0
574|1|213|48.5|0|0|3|0.126760563380282|0.227699530516432|0.0|0
174|2|576|91.74|3|4|3|0.0190972222222222|0.159270833333333|0.272727272727273|0
1161|6|1253|8.35|6|10|2|0.000798084596967279|0.00666400638467678|6.0|0
1742|5|1442|92.56|10|0|2|0.0187239944521498|0.0641886269070735|0.37037037037037|0
1111|3|1233|49.14|2|4|3|0.016220600162206|0.0398540145985401|0.1|0
1576|6|1008|48.56|0|9|2|0.0158730158730159|0.0481746031746032|0.0|0
827|4|657|97.54|6|5|0|0.0273972602739726|0.148462709284627|0.33333333333333304|0
1233|6|934|15.69|9|10|2|0.0203426124197002|0.0167987152034261|0.47368421052631604|0
533|5|871|83.86|9|9|4|0.0172215843857635|0.0962801377726751|0.6|0
856|3|592|64.42|8|3|5|0.0219594594594595|0.10881756756756801|0.615384615384615|0
1551|5|889|48.49|11|5|2|0.0326209223847019|0.0545444319460067|0.37931034482758597|0
1086|4|83|35.33|10|8|4|0.168674698795181|0.42566265060241|0.7142857142857142|0
231|3|691|33.87|9|5|1|0.0303907380607815|0.0490159189580318|0.42857142857142894|0
948|2|378|70.18|1|0|2|0.0211640211640212|0.185661375661376|0.125|0
914|2|945|74.81|0|10|3|0.00952380952380952|0.0791640211640212|0.0|0
1707|4|482|93.1|3|1|1|0.0145228215767635|0.19315352697095398|0.42857142857142894|0
736|1|1122|86.21|7|0|2|0.0151515151515152|0.0768360071301248|0.411764705882353|0
341|3|848|52.37|2|4|0|0.0224056603773585|0.0617570754716981|0.10526315789473699|0
1071|1|548|40.69|7|3|1|0.0346715328467153|0.0742518248175182|0.368421052631579|0
66|1|232|18.27|9|5|2|0.00862068965517241|0.07875|4.5|0
635|4|239|47.98|6|1|1|0.096234309623431|0.20075313807531397|0.260869565217391|0
1129|3|1327|66.84|10|1|2|0.012810851544838001|0.0503692539562924|0.588235294117647|0
1584|1|614|71.57|6|8|2|0.0472312703583062|0.116563517915309|0.206896551724138|1
567|6|165|60.67|11|9|4|0.0181818181818182|0.36769696969696997|3.6666666666666696|0
37|2|1397|62.59|7|9|4|0.0178954903364352|0.0448031496062992|0.28|1
184|5|793|10.3|8|5|1|0.0201765447667087|0.0129886506935687|0.5|0
527|6|884|90.71|4|0|5|0.0124434389140271|0.102613122171946|0.36363636363636404|0
236|5|1026|24.44|3|3|0|0.0224171539961014|0.0238206627680312|0.130434782608696|0
885|1|300|57.97|1|9|1|0.09|0.19323333333333303|0.037037037037037|1
1723|6|407|62.09|7|3|3|0.0393120393120393|0.15255528255528303|0.4375|0
161|1|1096|97.39|1|4|1|0.0118613138686131|0.0888594890510949|0.0769230769230769|0
401|5|150|87.47|5|6|2|0.0666666666666667|0.583133333333333|0.5|0
719|3|471|96.93|9|3|4|0.0445859872611465|0.20579617834394898|0.42857142857142894|0
580|2|1240|10.77|0|5|3|0.0145161290322581|0.008685483870967741|0.0|0
230|1|1537|38.44|5|6|1|0.0175666883539362|0.0250097592713077|0.185185185185185|1
168|3|1504|98.66|7|4|0|0.0152925531914894|0.0655984042553191|0.304347826086957|0
1677|3|1396|41.6|0|10|0|0.00501432664756447|0.0297994269340974|0.0|0
154|4|1419|58.79|7|9|1|0.006342494714587739|0.041430584918957|0.7777777777777779|0
98|6|122|14.32|1|5|5|0.114754098360656|0.11737704918032801|0.0714285714285714|0
470|6|511|83.43|3|7|0|0.00195694716242661|0.16326810176125198|3.0|0
537|1|1545|60.97|4|10|1|0.0103559870550162|0.039462783171521|0.25|0
696|6|1826|42.12|4|10|5|0.00985761226725082|0.0230668127053669|0.222222222222222|0
1195|2|67|71.46|11|6|2|0.0895522388059701|1.0665671641791|1.8333333333333302|0
76|2|250|33.95|11|10|3|0.055999999999999994|0.1358|0.7857142857142858|0
892|2|514|21.55|6|3|4|0.00194552529182879|0.0419260700389105|6.0|0
1754|1|467|87.58|0|8|2|0.0578158458244111|0.18753747323340503|0.0|1
868|5|531|88.33|11|7|5|0.0338983050847458|0.16634651600753303|0.6111111111111109|0
661|2|1775|19.21|8|2|4|0.00112676056338028|0.0108225352112676|4.0|0
1264|2|452|81.76|0|10|3|0.0398230088495575|0.180884955752212|0.0|0
928|5|1825|61.79|10|2|4|0.0005479452054794519|0.0338575342465753|10.0|0
95|5|1570|47.79|4|10|5|0.00127388535031847|0.0304394904458599|2.0|0
183|1|218|41.93|4|7|2|0.0963302752293578|0.19233944954128399|0.19047619047619|0
1749|4|502|75.97|5|3|0|0.0278884462151394|0.15133466135458198|0.3571428571428571|0
936|4|1260|49.5|10|5|5|0.0015873015873015901|0.0392857142857143|5.0|0
127|5|690|58.35|8|7|3|0.00144927536231884|0.0845652173913043|8.0|0
626|6|1816|14.92|6|4|2|0.0165198237885463|0.008215859030837|0.2|0
998|5|1676|78.04|9|2|5|0.00178997613365155|0.046563245823389006|3.0|0
271|2|506|86.07|0|6|1|0.0237154150197628|0.170098814229249|0.0|0
111|6|1123|33.03|10|6|3|0.0053428317008014205|0.0294122885129118|1.6666666666666698|0
1731|1|1367|65.92|5|1|0|0.0197512801755669|0.04822238478419901|0.185185185185185|1
775|2|1607|7.72|4|10|4|0.0074673304293715|0.004803982576229|0.33333333333333304|0
1507|2|1817|9.95|10|7|3|0.0126582278481013|0.00547605943863511|0.43478260869565205|0
1666|3|1219|11.24|11|6|0|0.00246103363412633|0.00922067268252666|3.6666666666666696|0
1493|6|1372|83.08|10|8|4|0.0036443148688046602|0.0605539358600583|2.0|0
360|2|1659|54.7|7|9|4|0.0006027727546714889|0.0329716696805304|7.0|0
172|2|297|91.67|5|6|4|0.0841750841750842|0.30865319865319896|0.2|0
171|4|1235|40.55|9|2|5|0.000809716599190283|0.032834008097166|9.0|0
1688|4|1683|74.66|8|7|3|0.0053475935828877|0.0443612596553773|0.8888888888888891|0
1488|1|1029|99.19|2|8|1|0.0165208940719145|0.0963945578231293|0.11764705882352902|0
932|2|822|55.56|7|5|2|0.0316301703163017|0.0675912408759124|0.269230769230769|0
1232|5|1054|98.45|8|2|4|0.0199240986717268|0.0934060721062619|0.38095238095238104|0
789|4|86|52.68|1|5|5|0.0697674418604651|0.612558139534884|0.166666666666667|0
1088|5|1640|22.23|5|0|5|0.00365853658536585|0.0135548780487805|0.833333333333333|0
585|1|631|94.61|6|5|3|0.0190174326465927|0.149936608557845|0.5|0
875|3|1425|82.7|8|1|3|0.0210526315789474|0.0580350877192982|0.266666666666667|0
1600|1|1406|77.48|7|1|5|0.0163584637268848|0.0551066856330014|0.304347826086957|1
75|6|300|93.04|4|4|3|0.0333333333333333|0.31013333333333304|0.4|0
1286|4|1161|58.48|4|0|1|0.0103359173126615|0.0503703703703704|0.33333333333333304|0
1119|5|1124|19.13|5|0|5|0.00622775800711744|0.0170195729537367|0.7142857142857142|0
8|6|962|65.44|7|0|2|0.0280665280665281|0.068024948024948|0.25925925925925897|0
913|1|214|87.58|6|1|5|0.014018691588784998|0.409252336448598|2.0|0
1168|6|406|9.3|11|8|2|0.0123152709359606|0.0229064039408867|2.2|0
26|3|1503|23.0|10|3|1|0.019294743845641997|0.0153027278775782|0.34482758620689696|0
1036|1|1060|88.99|10|2|3|0.0273584905660377|0.0839528301886792|0.34482758620689696|1
592|5|1263|77.22|10|7|4|0.0063341250989707|0.0611401425178147|1.25|0
638|5|805|51.76|11|4|3|0.0062111801242236|0.0642981366459627|2.2|0
1602|3|943|2.86|10|1|0|0.0180275715800636|0.0030328738069989396|0.588235294117647|0
486|4|227|71.24|0|0|0|0.0308370044052863|0.313832599118943|0.0|0
1615|4|179|90.91|6|0|5|0.0782122905027933|0.507877094972067|0.42857142857142894|0
1279|5|867|74.0|0|2|4|0.00807381776239908|0.0853517877739331|0.0|0
1209|1|1602|30.86|3|9|4|0.0124843945068664|0.0192634207240949|0.15|1
934|1|1266|11.09|0|0|4|0.0181674565560821|0.008759873617693521|0.0|0
956|2|1754|37.07|9|1|2|0.00741163055872292|0.0211345496009122|0.6923076923076921|0
1610|3|1189|79.01|1|1|3|0.0185029436501262|0.0664507989907485|0.0454545454545455|0
974|4|867|7.01|8|8|4|0.0219146482122261|0.00808535178777393|0.421052631578947|0
935|6|1246|80.08|8|6|2|0.00240770465489567|0.0642696629213483|2.6666666666666696|0
1263|6|1315|98.59|3|7|3|0.00228136882129278|0.0749733840304183|1.0|0
774|5|43|7.78|0|6|5|0.627906976744186|0.18093023255814|0.0|0
1855|3|1636|8.6|6|3|1|0.007334963325183371|0.00525672371638142|0.5|0
1191|1|970|6.14|3|3|1|0.0103092783505155|0.0063298969072165|0.3|0
487|4|399|68.52|1|9|4|0.0300751879699248|0.17172932330827098|0.0833333333333333|0
197|1|310|65.47|5|5|2|0.0516129032258065|0.21119354838709697|0.3125|0
521|1|1348|78.76|1|0|0|0.0140949554896142|0.0584272997032641|0.0526315789473684|0
1449|4|1692|92.05|8|9|3|0.0130023640661939|0.054403073286052005|0.36363636363636404|0
1029|1|551|81.87|2|0|2|0.0054446460980036296|0.148584392014519|0.666666666666667|0
1570|2|1425|72.87|4|2|1|0.0168421052631579|0.0511368421052632|0.166666666666667|0
920|6|911|82.58|4|9|5|0.0142700329308452|0.0906476399560922|0.307692307692308|0
1335|4|1342|0.74|8|1|5|0.0134128166915052|0.000551415797317437|0.444444444444444|0
371|3|1690|3.59|3|9|3|0.0136094674556213|0.0021242603550295897|0.130434782608696|0
787|1|13|10.24|4|8|3|0.538461538461538|0.787692307692308|0.5714285714285711|0
568|3|111|99.53|8|10|3|0.0810810810810811|0.8966666666666671|0.8888888888888891|0
826|1|221|4.9|10|6|4|0.085972850678733|0.0221719457013575|0.526315789473684|0
608|1|1812|36.14|10|1|2|0.0044150110375275895|0.0199448123620309|1.25|0
699|1|1129|87.01|7|2|3|0.00620017714791851|0.0770682019486271|1.0|0
1459|4|391|74.52|3|1|1|0.0639386189258312|0.190588235294118|0.12|0
1589|3|1694|99.15|4|2|1|0.0035419126328217203|0.058530106257379005|0.666666666666667|0
1518|1|1578|94.43|3|6|3|0.00190114068441065|0.0598415716096325|1.0|0
1239|6|775|38.3|2|3|2|0.00258064516129032|0.0494193548387097|1.0|0
429|5|1149|36.63|7|0|4|0.0191470844212359|0.0318798955613577|0.31818181818181795|0
851|5|400|62.54|2|9|1|0.0625|0.15635|0.08|0
941|3|1784|8.08|11|6|0|0.0162556053811659|0.00452914798206278|0.37931034482758597|0
880|5|1044|56.8|1|8|2|0.00862068965517241|0.0544061302681992|0.111111111111111|0
1764|2|28|54.84|7|3|1|1.0|1.9585714285714297|0.25|0
1538|6|1593|59.82|5|6|2|0.0112994350282486|0.0375517890772128|0.277777777777778|0
1197|5|171|50.12|4|3|0|0.0818713450292398|0.29309941520467797|0.28571428571428603|0
254|5|247|41.18|5|8|5|0.0809716599190283|0.166720647773279|0.25|0
1136|5|1477|84.26|9|1|2|0.00609343263371699|0.0570480704129993|1.0|0
674|1|994|81.79|9|4|0|0.0160965794768612|0.0822837022132797|0.5625|0
839|4|1156|80.22|6|4|0|0.023356401384082997|0.0693944636678201|0.222222222222222|0
435|1|1075|3.22|5|1|3|0.0018604651162790699|0.0029953488372093|2.5|0
983|1|164|51.79|4|9|5|0.0426829268292683|0.315792682926829|0.5714285714285711|0
545|3|1427|17.54|5|8|4|0.0189208128941836|0.012291520672740001|0.185185185185185|0
83|3|550|84.57|6|0|3|0.04|0.153763636363636|0.272727272727273|0
907|3|329|42.32|7|6|5|0.08814589665653501|0.128632218844985|0.24137931034482799|0
158|5|756|8.12|1|1|1|0.0013227513227513199|0.0107407407407407|1.0|0
1491|1|1676|39.23|8|10|1|0.00477326968973747|0.0234069212410501|1.0|0
373|4|581|92.87|5|9|2|0.00516351118760757|0.159845094664372|1.6666666666666698|0
1784|5|589|25.03|2|7|5|0.0186757215619694|0.0424957555178268|0.18181818181818202|0
1006|5|1336|46.72|2|2|2|0.00973053892215569|0.0349700598802395|0.153846153846154|0
667|4|451|67.08|8|10|5|0.0133037694013304|0.14873614190687398|1.33333333333333|0
1444|5|1495|39.16|11|2|0|0.00133779264214047|0.0261939799331104|5.5|0
301|1|1225|96.92|9|7|5|0.0244897959183673|0.0791183673469388|0.3|1
1791|6|1019|35.72|8|8|5|0.00883218842001963|0.035053974484789|0.8888888888888891|0
55|1|768|7.24|4|10|3|0.0143229166666667|0.009427083333333329|0.36363636363636404|0
1236|6|1055|74.87|10|3|0|0.0180094786729858|0.0709668246445498|0.526315789473684|0
1256|5|231|91.23|10|2|2|0.0822510822510823|0.39493506493506497|0.526315789473684|0
1535|4|1630|33.48|0|7|4|0.0049079754601227|0.0205398773006135|0.0|0
1287|6|156|95.6|8|3|0|0.115384615384615|0.612820512820513|0.444444444444444|0
582|1|884|3.61|8|0|5|0.0192307692307692|0.00408371040723982|0.47058823529411803|0
1703|3|933|30.73|1|9|5|0.00857449088960343|0.0329367631296892|0.125|0
1260|6|369|66.24|11|8|3|0.046070460704607005|0.17951219512195102|0.647058823529412|0
366|3|270|85.17|11|1|0|0.0333333333333333|0.31544444444444397|1.22222222222222|0
1805|2|1027|39.9|0|4|2|0.0116845180136319|0.0388510223953262|0.0|0
1058|2|755|7.48|4|10|5|0.0132450331125828|0.00990728476821192|0.4|0
970|2|279|1.9|1|4|5|0.043010752688172005|0.00681003584229391|0.0833333333333333|0
1267|5|1193|43.56|3|2|3|0.0142497904442582|0.0365129924559933|0.17647058823529396|0
966|1|1414|59.27|6|5|4|0.0127298444130127|0.0419165487977369|0.33333333333333304|0
1281|6|1269|81.52|3|8|4|0.0118203309692671|0.0642395587076438|0.2|0
325|4|46|40.98|9|9|2|0.652173913043478|0.8908695652173909|0.3|0
525|4|1284|22.83|1|3|4|0.0233644859813084|0.0177803738317757|0.0333333333333333|0
800|5|671|22.55|0|7|1|0.0327868852459016|0.0336065573770492|0.0|0
1004|4|1787|35.51|2|6|5|0.00335758254057079|0.0198712926692781|0.33333333333333304|0
1503|3|422|12.28|9|3|5|0.0118483412322275|0.0290995260663507|1.8|0
44|2|401|80.86|0|1|0|0.0199501246882793|0.201645885286783|0.0|0
1291|4|1148|88.89|11|2|0|0.00871080139372822|0.0774303135888502|1.1|0
243|5|1469|91.79|1|8|3|0.0142954390742001|0.0624846834581348|0.0476190476190476|0
1244|1|1286|35.54|5|6|2|0.00388802488335925|0.0276360808709176|1.0|0
701|2|119|57.6|7|1|5|0.0672268907563025|0.48403361344537804|0.875|0
108|4|113|23.38|11|10|0|0.15929203539823|0.20690265486725698|0.6111111111111109|0
446|1|1434|8.6|10|9|2|0.0153417015341702|0.00599721059972106|0.45454545454545503|1
152|2|530|37.36|1|3|3|0.0490566037735849|0.0704905660377358|0.0384615384615385|0
1536|5|507|60.93|7|4|4|0.0532544378698225|0.12017751479289901|0.25925925925925897|0
684|6|1283|89.36|7|2|0|0.0233826968043648|0.0696492595479345|0.23333333333333303|0
1621|1|1264|42.18|0|6|4|0.0142405063291139|0.033370253164557|0.0|0
1877|2|685|62.68|1|6|2|0.035036496350364994|0.0915036496350365|0.0416666666666667|0
106|3|1636|70.4|8|9|4|0.00916870415647922|0.0430317848410758|0.5333333333333329|0
1787|2|826|34.47|1|1|2|0.0024213075060532697|0.0417312348668281|0.5|0
1326|4|810|80.02|4|5|4|0.0308641975308642|0.0987901234567901|0.16|0
118|5|356|68.03|5|3|5|0.0196629213483146|0.191095505617978|0.7142857142857142|0
1125|3|1239|47.75|9|1|4|0.0048426150121065395|0.0385391444713479|1.5|0
1442|5|1481|60.4|9|5|2|0.000675219446320054|0.0407832545577313|9.0|0
346|3|136|42.61|6|0|4|0.161764705882353|0.31330882352941203|0.272727272727273|0
93|6|1245|22.06|4|7|4|0.00803212851405622|0.017718875502008|0.4|0
1514|4|192|64.91|7|6|5|0.046875|0.338072916666667|0.7777777777777779|0
52|1|608|85.05|3|5|2|0.0131578947368421|0.13988486842105302|0.375|0
613|5|1610|93.67|4|6|2|0.0031055900621118|0.0581801242236025|0.8|0
1229|6|1411|55.87|2|5|4|0.0205527994330262|0.0395960311835578|0.0689655172413793|0
1633|2|1023|73.78|2|3|4|0.00293255131964809|0.0721212121212121|0.666666666666667|0
333|2|1108|77.25|10|10|0|0.0207581227436823|0.0697202166064982|0.43478260869565205|0
1588|1|1103|90.95|3|5|1|0.0235720761559383|0.0824569356300997|0.115384615384615|1
320|4|1516|73.82|2|2|3|0.0019788918205804803|0.0486939313984169|0.666666666666667|0
929|2|1510|83.44|1|2|2|0.00132450331125828|0.0552582781456954|0.5|0
1760|2|160|92.21|6|0|4|0.08125|0.5763125|0.46153846153846206|0
148|1|299|42.06|9|8|3|0.0301003344481605|0.14066889632107002|1.0|0
1585|1|1486|36.36|9|4|4|0.0060565275908479104|0.0244683714670256|1.0|0
1183|1|1321|13.94|6|1|4|0.0211960635881908|0.010552611657834998|0.214285714285714|1
1128|5|992|84.02|7|4|1|0.0141129032258065|0.0846975806451613|0.5|0
717|5|269|35.05|3|4|5|0.0706319702602231|0.13029739776951701|0.157894736842105|0
1502|4|1034|4.92|11|6|4|0.023210831721470003|0.00475822050290135|0.4583333333333329|0
1074|3|174|56.09|3|7|3|0.11494252873563199|0.32235632183908003|0.15|0
546|4|514|53.76|6|1|0|0.0408560311284047|0.10459143968871601|0.28571428571428603|0
976|5|898|96.88|11|7|1|0.0111358574610245|0.10788418708240499|1.1|0
1680|5|599|24.54|2|6|2|0.0250417362270451|0.0409682804674457|0.133333333333333|0
220|6|1434|17.25|0|8|0|0.0160390516039052|0.0120292887029289|0.0|0
188|6|671|0.7|4|5|3|0.029806259314456|0.00104321907600596|0.2|0
1534|6|258|7.85|3|0|1|0.0077519379844961205|0.0304263565891473|1.5|0
1405|1|1735|7.58|10|3|4|0.00979827089337176|0.00436887608069164|0.588235294117647|0
1463|1|1749|71.1|1|2|1|0.00686106346483705|0.0406518010291595|0.0833333333333333|0
1249|3|944|87.48|3|4|4|0.0127118644067797|0.0926694915254237|0.25|0
160|5|1262|81.87|4|1|0|0.0206022187004754|0.0648732171156894|0.153846153846154|0
1599|2|734|8.12|4|0|0|0.0408719346049046|0.0110626702997275|0.133333333333333|0
1147|1|827|83.7|5|10|4|0.0108827085852479|0.10120918984280498|0.555555555555556|0
1823|4|1178|74.02|11|6|3|0.0135823429541596|0.0628353140916808|0.6875|0
1325|4|800|94.66|7|10|1|0.01375|0.118325|0.6363636363636359|0
335|2|1478|75.28|2|3|1|0.013531799729363997|0.0509336941813261|0.1|0
953|1|1612|31.34|2|4|3|0.0086848635235732|0.0194416873449132|0.14285714285714302|0
425|5|1524|32.56|0|1|2|0.0177165354330709|0.0213648293963255|0.0|0
1060|3|133|58.74|3|6|4|0.0977443609022556|0.44165413533834597|0.23076923076923103|0
1789|1|1681|60.33|10|0|0|0.0136823319452707|0.0358893515764426|0.43478260869565205|1
1387|2|1829|40.38|4|8|1|0.0038272279934390397|0.0220776380535812|0.5714285714285711|0
239|5|635|52.23|9|0|5|0.0456692913385827|0.082251968503937|0.31034482758620696|0
1062|1|768|4.39|2|7|1|0.0390625|0.00571614583333333|0.0666666666666667|1
59|1|107|39.55|1|6|4|0.25233644859813104|0.369626168224299|0.037037037037037|0
23|2|125|25.5|5|6|2|0.192|0.204|0.208333333333333|0
1737|1|679|90.5|7|4|5|0.0265095729013255|0.13328424153166402|0.38888888888888895|0
863|2|858|78.36|3|3|1|0.0174825174825175|0.0913286713286713|0.2|0
727|3|1731|76.79|3|2|3|0.0103986135181976|0.0443616406701329|0.166666666666667|0
572|6|389|75.87|9|2|1|0.012853470437018|0.195038560411311|1.8|0
1092|5|859|62.57|2|8|1|0.00931315483119907|0.0728405122235157|0.25|0
1803|1|338|36.45|10|10|5|0.0710059171597633|0.10784023668639099|0.4166666666666671|1
829|2|109|29.42|2|3|1|0.23853211009174302|0.26990825688073394|0.0769230769230769|0
1830|6|1701|8.09|9|8|4|0.0141093474426808|0.00475602586713698|0.375|0
1150|2|1673|49.83|7|2|0|0.0101613867304244|0.0297848176927675|0.411764705882353|0
1836|3|1736|4.66|0|8|5|0.00172811059907834|0.00268433179723502|0.0|0
311|6|318|39.67|6|9|5|0.0283018867924528|0.12474842767295599|0.666666666666667|0
280|2|124|8.18|2|0|2|0.120967741935484|0.0659677419354839|0.133333333333333|0
1143|5|55|19.74|3|3|0|0.10909090909090899|0.358909090909091|0.5|0
1720|6|1450|61.94|3|7|2|0.016551724137931004|0.0427172413793104|0.125|0
1795|3|1451|11.9|9|1|4|0.00895933838731909|0.00820124052377671|0.6923076923076921|0
1243|1|966|47.98|10|4|1|0.0082815734989648|0.0496687370600414|1.25|0
805|5|194|99.76|10|7|5|0.0824742268041237|0.514226804123711|0.625|0
97|2|1305|87.65|7|8|4|0.021455938697318003|0.0671647509578544|0.25|1
1122|6|1348|46.94|0|2|1|0.0170623145400593|0.0348219584569733|0.0|0
215|1|909|64.11|8|0|3|0.0055005500550055|0.0705280528052805|1.6|0
871|5|617|35.46|8|4|5|0.00648298217179903|0.0574716369529984|2.0|0
1157|3|1569|74.73|9|2|2|0.0140216698534098|0.0476290630975143|0.409090909090909|0
1573|5|1153|33.14|10|0|3|0.026019080659150002|0.0287424111014744|0.33333333333333304|0
1542|3|1137|60.94|6|7|0|0.0149516270888303|0.0535971855760774|0.3529411764705879|0
406|3|684|86.69|5|1|0|0.0219298245614035|0.12673976608187099|0.33333333333333304|0
771|1|274|37.48|9|3|2|0.0802919708029197|0.136788321167883|0.409090909090909|0
1361|4|949|13.41|5|3|3|0.0221285563751317|0.0141306638566913|0.23809523809523803|0
1227|1|400|48.95|11|9|1|0.0225|0.122375|1.22222222222222|0
1726|1|1538|60.68|8|6|5|0.0123537061118336|0.0394538361508453|0.421052631578947|1
403|3|36|32.45|1|4|2|0.111111111111111|0.9013888888888891|0.25|0
556|6|931|16.24|5|5|4|0.0247046186895811|0.0174436090225564|0.21739130434782603|0
1015|2|674|99.3|8|7|3|0.00890207715133531|0.14732937685459901|1.33333333333333|0
443|1|22|5.67|11|10|3|0.954545454545455|0.25772727272727297|0.523809523809524|0
1213|6|1803|86.5|0|7|5|0.0055463117027176895|0.047975596228508|0.0|0
682|2|1294|89.66|8|3|3|0.0170015455950541|0.0692890262751159|0.36363636363636404|0
1521|6|219|94.15|9|0|1|0.118721461187215|0.42990867579908704|0.34615384615384603|0
121|2|509|85.16|1|5|3|0.031434184675834996|0.16730844793713198|0.0625|0
921|3|1174|36.22|9|1|4|0.00851788756388416|0.0308517887563884|0.9|0
687|2|95|79.98|2|0|4|0.23157894736842102|0.8418947368421049|0.0909090909090909|0
1304|2|820|79.73|7|4|1|0.0280487804878049|0.0972317073170732|0.304347826086957|0
1181|6|649|43.34|9|3|3|0.0138674884437596|0.0667796610169492|1.0|0
1438|4|1711|38.35|2|3|5|0.0175336060783168|0.0224137931034483|0.0666666666666667|0
1876|4|316|41.83|5|8|1|0.0949367088607595|0.132373417721519|0.166666666666667|0
1775|2|1493|12.28|11|7|2|0.00736771600803751|0.00822505023442733|1.0|0
1182|2|57|21.62|2|4|5|0.0175438596491228|0.37929824561403497|2.0|0
757|1|239|72.65|9|1|0|0.0251046025104603|0.30397489539749|1.5|0
1797|6|865|31.84|10|7|3|0.0173410404624277|0.0368092485549133|0.666666666666667|0
56|1|1474|60.64|9|0|5|0.0128900949796472|0.0411397557666214|0.47368421052631604|0
1080|5|1499|54.9|10|2|0|0.00333555703802535|0.0366244162775183|2.0|0
122|4|580|89.67|3|7|1|0.0293103448275862|0.154603448275862|0.17647058823529396|0
1077|6|1482|81.55|3|3|4|0.0134952766531714|0.0550269905533063|0.15|0
1409|4|1692|61.1|6|5|4|0.0112293144208038|0.0361111111111111|0.315789473684211|0
514|5|110|19.72|1|7|4|0.11818181818181801|0.179272727272727|0.0769230769230769|0
50|4|617|90.73|0|0|5|0.00162074554294976|0.14705024311183099|0.0|0
803|1|825|42.09|6|5|5|0.0327272727272727|0.0510181818181818|0.222222222222222|1
1425|2|209|82.32|8|10|4|0.07655502392344501|0.393875598086124|0.5|0
84|2|109|24.32|10|0|5|0.100917431192661|0.22311926605504603|0.9090909090909091|0
1674|5|282|98.15|1|6|3|0.099290780141844|0.34804964539007105|0.0357142857142857|0
438|5|87|63.45|2|7|3|0.149425287356322|0.7293103448275859|0.153846153846154|0
14|6|1659|52.53|2|1|4|0.0126582278481013|0.0316636528028933|0.0952380952380952|0
559|6|226|56.79|2|10|2|0.0619469026548673|0.251283185840708|0.14285714285714302|0
739|3|1584|34.22|8|6|0|0.0132575757575758|0.0216035353535354|0.38095238095238104|0
6|3|294|55.63|2|7|1|0.0374149659863946|0.18921768707482997|0.18181818181818202|0
1330|1|1509|77.05|9|5|0|0.00596421471172962|0.0510603048376408|1.0|0
665|3|1501|42.54|10|7|3|0.00599600266489007|0.0283411059293804|1.11111111111111|0
550|1|135|63.18|7|6|4|0.0222222222222222|0.46799999999999997|2.3333333333333304|0
780|4|1799|60.27|8|8|1|0.00333518621456365|0.0335019455252918|1.33333333333333|0
398|2|163|3.81|5|0|3|0.10429447852760698|0.0233742331288344|0.294117647058824|0
1108|5|1590|45.56|11|1|2|0.00125786163522013|0.0286540880503145|5.5|0
265|1|856|15.25|0|3|5|0.0011682242990654198|0.0178154205607477|0.0|0
149|2|1755|8.32|2|0|4|0.00512820512820513|0.00474074074074074|0.222222222222222|0
30|6|314|48.54|6|1|1|0.0764331210191083|0.154585987261147|0.25|0
1768|2|1560|33.53|3|1|4|0.00128205128205128|0.0214935897435897|1.5|0
1242|1|474|65.46|3|10|5|0.0464135021097046|0.138101265822785|0.136363636363636|0
1648|3|527|80.08|11|5|5|0.0303605313092979|0.15195445920303602|0.6875|0
414|2|1103|86.78|5|6|0|0.0253853127833182|0.0786763372620127|0.178571428571429|0
758|4|1027|10.3|6|1|3|0.0262901655306719|0.0100292112950341|0.222222222222222|0
1712|2|456|88.51|10|6|0|0.00219298245614035|0.194100877192982|10.0|0
1137|1|839|41.75|10|2|2|0.034564958283670996|0.049761620977354|0.34482758620689696|1
469|4|1793|26.52|3|8|4|0.00780814277746793|0.0147908533184607|0.214285714285714|0
1460|2|1714|83.56|11|2|5|0.0163360560093349|0.0487514585764294|0.3928571428571429|1
1837|1|756|15.41|10|4|2|0.0158730158730159|0.0203835978835979|0.833333333333333|0
1519|1|722|55.25|1|4|2|0.03601108033241|0.0765235457063712|0.0384615384615385|0
78|4|1279|89.11|0|0|3|0.0109460516028147|0.0696716184519156|0.0|0
1635|3|1422|6.21|8|7|3|0.00140646976090014|0.0043670886075949395|4.0|0
113|3|1171|90.98|8|1|0|0.013663535439795|0.0776942783945346|0.5|0
1|3|108|27.36|5|2|4|0.12962962962963|0.253333333333333|0.3571428571428571|0
799|5|1812|40.83|8|1|5|0.0022075055187638|0.0225331125827815|2.0|0
1363|2|1789|43.78|0|6|1|0.00670765790944662|0.0244717719396311|0.0|0
1337|3|56|40.87|2|1|4|0.0892857142857143|0.7298214285714291|0.4|0
1403|4|884|89.72|4|8|3|0.0147058823529412|0.101493212669683|0.307692307692308|0
462|6|73|31.2|6|3|5|0.410958904109589|0.42739726027397296|0.2|0
1687|2|1793|2.33|10|5|1|0.011154489682096999|0.0012994980479643099|0.5|0
1656|4|919|58.56|7|4|0|0.0130576713819369|0.06372143634385201|0.583333333333333|0
595|6|1789|15.16|3|10|4|0.009502515371716041|0.00847400782560089|0.17647058823529396|0
587|3|574|92.73|8|0|3|0.0226480836236934|0.161550522648084|0.615384615384615|0
742|5|1567|89.94|9|6|5|0.01914486279515|0.0573962986598596|0.3|0
126|1|485|17.63|10|3|5|0.0515463917525773|0.0363505154639175|0.4|1
1758|1|511|60.59|3|3|2|0.050880626223092|0.118571428571429|0.115384615384615|0
1638|2|410|62.06|9|4|5|0.024390243902439|0.151365853658537|0.9|0
1591|6|725|66.37|2|4|4|0.00551724137931034|0.0915448275862069|0.5|0
1634|4|1826|79.52|9|8|2|0.0109529025191676|0.0435487404162103|0.45|0
593|2|295|92.67|7|1|2|0.0745762711864407|0.314135593220339|0.31818181818181795|0
855|3|566|40.21|8|0|5|0.0265017667844523|0.0710424028268551|0.5333333333333329|0
740|4|877|69.95|2|7|1|0.0022805017103762803|0.0797605473204105|1.0|0
1785|1|1262|65.81|9|3|5|0.0110935023771791|0.0521473851030111|0.6428571428571429|0
1198|2|1743|99.28|11|9|3|0.014916810097533002|0.0569592656339644|0.42307692307692296|1
724|1|383|66.13|1|1|0|0.0522193211488251|0.17266318537859|0.05|0
385|6|1387|44.83|5|9|1|0.0108147080028839|0.0323215573179524|0.33333333333333304|0
1733|2|922|26.5|9|10|2|0.0032537960954446897|0.0287418655097614|3.0|0
676|2|1476|97.73|9|0|1|0.0101626016260163|0.0662127371273713|0.6|0
1011|2|1389|61.28|2|6|2|0.0143988480921526|0.0441180705543557|0.1|0
552|6|990|56.52|2|3|4|0.0161616161616162|0.0570909090909091|0.125|0
633|1|81|6.18|2|4|5|0.23456790123456797|0.0762962962962963|0.10526315789473699|0
1450|3|837|77.96|5|5|5|0.026284348864994|0.09314217443249699|0.22727272727272702|0
352|3|1639|45.02|9|4|5|0.00854179377669311|0.0274679682733374|0.6428571428571429|0
306|6|715|14.0|11|6|0|0.013986013986014|0.0195804195804196|1.1|0
110|4|477|1.36|10|1|1|0.0440251572327044|0.0028511530398322897|0.47619047619047605|0
973|5|132|42.07|1|5|5|0.15151515151515196|0.318712121212121|0.05|0
1043|5|767|58.42|11|9|5|0.0352020860495437|0.0761668839634941|0.407407407407407|0
852|3|1724|39.12|2|1|1|0.00290023201856148|0.0226914153132251|0.4|0
1205|3|1358|80.39|6|1|3|0.005154639175257729|0.0591973490427099|0.857142857142857|0
1342|2|335|24.87|2|2|2|0.017910447761194|0.0742388059701493|0.33333333333333304|0
1461|2|1203|48.35|3|1|1|0.0199501246882793|0.0401911886949293|0.125|0
270|1|1666|25.6|5|5|3|0.00600240096038415|0.0153661464585834|0.5|0
427|3|851|15.46|1|2|0|0.0188014101057579|0.0181668625146886|0.0625|0
1641|6|1060|99.75|8|2|1|0.0141509433962264|0.0941037735849057|0.5333333333333329|0
1045|6|1331|23.66|2|4|3|0.0067618332081142|0.0177761081893313|0.222222222222222|0
1846|4|44|66.72|10|4|5|0.0909090909090909|1.51636363636364|2.5|0
156|1|1035|61.75|8|0|0|0.00289855072463768|0.0596618357487923|2.6666666666666696|0
216|1|704|23.16|2|8|3|0.0426136363636364|0.0328977272727273|0.0666666666666667|1
211|4|1718|43.52|3|6|0|0.0116414435389988|0.0253317811408615|0.15|0
654|5|50|53.55|3|8|5|0.08|1.071|0.75|0
1365|5|96|86.04|3|8|3|0.15625|0.89625|0.2|0
1462|3|1574|45.79|6|6|5|0.0177890724269377|0.0290914866581957|0.214285714285714|0
591|3|169|0.16|9|1|3|0.13017751479289902|0.0009467455621301779|0.409090909090909|0
1595|4|1095|15.8|11|4|0|0.0219178082191781|0.0144292237442922|0.4583333333333329|0
1532|5|753|46.95|2|8|3|0.0013280212483399699|0.0623505976095618|2.0|0
447|1|1486|57.13|4|1|1|0.0154777927321669|0.0384454912516824|0.17391304347826098|0
685|4|976|15.59|6|9|0|0.0297131147540984|0.0159733606557377|0.206896551724138|0
303|3|1051|26.24|11|1|3|0.0247383444338725|0.0249666983824929|0.42307692307692296|0
101|4|597|45.98|0|4|4|0.0284757118927973|0.0770184254606365|0.0|0
1274|5|287|40.34|1|8|0|0.0836236933797909|0.140557491289199|0.0416666666666667|0
1750|2|987|26.32|6|5|0|0.0263424518743668|0.0266666666666667|0.23076923076923103|0
94|2|952|0.58|8|5|0|0.0168067226890756|0.000609243697478992|0.5|0
659|2|1397|69.02|7|4|4|0.007158196134574091|0.0494058697208303|0.7|0
646|5|970|14.69|3|1|4|0.0288659793814433|0.0151443298969072|0.107142857142857|0
1801|3|956|2.36|0|6|5|0.009414225941422591|0.00246861924686192|0.0|0
441|1|1403|59.68|4|1|1|0.0135424091233072|0.0425374198146828|0.21052631578947398|0
1245|4|791|78.7|1|6|3|0.0303413400758533|0.0994943109987358|0.0416666666666667|0
419|4|455|89.1|7|0|3|0.008791208791208791|0.19582417582417602|1.75|0
1822|2|1689|13.7|8|1|1|0.0177619893428064|0.00811130846654825|0.266666666666667|1
849|2|9|40.13|7|2|0|1.0|4.45888888888889|0.7777777777777779|0
1676|1|1265|14.8|5|4|2|0.0063241106719367605|0.011699604743083|0.625|0
846|5|999|53.77|2|8|1|0.021021021021021|0.0538238238238238|0.0952380952380952|0
1743|6|583|71.9|9|8|0|0.0480274442538593|0.123327615780446|0.32142857142857106|0
1374|2|187|74.73|0|5|3|0.0160427807486631|0.399625668449198|0.0|0
980|4|679|79.95|9|4|0|0.0191458026509573|0.11774668630338699|0.6923076923076921|0
235|4|216|77.45|3|6|3|0.0833333333333333|0.358564814814815|0.166666666666667|0
175|5|1145|85.1|2|9|0|0.0183406113537118|0.0743231441048035|0.0952380952380952|0
80|3|1642|6.25|7|8|2|0.0048721071863581|0.0038063337393422704|0.875|0
1578|3|1175|72.12|11|6|4|0.0161702127659574|0.0613787234042553|0.578947368421053|0
1794|1|498|61.62|2|0|2|0.0381526104417671|0.123734939759036|0.10526315789473699|0
42|4|1012|59.9|2|3|2|0.0148221343873518|0.0591897233201581|0.133333333333333|0
1653|5|1273|19.48|1|2|3|0.0196386488609584|0.0153024351924588|0.04|0
185|4|1437|92.55|11|6|5|0.0146137787056367|0.0644050104384134|0.523809523809524|0
200|5|1559|61.66|7|5|2|0.0038486209108402796|0.0395509942270686|1.16666666666667|0
861|3|360|36.84|9|3|4|0.0277777777777778|0.102333333333333|0.9|0
417|6|1239|94.94|2|0|5|0.0104923325262308|0.0766263115415658|0.153846153846154|0
1592|6|1575|55.42|11|8|3|0.0025396825396825397|0.0351873015873016|2.75|0
912|1|1717|26.33|2|4|4|0.0046592894583576|0.0153348864298195|0.25|0
601|2|1230|95.63|5|7|3|0.0016260162601626|0.0777479674796748|2.5|0
658|3|1656|26.2|5|7|3|0.000603864734299517|0.0158212560386473|5.0|0
967|2|224|67.69|0|9|5|0.11607142857142899|0.3021875|0.0|0
889|2|443|83.91|0|10|0|0.0383747178329571|0.18941309255079|0.0|0
473|5|1684|35.59|2|3|4|0.0142517814726841|0.0211342042755344|0.0833333333333333|0
1165|1|551|78.39|7|1|3|0.0254083484573503|0.14226860254083498|0.5|0
198|4|1320|77.93|4|6|1|0.0174242424242424|0.0590378787878788|0.17391304347826098|0
82|3|44|78.64|1|10|1|0.0909090909090909|1.7872727272727298|0.25|0
448|5|336|72.56|2|5|2|0.056547619047619|0.215952380952381|0.10526315789473699|0
1282|2|1134|26.29|5|6|5|0.0246913580246914|0.0231834215167548|0.178571428571429|0
1866|6|660|90.53|10|1|1|0.00303030303030303|0.137166666666667|5.0|0
1531|4|322|83.14|9|8|2|0.0527950310559006|0.258198757763975|0.529411764705882|0
1023|2|553|39.31|1|10|4|0.0307414104882459|0.0710849909584087|0.0588235294117647|0
1246|3|62|63.44|1|7|3|0.0483870967741935|1.02322580645161|0.33333333333333304|0
1466|2|1641|51.34|10|6|2|0.0152346130408288|0.031285801340646|0.4|1
784|6|163|57.22|0|0|5|0.0674846625766871|0.351042944785276|0.0|0
1646|6|1704|94.06|6|6|2|0.00469483568075117|0.0551995305164319|0.75|0
1596|1|1211|0.8|10|4|0|0.0181668042939719|0.0006606110652353429|0.45454545454545503|1
663|2|931|68.85|1|9|0|0.0268528464017186|0.073952738990333|0.04|0
594|4|876|53.17|1|8|5|0.0148401826484018|0.0606963470319635|0.0769230769230769|0
1371|1|1476|64.39|9|8|4|0.0121951219512195|0.0436246612466125|0.5|1
1081|4|1375|67.81|11|7|3|0.00727272727272727|0.0493163636363636|1.1|0
1064|3|467|41.03|4|10|2|0.0256959314775161|0.0878586723768737|0.33333333333333304|0
655|3|1203|31.51|9|1|4|0.0149625935162095|0.02619285120532|0.5|0
1030|3|1223|81.14|5|5|4|0.000817661488143908|0.0663450531479967|5.0|0
1090|6|1612|3.34|8|6|5|0.010545905707196|0.00207196029776675|0.47058823529411803|0
1093|2|1671|91.2|1|5|3|0.00837821663674446|0.0545780969479354|0.0714285714285714|0
1170|4|641|59.07|2|4|5|0.0280811232449298|0.0921528861154446|0.111111111111111|0
383|1|153|39.39|4|3|4|0.0849673202614379|0.25745098039215697|0.307692307692308|0
237|2|1660|13.69|1|3|2|0.0126506024096386|0.00824698795180723|0.0476190476190476|0
759|2|73|74.37|4|7|3|0.31506849315068497|1.01876712328767|0.17391304347826098|0
994|5|992|8.43|10|0|0|0.0151209677419355|0.008497983870967741|0.666666666666667|0
1154|5|4|53.65|11|5|4|1.5|13.4125|1.8333333333333302|0
534|6|1223|16.79|1|4|3|0.000817661488143908|0.0137285363859362|1.0|0
192|2|249|77.28|9|3|4|0.0441767068273092|0.31036144578313296|0.818181818181818|0
1669|4|1365|37.49|5|3|4|0.00293040293040293|0.0274652014652015|1.25|0
1360|6|1626|34.49|7|8|1|0.0153751537515375|0.0212115621156212|0.28|0
988|3|1364|23.4|6|10|1|0.005865102639296189|0.0171554252199414|0.75|0
772|1|1077|50.2|3|3|1|0.0278551532033426|0.046610956360260004|0.1|1
365|3|1754|93.43|4|6|5|0.00798175598631699|0.053266818700114|0.28571428571428603|0
1745|3|1308|90.3|2|7|1|0.00840978593272171|0.0690366972477064|0.18181818181818202|0
1238|2|546|56.21|8|4|5|0.0183150183150183|0.102948717948718|0.8|0
767|5|1276|92.71|3|2|5|0.0007836990595611281|0.0726567398119122|3.0|0
1702|4|823|90.65|1|5|3|0.00607533414337789|0.11014580801944099|0.2|0
395|3|1236|80.09|3|9|3|0.0105177993527508|0.0647977346278317|0.23076923076923103|0
1611|2|1598|14.79|10|10|5|0.0018773466833541899|0.00925531914893617|3.3333333333333304|0
267|2|196|39.11|8|8|4|0.11224489795918402|0.19954081632653103|0.36363636363636404|0
274|6|285|76.75|11|7|3|0.0491228070175439|0.26929824561403504|0.7857142857142858|0
548|1|1434|74.97|3|5|1|0.0181311018131102|0.0522803347280335|0.115384615384615|1
606|6|1235|10.5|4|3|1|0.0202429149797571|0.008502024291497979|0.16|0
408|2|1433|64.76|4|9|1|0.0139567341242149|0.045191905094208|0.2|0
92|2|1515|7.69|11|4|1|0.0138613861386139|0.00507590759075908|0.523809523809524|0
1156|6|128|63.32|5|4|4|0.2265625|0.4946875|0.172413793103448|0
1192|5|905|78.06|1|1|0|0.0110497237569061|0.0862541436464088|0.1|0
744|1|453|64.19|10|1|5|0.0132450331125828|0.141699779249448|1.6666666666666698|0
933|1|486|46.5|4|1|3|0.037037037037037|0.095679012345679|0.222222222222222|0
923|4|545|71.55|10|3|5|0.0532110091743119|0.131284403669725|0.34482758620689696|0
1434|1|1798|77.97|4|6|4|0.0100111234705228|0.0433648498331479|0.222222222222222|0
1428|5|434|6.34|2|6|2|0.0230414746543779|0.0146082949308756|0.2|0
981|6|1316|14.22|5|10|3|0.0159574468085106|0.0108054711246201|0.23809523809523803|0
1826|5|1455|90.53|10|1|4|0.0199312714776632|0.0622199312714777|0.34482758620689696|0
488|3|1705|71.83|0|6|2|0.0023460410557184803|0.0421290322580645|0.0|0
706|4|517|39.77|7|5|1|0.0367504835589942|0.0769245647969052|0.368421052631579|0
1705|1|1315|89.78|5|3|1|0.00228136882129278|0.0682737642585551|1.6666666666666698|0
203|3|460|50.97|9|9|4|0.00434782608695652|0.11080434782608699|4.5|0
536|5|441|86.58|1|2|3|0.0249433106575964|0.19632653061224498|0.0909090909090909|0
1107|3|1263|52.29|1|7|1|0.0150435471100554|0.0414014251781473|0.0526315789473684|0
813|4|739|49.75|1|8|1|0.03382949932341|0.0673207036535859|0.04|0
1781|2|941|90.78|9|2|3|0.0159404888416578|0.0964718384697131|0.6|0
468|3|1082|91.51|11|6|0|0.0036968576709796703|0.0845748613678373|2.75|0
618|5|1629|58.91|3|2|5|0.0104358502148557|0.0361632903621854|0.17647058823529396|0
1166|3|1708|97.51|8|5|0|0.015807962529273998|0.0570901639344262|0.296296296296296|0
1323|4|1412|36.76|9|6|0|0.0028328611898017|0.0260339943342776|2.25|0
1383|2|176|36.53|5|3|2|0.0625|0.20755681818181798|0.45454545454545503|0
218|3|13|25.19|10|5|1|1.46153846153846|1.9376923076923098|0.526315789473684|0
260|2|268|98.18|7|0|4|0.0932835820895522|0.36634328358209|0.28|0
1007|6|1034|11.99|5|4|5|0.0222437137330754|0.0115957446808511|0.21739130434782603|0
450|6|689|51.27|1|10|0|0.0275761973875181|0.0744121915820029|0.0526315789473684|0
1527|6|320|26.99|0|4|5|0.053125|0.08434375|0.0|0
1819|3|774|41.22|4|1|5|0.0129198966408269|0.0532558139534884|0.4|0
1788|2|467|92.95|6|3|4|0.0578158458244111|0.199036402569593|0.222222222222222|0
1433|4|870|18.45|7|3|1|0.00344827586206897|0.0212068965517241|2.3333333333333304|0
501|1|923|72.62|5|9|3|0.0227518959913326|0.0786782231852654|0.23809523809523803|1
1373|6|596|78.36|7|0|2|0.008389261744966441|0.131476510067114|1.4|0
307|2|1048|45.74|3|5|5|0.00477099236641221|0.0436450381679389|0.6|0
1307|4|1176|42.45|6|6|0|0.00850340136054422|0.0360969387755102|0.6|0
598|6|1164|89.32|11|4|1|0.006872852233676979|0.0767353951890034|1.375|0
1078|2|929|65.61|4|2|0|0.031216361679225|0.0706243272335845|0.137931034482759|0
891|6|1763|30.98|0|5|5|0.0124787294384572|0.0175723199092456|0.0|0
945|2|1221|52.94|10|5|3|0.00163800163800164|0.0433579033579034|5.0|0
1577|1|1823|24.46|4|4|5|0.0148107515085025|0.0134174437739989|0.148148148148148|1
1024|1|1000|76.72|5|5|2|0.024|0.07672000000000001|0.208333333333333|1
1575|5|1468|97.89|11|0|5|0.00204359673024523|0.0666825613079019|3.6666666666666696|0
1755|1|1308|74.42|6|5|3|0.00535168195718654|0.0568960244648318|0.857142857142857|0
1393|5|1615|99.49|6|10|0|0.0074303405572755405|0.0616037151702786|0.5|0
519|6|1192|59.87|8|6|3|0.0201342281879195|0.0502265100671141|0.33333333333333304|0
747|6|1746|87.99|0|2|5|0.011454753722795|0.0503951890034364|0.0|0
1284|2|1400|44.37|10|1|2|0.02|0.0316928571428571|0.3571428571428571|1
1652|4|1480|65.67|2|7|5|0.0202702702702703|0.0443716216216216|0.0666666666666667|0
814|4|1473|48.78|3|3|3|0.00407331975560081|0.0331160896130346|0.5|0
1593|5|973|48.59|10|1|1|0.0154162384378212|0.0499383350462487|0.666666666666667|0
1522|4|91|78.15|7|3|3|0.19780219780219802|0.8587912087912092|0.38888888888888895|0
1689|2|1649|55.81|1|10|0|0.005457853244390539|0.033844754396604004|0.111111111111111|0
1476|6|631|44.78|2|5|5|0.009508716323296359|0.0709667194928685|0.33333333333333304|0
1814|2|770|9.17|11|10|5|0.0298701298701299|0.0119090909090909|0.4782608695652171|0
1033|6|1315|30.49|0|9|5|0.0152091254752852|0.0231863117870722|0.0|0
802|1|934|94.3|3|0|2|0.0139186295503212|0.10096359743040699|0.23076923076923103|0
1804|4|1175|74.52|4|4|3|0.0127659574468085|0.0634212765957447|0.266666666666667|0
1322|6|871|99.46|4|10|3|0.0275545350172216|0.114190585533869|0.166666666666667|0
170|4|81|51.58|9|3|5|0.185185185185185|0.6367901234567901|0.6|0
915|3|689|76.55|6|1|1|0.0217706821480406|0.11110304789550099|0.4|0
67|2|1327|7.02|7|1|5|0.0188394875659382|0.00529012810851545|0.28|0
1253|2|183|83.31|0|10|1|0.0601092896174863|0.45524590163934403|0.0|0
1241|3|1176|21.93|3|10|4|0.00425170068027211|0.0186479591836735|0.6|0
1339|1|424|97.86|8|8|2|0.0707547169811321|0.230801886792453|0.266666666666667|1
1394|6|401|71.24|2|7|3|0.0349127182044888|0.17765586034912698|0.14285714285714302|0
330|1|1499|96.19|9|0|3|0.0180120080053369|0.0641694462975317|0.33333333333333304|1
677|3|587|8.2|11|2|5|0.0323679727427598|0.013969335604769999|0.578947368421053|0
283|4|1546|10.98|10|9|2|0.0116429495472186|0.0071021992238033595|0.555555555555556|0
532|6|814|41.64|6|3|4|0.00737100737100737|0.0511547911547912|1.0|0
41|2|622|60.75|11|5|4|0.0128617363344051|0.0976688102893891|1.375|0
1005|1|1209|98.16|6|9|2|0.0124069478908189|0.0811910669975186|0.4|0
1557|3|427|79.03|8|3|0|0.00702576112412178|0.18508196721311498|2.6666666666666696|0
1798|2|1571|12.01|8|8|5|0.0063653723742839|0.007644812221514959|0.8|0
866|2|939|42.53|8|1|5|0.00638977635782748|0.0452928647497338|1.33333333333333|0
927|5|1410|7.64|6|3|3|0.00567375886524823|0.00541843971631206|0.75|0
68|6|449|21.0|5|4|2|0.0022271714922049|0.0467706013363029|5.0|0
1453|3|1231|29.2|8|10|3|0.0129975629569456|0.0237205523964257|0.5|0
807|2|1379|99.76|1|4|5|0.0101522842639594|0.0723422770123278|0.0714285714285714|0
996|5|934|57.43|5|1|0|0.0235546038543897|0.0614882226980728|0.22727272727272702|0
1537|2|1497|34.02|1|0|3|0.0187040748162993|0.0227254509018036|0.0357142857142857|0
123|3|435|9.79|2|5|4|0.0528735632183908|0.0225057471264368|0.0869565217391304|0
1867|2|206|71.3|4|0|4|0.106796116504854|0.34611650485436896|0.18181818181818202|0
502|3|1762|30.71|7|3|3|0.00681044267877412|0.0174290578887628|0.583333333333333|0
1835|3|3|64.94|3|4|3|4.66666666666667|21.646666666666697|0.214285714285714|0
276|6|127|11.91|10|4|4|0.22834645669291298|0.0937795275590551|0.34482758620689696|0
1377|6|1457|87.56|5|2|3|0.0123541523678792|0.0600960878517502|0.277777777777778|0
1421|4|1489|20.55|9|3|0|0.0094022834116857|0.0138012088650101|0.6428571428571429|0
258|6|1097|21.77|1|10|0|0.0100273473108478|0.019845031905196|0.0909090909090909|0
653|4|1568|99.64|3|2|4|0.0153061224489796|0.0635459183673469|0.125|0
992|6|569|60.21|2|10|2|0.0474516695957821|0.105817223198594|0.0740740740740741|0
1800|1|1381|69.57|1|9|4|0.0166545981173063|0.0503765387400435|0.0434782608695652|1
1767|2|741|51.85|4|10|4|0.00269905533063428|0.0699730094466937|2.0|0
112|2|1278|98.78|2|3|1|0.00625978090766823|0.0772926447574335|0.25|0
69|4|1228|3.17|7|4|4|0.0244299674267101|0.0025814332247557|0.23333333333333303|0
1372|4|721|7.18|10|0|2|0.0013869625520111|0.00995839112343967|10.0|0
535|2|45|32.81|4|4|0|0.133333333333333|0.7291111111111109|0.666666666666667|0
1728|1|532|93.35|0|4|4|0.0112781954887218|0.17546992481203|0.0|0
669|6|486|91.58|3|2|4|0.0411522633744856|0.18843621399177|0.15|0
524|2|884|79.98|4|6|5|0.00452488687782805|0.0904751131221719|1.0|0
91|1|996|71.94|7|0|1|0.0271084337349398|0.0722289156626506|0.25925925925925897|1
902|5|709|47.16|7|9|2|0.0126939351198872|0.0665162200282088|0.7777777777777779|0
1636|6|1200|19.99|7|9|4|0.0075|0.0166583333333333|0.7777777777777779|0
1300|5|900|24.74|2|2|2|0.0177777777777778|0.0274888888888889|0.125|0
1204|4|704|77.63|0|2|2|0.00710227272727273|0.110269886363636|0.0|0
1586|5|1361|94.21|8|10|3|0.0102865540044085|0.0692211609110948|0.5714285714285711|0
1292|2|328|2.51|9|9|4|0.0762195121951219|0.00765243902439024|0.36|0
1297|3|1054|89.39|5|6|3|0.0189753320683112|0.0848102466793169|0.25|0
1761|2|55|12.86|11|9|2|0.25454545454545496|0.233818181818182|0.7857142857142858|0
46|6|1433|72.19|7|7|0|0.0174459176552687|0.0503768318213538|0.28|0
1067|3|992|93.94|9|6|3|0.0110887096774194|0.0946975806451613|0.818181818181818|0
1115|5|1440|78.98|7|2|4|0.0125|0.0548472222222222|0.38888888888888895|0
147|4|921|3.39|3|4|2|0.00217155266015201|0.00368078175895765|1.5|0
57|6|692|21.65|7|7|5|0.0216763005780347|0.0312861271676301|0.46666666666666706|0
619|4|969|82.38|10|6|3|0.022703818369453|0.085015479876161|0.45454545454545503|0
1208|2|810|22.5|9|7|3|0.0135802469135802|0.0277777777777778|0.818181818181818|0
1739|5|1600|43.51|4|0|0|0.0175|0.02719375|0.14285714285714302|0
251|2|705|17.95|4|3|3|0.0184397163120567|0.0254609929078014|0.307692307692308|0
1452|2|355|61.15|6|5|0|0.0845070422535211|0.17225352112676098|0.2|0
458|5|937|70.88|4|1|3|0.0064034151547492|0.0756456776947705|0.666666666666667|0
372|4|1662|21.4|3|7|3|0.0120336943441637|0.0128760529482551|0.15|0
378|1|521|89.61|1|0|1|0.0556621880998081|0.171996161228407|0.0344827586206897|0
500|3|946|43.23|6|5|0|0.0306553911205074|0.0456976744186047|0.206896551724138|0
1863|1|1134|14.51|7|2|4|0.00264550264550265|0.0127954144620811|2.3333333333333304|0
1771|4|113|58.9|9|4|0|0.256637168141593|0.5212389380530971|0.31034482758620696|0
1454|6|351|73.52|8|1|3|0.0398860398860399|0.20945868945868898|0.5714285714285711|0
1660|4|1082|79.13|11|3|3|0.0249537892791128|0.0731330868761553|0.407407407407407|0
1729|3|421|79.04|4|2|0|0.0071258907363420405|0.187743467933492|1.33333333333333|0
712|2|1688|52.49|3|5|5|0.004739336492891|0.031095971563981004|0.375|0
620|1|1177|82.53|8|0|4|0.0110450297366185|0.0701189464740867|0.615384615384615|0
1255|4|483|30.2|9|2|0|0.0020703933747412|0.0625258799171843|9.0|0
9|2|725|41.08|10|2|4|0.0372413793103448|0.0566620689655172|0.37037037037037|0
1338|6|595|36.09|1|9|2|0.0252100840336134|0.060655462184874|0.0666666666666667|0
1753|4|1738|70.03|10|9|2|0.00575373993095512|0.0402934407364787|1.0|0
1840|5|1555|33.38|8|2|2|0.00128617363344051|0.0214662379421222|4.0|0
332|2|694|74.11|10|6|4|0.0115273775216138|0.10678674351585|1.25|0
510|3|670|16.76|0|7|5|0.0343283582089552|0.0250149253731343|0.0|0
1730|4|13|73.98|10|9|5|1.46153846153846|5.69076923076923|0.526315789473684|0
1631|5|33|65.62|5|1|5|0.0303030303030303|1.9884848484848503|5.0|0
1034|1|976|46.3|7|0|4|0.00307377049180328|0.0474385245901639|2.3333333333333304|0
1008|6|1570|83.22|5|6|3|0.00700636942675159|0.0530063694267516|0.45454545454545503|0
730|3|1536|79.94|5|9|1|0.00325520833333333|0.0520442708333333|1.0|0
753|1|201|91.28|0|3|1|0.12437810945273599|0.454129353233831|0.0|0
1162|1|834|77.9|2|10|4|0.0311750599520384|0.0934052757793765|0.0769230769230769|1
368|1|580|80.49|7|9|0|0.0120689655172414|0.138775862068965|1.0|0
1017|2|405|71.52|2|0|0|0.0592592592592593|0.17659259259259302|0.0833333333333333|0
453|3|1808|89.35|5|1|1|0.0138274336283186|0.0494192477876106|0.2|0
1009|2|1409|60.44|8|6|5|0.0063875088715401|0.0428956706884315|0.8888888888888891|0
944|1|29|8.35|9|10|0|0.206896551724138|0.287931034482759|1.5|0
1210|1|871|89.92|2|5|5|0.00229621125143513|0.10323765786452399|1.0|0
1085|6|121|75.89|0|1|2|0.0991735537190083|0.6271900826446279|0.0|0
1569|2|1323|43.26|4|6|5|0.018896447467876|0.0326984126984127|0.16|0
1414|6|1220|85.4|3|0|3|0.00573770491803279|0.07|0.42857142857142894|0
1432|5|1145|11.05|4|1|3|0.00786026200873362|0.00965065502183406|0.444444444444444|0
766|5|1718|48.24|1|7|5|0.00407450523864959|0.0280791618160652|0.14285714285714302|0
952|4|1015|57.97|2|4|2|0.0147783251231527|0.0571133004926108|0.133333333333333|0
1441|1|892|94.62|10|6|0|0.0201793721973094|0.10607623318385699|0.555555555555556|0
115|2|1094|91.26|9|0|3|0.00639853747714808|0.08341864716636199|1.28571428571429|0
1802|1|796|28.96|5|3|2|0.0201005025125628|0.0363819095477387|0.3125|0
1272|5|1677|88.07|5|7|5|0.0172927847346452|0.0525163983303518|0.172413793103448|0
1151|2|1818|57.67|2|4|1|0.0137513751375138|0.0317216721672167|0.08|0
22|4|934|98.54|0|5|2|0.00856531049250535|0.10550321199143499|0.0|0
79|3|1771|2.51|3|1|4|0.00508187464709204|0.00141727837380011|0.33333333333333304|0
187|6|1559|68.32|11|8|5|0.0153944836433611|0.0438229634381014|0.4583333333333329|0
1443|6|650|32.58|9|3|0|0.0292307692307692|0.0501230769230769|0.47368421052631604|0
1714|3|1478|68.55|5|6|0|0.0162381596752368|0.0463802435723951|0.208333333333333|0
242|1|439|63.23|10|3|2|0.0182232346241458|0.144031890660592|1.25|0
1543|4|168|9.35|6|6|5|0.136904761904762|0.0556547619047619|0.260869565217391|0
490|1|1213|93.48|9|1|3|0.0123660346248969|0.0770651277823578|0.6|0
338|3|1744|78.42|9|8|4|0.0172018348623853|0.0449655963302752|0.3|0
1505|4|340|80.66|11|4|2|0.0117647058823529|0.237235294117647|2.75|0
1637|1|808|11.71|10|4|2|0.0148514851485149|0.0144925742574257|0.833333333333333|0
1571|2|354|0.58|7|3|1|0.0282485875706215|0.00163841807909605|0.7|0
342|4|741|36.36|3|4|2|0.0323886639676113|0.0490688259109312|0.125|0
201|2|373|28.95|5|2|4|0.0670241286863271|0.0776139410187668|0.2|0
389|2|1228|73.68|2|6|0|0.0138436482084691|0.06|0.11764705882352902|0
1313|1|421|6.8|9|9|2|0.0665083135391924|0.0161520190023753|0.32142857142857106|1
792|5|563|21.35|10|10|5|0.00177619893428064|0.0379218472468917|10.0|0
1293|2|911|92.23|1|3|4|0.0197585071350165|0.10124039517014301|0.0555555555555556|0
1172|6|833|46.81|0|0|2|0.0360144057623049|0.0561944777911164|0.0|0
938|5|942|16.19|9|3|1|0.00212314225053079|0.0171868365180467|4.5|0
721|6|426|13.15|6|10|5|0.0586854460093897|0.030868544600939|0.24|0
10|5|1533|84.73|4|2|4|0.0104370515329419|0.0552707110241357|0.25|0
1740|2|1576|60.52|5|7|2|0.00697969543147208|0.0384010152284264|0.45454545454545503|0
1429|3|651|49.17|3|7|0|0.007680491551459291|0.0755299539170507|0.6|0
689|5|450|13.67|5|2|0|0.0577777777777778|0.0303777777777778|0.19230769230769199|0
1248|2|1261|89.41|7|0|0|0.0229976209357653|0.07090404440919901|0.24137931034482799|0
761|2|1352|29.19|5|5|3|0.0177514792899408|0.0215902366863905|0.208333333333333|0
1042|3|433|32.5|7|2|0|0.0254041570438799|0.0750577367205543|0.6363636363636359|0
350|6|1573|62.05|9|6|5|0.008264462809917359|0.039446916719643996|0.6923076923076921|0
1560|1|1730|11.13|8|7|0|0.0121387283236994|0.00643352601156069|0.38095238095238104|1
345|4|709|0.23|2|8|3|0.0239774330042313|0.000324400564174894|0.11764705882352902|0
864|3|1493|93.07|11|7|5|0.00669792364367046|0.062337575351641|1.1|0
602|6|510|27.59|8|5|4|0.0039215686274509795|0.0540980392156863|4.0|0
1130|4|422|60.74|10|5|1|0.0497630331753555|0.1439336492891|0.47619047619047605|0
39|4|847|22.88|4|5|2|0.0106257378984652|0.027012987012987003|0.444444444444444|0
367|3|1331|52.7|6|6|2|0.0180315552216379|0.0395942900075131|0.25|0
518|3|868|61.36|6|2|3|0.0276497695852535|0.0706912442396313|0.25|0
7|2|1545|22.8|0|8|4|0.00647249190938511|0.0147572815533981|0.0|0
1651|1|1814|91.08|4|5|0|0.000551267916207277|0.0502094818081588|4.0|0
551|3|1227|9.43|9|4|0|0.006519967400163|0.00768541157294214|1.125|0
870|6|1831|60.66|10|4|0|0.008738394320043691|0.0331294374658656|0.625|0
491|6|1448|58.75|11|8|0|0.0138121546961326|0.0405732044198895|0.55|0
1467|1|900|69.02|6|5|4|0.0111111111111111|0.0766888888888889|0.6|0
232|2|1698|7.59|6|7|5|0.0111896348645465|0.00446996466431095|0.315789473684211|0
17|6|590|79.84|6|10|4|0.0406779661016949|0.135322033898305|0.25|0
1028|6|25|55.37|6|3|0|0.68|2.2148|0.3529411764705879|0
1772|2|1178|26.85|2|0|0|0.00764006791171477|0.0227928692699491|0.222222222222222|0
916|4|1238|17.79|8|0|0|0.0153473344103393|0.0143699515347334|0.421052631578947|0
679|4|400|86.11|0|7|0|0.0025|0.215275|0.0|0
1381|2|1099|6.87|5|9|3|0.00818926296633303|0.00625113739763421|0.555555555555556|0
640|5|401|20.27|2|6|3|0.00249376558603491|0.0505486284289277|2.0|0
1411|1|913|95.01|8|0|0|0.0306681270536692|0.104063526834611|0.28571428571428603|1
484|4|1225|88.95|11|9|5|0.00326530612244898|0.0726122448979592|2.75|0
507|1|1448|1.22|0|6|1|0.00138121546961326|0.000842541436464088|0.0|0
1649|3|1116|24.18|6|7|0|0.0134408602150538|0.0216666666666667|0.4|0
782|4|479|29.84|4|1|3|0.00208768267223382|0.0622964509394572|4.0|0
370|5|641|19.4|5|6|2|0.0249609984399376|0.0302652106084243|0.3125|0
1257|2|1191|39.0|9|7|4|0.00923593618807725|0.0327455919395466|0.818181818181818|0
451|1|886|84.93|9|3|5|0.0158013544018059|0.0958577878103838|0.6428571428571429|0
840|5|1017|55.61|10|10|4|0.0245821042281219|0.0546804326450344|0.4|0
329|1|1244|87.97|3|8|2|0.00803858520900321|0.0707154340836013|0.3|0
1140|1|779|40.17|0|3|5|0.00256739409499358|0.0515661103979461|0.0|0
292|1|1830|48.69|10|10|0|0.0136612021857923|0.0266065573770492|0.4|1
769|3|1528|36.01|1|5|3|0.0130890052356021|0.0235667539267016|0.05|0
1793|2|1767|63.45|11|1|1|0.0130164119977363|0.0359083191850594|0.4782608695652171|0
947|4|1177|33.67|0|10|2|0.007646559048428209|0.028606627017842005|0.0|0
196|2|1767|25.97|7|5|1|0.009054895302773059|0.0146972269383135|0.4375|0
286|6|732|18.93|0|10|2|0.0177595628415301|0.0258606557377049|0.0|0
1344|5|1525|6.52|0|7|3|0.0019672131147541|0.00427540983606557|0.0|0
376|5|337|9.35|3|7|3|0.0474777448071217|0.0277448071216617|0.1875|0
269|6|890|59.49|11|4|4|0.0112359550561798|0.0668426966292135|1.1|0
943|3|1588|5.97|11|7|2|0.0119647355163728|0.00375944584382872|0.578947368421053|0
163|6|1668|73.58|1|5|3|0.012589928057553998|0.0441127098321343|0.0476190476190476|0
452|4|1603|90.0|1|1|5|0.000623830318153462|0.0561447286338116|1.0|0
1736|3|429|88.55|1|8|0|0.00233100233100233|0.20641025641025604|1.0|0
503|6|941|47.36|9|4|0|0.0180658873538789|0.0503294367693943|0.529411764705882|0
1120|6|378|2.36|9|5|2|0.0529100529100529|0.00624338624338624|0.45|0
1630|3|790|84.05|4|6|0|0.0240506329113924|0.106392405063291|0.21052631578947398|0
760|2|364|62.82|8|8|3|0.0659340659340659|0.172582417582418|0.33333333333333304|0
763|4|1758|58.48|1|1|5|0.0159271899886234|0.0332650739476678|0.0357142857142857|0
73|3|1393|99.58|1|8|0|0.0136396267049533|0.0714860014357502|0.0526315789473684|0
1718|1|667|26.44|10|7|4|0.00149925037481259|0.039640179910044995|10.0|0
959|2|59|34.06|5|10|4|0.338983050847458|0.57728813559322|0.25|0
1510|3|1736|79.36|2|9|5|0.0046082949308755795|0.0457142857142857|0.25|0
317|2|1783|78.3|11|3|3|0.0033651149747616397|0.0439147504206394|1.8333333333333302|0
416|4|499|30.42|4|6|0|0.0120240480961924|0.0609619238476954|0.666666666666667|0
133|4|270|78.69|3|0|3|0.0925925925925926|0.29144444444444395|0.12|0
119|6|493|86.24|6|0|3|0.0365111561866126|0.17492900608519302|0.33333333333333304|0
1644|5|1814|8.37|8|6|0|0.00220507166482911|0.00461411245865491|2.0|0
1346|3|1483|86.76|0|5|2|0.0101146325016858|0.0585030343897505|0.0|0
137|3|304|12.09|2|8|0|0.0296052631578947|0.0397697368421053|0.222222222222222|0
529|3|565|30.39|2|3|4|0.0230088495575221|0.053787610619469|0.153846153846154|0
909|3|663|81.29|10|2|1|0.0346907993966818|0.122609351432881|0.43478260869565205|0
1040|4|1065|48.8|3|2|2|0.0131455399061033|0.0458215962441315|0.214285714285714|0
1762|2|1637|70.76|1|4|0|0.0018326206475259602|0.0432254123396457|0.33333333333333304|0
81|3|1018|27.26|1|9|0|0.0235756385068762|0.0267779960707269|0.0416666666666667|0
748|3|9|22.6|7|2|0|2.1111111111111103|2.5111111111111097|0.368421052631579|0
1098|4|575|70.21|2|4|2|0.0452173913043478|0.12210434782608699|0.0769230769230769|0
711|2|358|5.31|0|10|5|0.0335195530726257|0.0148324022346369|0.0|0
1285|1|832|74.83|6|10|3|0.0180288461538462|0.0899399038461538|0.4|0
1321|4|1669|9.51|11|0|5|0.0131815458358298|0.0056980227681246295|0.5|0
609|5|720|73.29|8|10|3|0.00555555555555556|0.101791666666667|2.0|0
540|4|1412|47.42|10|1|5|0.000708215297450425|0.0335835694050991|10.0|0
1430|2|1458|10.4|7|7|1|0.014403292181069999|0.007133058984910841|0.33333333333333304|0
962|6|1153|26.74|6|3|1|0.0164787510841284|0.0231916738941891|0.315789473684211|0
1770|4|1413|33.23|6|5|0|0.0176928520877565|0.023517338995046|0.24|0
511|2|459|58.95|4|10|5|0.0239651416122004|0.12843137254901998|0.36363636363636404|0
554|5|1345|45.01|11|9|1|0.0200743494423792|0.0334646840148699|0.407407407407407|0
437|2|524|1.39|8|7|1|0.017175572519083998|0.00265267175572519|0.8888888888888891|0
542|2|932|80.12|2|1|3|0.00321888412017167|0.0859656652360515|0.666666666666667|0
1605|6|1477|59.6|3|8|2|0.00812457684495599|0.0403520649966148|0.25|0
558|1|19|63.22|0|2|4|0.631578947368421|3.32736842105263|0.0|0
1484|5|142|53.7|4|1|4|0.028169014084507005|0.378169014084507|1.0|0
1407|2|553|43.31|5|0|3|0.00723327305605787|0.0783182640144666|1.25|0
793|4|445|46.42|6|10|3|0.0449438202247191|0.10431460674157302|0.3|0
1391|1|719|52.85|2|7|2|0.0375521557719054|0.0735048678720445|0.0740740740740741|1
1661|4|438|90.43|2|10|5|0.0091324200913242|0.20646118721461199|0.5|0
950|1|653|56.89|9|2|2|0.0367534456355283|0.0871209800918836|0.375|0
830|4|1794|4.14|8|1|1|0.00167224080267559|0.00230769230769231|2.6666666666666696|0
825|3|246|18.32|11|4|2|0.0569105691056911|0.0744715447154472|0.7857142857142858|0
